"2079.0","123.0","717.0","1008.0","784.0","1127.0","1531.0","251.0","1137.0"
"1884.0","122.0","900.0","708.0","760.0","1438.0","1231.0","248.0","1427.0"
"2415.0","156.0","702.0","1147.0","1058.0","1068.0","1761.0","331.0","1181.0"
"1970.0","142.0","1043.0","919.0","877.0","1359.0","1372.0","272.0","1511.0"
"1928.0","154.0","1239.0","757.0","963.0","1601.0","1294.0","304.0","1723.0"
"1800.0","147.0","1326.0","668.0","948.0","1657.0","1099.0","281.0","1893.0"
"2580.0","148.0","1045.0","1258.0","1071.0","1444.0","1923.0","314.0","1536.0"
"1676.0","142.0","1834.0","488.0","1085.0","2079.0","873.0","295.0","2484.0"
"1877.0","240.0","1167.0","782.0","1008.0","1494.0","1189.0","319.0","1776.0"
"1778.0","98.0","866.0","640.0","792.0","1310.0","1167.0","186.0","1389.0"
"2314.0","123.0","672.0","993.0","1122.0","994.0","1699.0","269.0","1141.0"
"2278.0","102.0","611.0","1134.0","1028.0","829.0","1702.0","249.0","1040.0"
"1790.0","96.0","1271.0","664.0","1069.0","1424.0","1077.0","265.0","1815.0"
"1876.0","116.0","1117.0","676.0","1077.0","1356.0","1140.0","256.0","1713.0"
"2603.0","96.0","910.0","1221.0","1147.0","1241.0","1891.0","268.0","1450.0"
"1838.0","134.0","1516.0","540.0","1322.0","1626.0","995.0","333.0","2160.0"
"1887.0","92.0","1141.0","681.0","979.0","1460.0","1175.0","246.0","1699.0"
"1976.0","156.0","964.0","641.0","1187.0","1268.0","1252.0","277.0","1567.0"
"1967.0","105.0","906.0","838.0","1033.0","1107.0","1376.0","246.0","1356.0"
"2254.0","73.0","817.0","1098.0","1015.0","1031.0","1666.0","242.0","1236.0"
"1941.0","121.0","1034.0","749.0","1153.0","1194.0","1283.0","266.0","1547.0"
"3114.0","100.0","382.0","1817.0","1012.0","767.0","2673.0","214.0","709.0"
"2371.0","75.0","1029.0","881.0","1031.0","1563.0","1567.0","205.0","1703.0"
"2104.0","112.0","891.0","827.0","860.0","1420.0","1426.0","238.0","1443.0"
"2116.0","119.0","1110.0","816.0","1142.0","1387.0","1336.0","286.0","1723.0"
"2494.0","106.0","911.0","1075.0","1304.0","1132.0","1782.0","275.0","1454.0"
"2212.0","143.0","1108.0","809.0","1190.0","1464.0","1435.0","293.0","1735.0"
"2747.0","141.0","1075.0","1224.0","1610.0","1129.0","1993.0","359.0","1611.0"
"2939.0","134.0","769.0","1209.0","1657.0","976.0","2169.0","350.0","1323.0"
"2451.0","172.0","851.0","1001.0","1451.0","1022.0","1688.0","328.0","1458.0"
"2796.0","223.0","374.0","1603.0","1383.0","407.0","2297.0","483.0","613.0"
"2269.0","214.0","862.0","1049.0","1395.0","901.0","1598.0","406.0","1341.0"
"2771.0","129.0","945.0","1461.0","1377.0","1007.0","2163.0","323.0","1359.0"
"2391.0","261.0","1072.0","1016.0","1496.0","1212.0","1747.0","362.0","1615.0"
"1628.0","645.0","1083.0","731.0","1855.0","770.0","1124.0","792.0","1440.0"
"2501.0","154.0","856.0","1223.0","1374.0","914.0","1848.0","380.0","1283.0"
"2611.0","120.0","1280.0","1199.0","1418.0","1394.0","1836.0","350.0","1825.0"
"2286.0","120.0","1484.0","823.0","1299.0","1768.0","1445.0","303.0","2142.0"
"2441.0","134.0","947.0","1119.0","1177.0","1226.0","1714.0","314.0","1494.0"
"2956.0","187.0","820.0","1479.0","1603.0","881.0","2231.0","417.0","1315.0"
"3389.0","245.0","208.0","1711.0","1824.0","307.0","2841.0","560.0","441.0"
"2382.0","120.0","972.0","1072.0","1275.0","1127.0","1623.0","283.0","1568.0"
"2612.0","112.0","1618.0","1013.0","1399.0","1930.0","1652.0","321.0","2369.0"
"3018.0","145.0","811.0","1528.0","1377.0","1069.0","2303.0","343.0","1328.0"
"2296.0","108.0","1449.0","848.0","1328.0","1677.0","1450.0","257.0","2146.0"
"1396.0","104.0","1123.0","352.0","763.0","1508.0","739.0","195.0","1689.0"
"2109.0","79.0","802.0","707.0","1017.0","1266.0","1341.0","229.0","1420.0"
"1296.0","114.0","1462.0","370.0","999.0","1503.0","613.0","252.0","2007.0"
"2153.0","100.0","785.0","936.0","1013.0","1089.0","1474.0","264.0","1300.0"
"2026.0","106.0","858.0","743.0","1029.0","1218.0","1289.0","279.0","1422.0"
"2417.0","91.0","982.0","986.0","1112.0","1392.0","1621.0","298.0","1571.0"
"2181.0","74.0","1114.0","657.0","1201.0","1511.0","1259.0","263.0","1847.0"
"2312.0","158.0","531.0","1082.0","1237.0","682.0","1676.0","382.0","943.0"
"2096.0","110.0","771.0","776.0","1039.0","1162.0","1440.0","235.0","1302.0"
"1911.0","94.0","854.0","800.0","914.0","1145.0","1257.0","219.0","1383.0"
"2234.0","168.0","623.0","985.0","1330.0","710.0","1596.0","369.0","1060.0"
"1472.0","114.0","1391.0","443.0","918.0","1616.0","799.0","242.0","1936.0"
"2499.0","91.0","887.0","1146.0","1039.0","1292.0","1761.0","264.0","1452.0"
"1783.0","596.0","977.0","491.0","2099.0","766.0","1195.0","832.0","1329.0"
"788.0","129.0","2071.0","149.0","850.0","1989.0","151.0","229.0","2608.0"
"2171.0","90.0","965.0","830.0","1086.0","1310.0","1404.0","256.0","1566.0"
"2725.0","110.0","557.0","1259.0","1547.0","586.0","2080.0","368.0","944.0"
"2252.0","120.0","972.0","807.0","1307.0","1230.0","1412.0","308.0","1624.0"
"2630.0","196.0","1018.0","1005.0","1765.0","1074.0","1810.0","450.0","1584.0"
"1072.0","78.0","2573.0","254.0","1368.0","2101.0","342.0","295.0","3086.0"
"2660.0","116.0","579.0","1251.0","1344.0","760.0","1960.0","309.0","1086.0"
"2340.0","136.0","798.0","1171.0","1280.0","823.0","1679.0","388.0","1207.0"
"2235.0","78.0","913.0","1032.0","1170.0","1024.0","1538.0","282.0","1406.0"
"2741.0","122.0","863.0","1394.0","1453.0","879.0","2039.0","395.0","1292.0"
"2527.0","93.0","985.0","997.0","1226.0","1382.0","1722.0","281.0","1602.0"
"2348.0","156.0","733.0","1124.0","1297.0","816.0","1614.0","426.0","1197.0"
"2483.0","108.0","801.0","1132.0","1344.0","916.0","1730.0","324.0","1338.0"
"1988.0","169.0","1735.0","702.0","1350.0","1840.0","1198.0","335.0","2359.0"
"2473.0","80.0","1218.0","890.0","1323.0","1558.0","1578.0","305.0","1888.0"
"2348.0","96.0","959.0","1055.0","1185.0","1163.0","1604.0","291.0","1508.0"
"2722.0","97.0","1025.0","1282.0","1454.0","1108.0","1964.0","279.0","1601.0"
"965.0","161.0","2597.0","216.0","1483.0","2024.0","316.0","340.0","3067.0"
"2110.0","79.0","1166.0","817.0","1130.0","1408.0","1323.0","238.0","1794.0"
"2867.0","73.0","1283.0","1101.0","1476.0","1646.0","1867.0","310.0","2046.0"
"2940.0","176.0","739.0","1493.0","1442.0","920.0","2210.0","397.0","1248.0"
"2586.0","77.0","1071.0","974.0","1279.0","1481.0","1659.0","257.0","1818.0"
"1978.0","74.0","761.0","613.0","1129.0","1071.0","1264.0","197.0","1352.0"
"2034.0","71.0","590.0","855.0","1038.0","802.0","1417.0","222.0","1056.0"
"1104.0","94.0","1663.0","258.0","962.0","1641.0","451.0","224.0","2186.0"
"2002.0","67.0","744.0","719.0","1110.0","984.0","1255.0","218.0","1340.0"
"2296.0","67.0","950.0","866.0","1144.0","1303.0","1537.0","217.0","1559.0"
"1747.0","108.0","1337.0","438.0","1137.0","1617.0","914.0","212.0","2066.0"
"1879.0","77.0","868.0","657.0","982.0","1185.0","1191.0","189.0","1444.0"
"2565.0","106.0","391.0","1249.0","1368.0","445.0","2048.0","321.0","693.0"
"1742.0","481.0","1005.0","673.0","1828.0","727.0","1248.0","685.0","1295.0"
"1138.0","92.0","1950.0","399.0","1354.0","1427.0","532.0","255.0","2393.0"
"2845.0","63.0","772.0","1172.0","1440.0","1068.0","2037.0","280.0","1363.0"
"2773.0","90.0","696.0","1115.0","1496.0","948.0","1982.0","273.0","1304.0"
"2284.0","118.0","789.0","862.0","1317.0","1012.0","1490.0","293.0","1408.0"
"2259.0","225.0","626.0","1047.0","1449.0","614.0","1561.0","534.0","1015.0"
"2440.0","103.0","519.0","1155.0","1284.0","623.0","1788.0","324.0","950.0"
"2487.0","140.0","935.0","1108.0","1464.0","990.0","1763.0","380.0","1419.0"
"2028.0","107.0","1306.0","641.0","1373.0","1427.0","1147.0","291.0","2003.0"
"2117.0","116.0","840.0","897.0","1202.0","974.0","1339.0","295.0","1439.0"
"1722.0","446.0","1060.0","605.0","1761.0","862.0","1121.0","685.0","1422.0"
"2803.0","69.0","856.0","1325.0","1372.0","1031.0","2048.0","291.0","1389.0"
"2437.0","79.0","1091.0","839.0","1372.0","1396.0","1532.0","304.0","1771.0"
"1931.0","95.0","1213.0","624.0","1231.0","1384.0","1086.0","306.0","1847.0"
"2411.0","211.0","1058.0","961.0","1683.0","1036.0","1585.0","499.0","1596.0"
"2385.0","181.0","993.0","796.0","1597.0","1166.0","1497.0","379.0","1683.0"
"2491.0","106.0","594.0","1125.0","1256.0","810.0","1803.0","293.0","1095.0"
"2360.0","75.0","1624.0","831.0","1519.0","1709.0","1367.0","306.0","2386.0"
"2496.0","112.0","1083.0","972.0","1367.0","1352.0","1573.0","322.0","1796.0"
"2458.0","104.0","1008.0","865.0","1392.0","1313.0","1503.0","255.0","1812.0"
"2162.0","81.0","806.0","822.0","1325.0","902.0","1371.0","260.0","1418.0"
"1877.0","75.0","1263.0","605.0","1294.0","1316.0","1089.0","222.0","1904.0"
"2421.0","124.0","622.0","902.0","1485.0","780.0","1663.0","330.0","1174.0"
"2342.0","68.0","1257.0","821.0","1515.0","1331.0","1420.0","261.0","1986.0"
"1833.0","57.0","1656.0","445.0","1362.0","1739.0","895.0","224.0","2427.0"
"1059.0","83.0","2036.0","288.0","1128.0","1762.0","349.0","212.0","2617.0"
"2323.0","57.0","717.0","1091.0","1148.0","858.0","1630.0","238.0","1229.0"
"2031.0","71.0","947.0","786.0","1097.0","1166.0","1298.0","230.0","1521.0"
"2273.0","59.0","1217.0","958.0","1196.0","1395.0","1510.0","248.0","1791.0"
"1942.0","88.0","1398.0","621.0","1335.0","1472.0","1098.0","247.0","2083.0"
"2126.0","94.0","840.0","857.0","1068.0","1135.0","1343.0","241.0","1476.0"
"2241.0","97.0","877.0","932.0","1252.0","1031.0","1506.0","268.0","1441.0"
"2415.0","92.0","1208.0","952.0","1410.0","1353.0","1581.0","302.0","1832.0"
"2863.0","91.0","640.0","1240.0","1486.0","868.0","2148.0","271.0","1175.0"
"2450.0","123.0","653.0","1116.0","1282.0","828.0","1757.0","325.0","1144.0"
"2320.0","89.0","1258.0","866.0","1386.0","1415.0","1433.0","261.0","1973.0"
"2489.0","119.0","938.0","860.0","1464.0","1222.0","1631.0","271.0","1644.0"
"2419.0","125.0","634.0","1068.0","1330.0","780.0","1716.0","288.0","1174.0"
"2973.0","73.0","1000.0","1159.0","1563.0","1324.0","2103.0","264.0","1679.0"
"2789.0","91.0","798.0","1291.0","1331.0","1056.0","1997.0","274.0","1407.0"
"2769.0","92.0","696.0","1123.0","1382.0","1052.0","1957.0","255.0","1345.0"
"2447.0","139.0","878.0","1111.0","1320.0","1033.0","1712.0","330.0","1422.0"
"1441.0","96.0","1879.0","487.0","1319.0","1610.0","727.0","302.0","2387.0"
"1540.0","148.0","2228.0","478.0","1513.0","1925.0","728.0","288.0","2900.0"
"2882.0","121.0","792.0","1211.0","1654.0","930.0","2079.0","370.0","1346.0"
"2391.0","151.0","885.0","1025.0","1452.0","950.0","1546.0","348.0","1533.0"
"2528.0","128.0","926.0","1013.0","1658.0","911.0","1708.0","399.0","1475.0"
"2504.0","97.0","1481.0","977.0","1652.0","1453.0","1665.0","366.0","2051.0"
"2794.0","98.0","1069.0","971.0","1655.0","1335.0","1836.0","341.0","1784.0"
"2474.0","102.0","1017.0","957.0","1434.0","1202.0","1525.0","312.0","1756.0"
"2834.0","147.0","1053.0","1199.0","1802.0","1033.0","2003.0","450.0","1581.0"
"2191.0","109.0","1613.0","765.0","1718.0","1430.0","1352.0","319.0","2242.0"
"1212.0","124.0","2209.0","404.0","1438.0","1703.0","490.0","318.0","2737.0"
"2770.0","112.0","1531.0","952.0","1869.0","1592.0","1730.0","377.0","2306.0"
"2694.0","88.0","1263.0","1156.0","1523.0","1366.0","1845.0","304.0","1896.0"
"3403.0","110.0","411.0","1542.0","1686.0","696.0","2611.0","402.0","911.0"
"2385.0","200.0","879.0","1130.0","1479.0","855.0","1643.0","462.0","1359.0"
"3102.0","191.0","671.0","1696.0","1583.0","685.0","2517.0","439.0","1008.0"
"2832.0","197.0","814.0","1401.0","1667.0","775.0","2180.0","500.0","1163.0"
"2456.0","136.0","883.0","1211.0","1329.0","935.0","1740.0","352.0","1383.0"
"2504.0","82.0","1330.0","1086.0","1297.0","1533.0","1630.0","283.0","2003.0"
"2815.0","183.0","797.0","1203.0","1721.0","871.0","2033.0","466.0","1296.0"
"2461.0","205.0","761.0","1166.0","1455.0","806.0","1716.0","445.0","1266.0"
"2923.0","151.0","1221.0","1357.0","1658.0","1280.0","2022.0","373.0","1900.0"
"2573.0","98.0","1256.0","1150.0","1367.0","1410.0","1724.0","318.0","1885.0"
"2905.0","104.0","797.0","1342.0","1433.0","1031.0","2066.0","319.0","1421.0"
"2702.0","105.0","1275.0","1222.0","1503.0","1357.0","1856.0","347.0","1879.0"
"2682.0","117.0","1162.0","1050.0","1595.0","1316.0","1738.0","370.0","1853.0"
"2323.0","150.0","1120.0","931.0","1455.0","1207.0","1429.0","405.0","1759.0"
"3502.0","119.0","840.0","1627.0","1775.0","1059.0","2606.0","414.0","1441.0"
"3154.0","97.0","842.0","1639.0","1418.0","1036.0","2344.0","331.0","1418.0"
"2685.0","221.0","1066.0","1031.0","1771.0","1170.0","1769.0","488.0","1715.0"
"2850.0","108.0","1455.0","1093.0","1691.0","1629.0","1801.0","361.0","2251.0"
"3110.0","116.0","819.0","1539.0","1519.0","987.0","2301.0","343.0","1401.0"
"2586.0","121.0","1217.0","907.0","1522.0","1495.0","1588.0","323.0","2013.0"
"3212.0","193.0","1019.0","1390.0","1845.0","1189.0","2256.0","496.0","1672.0"
"731.0","90.0","1901.0","138.0","653.0","1931.0","164.0","195.0","2363.0"
"2061.0","105.0","923.0","685.0","936.0","1468.0","1284.0","257.0","1548.0"
"904.0","109.0","1958.0","217.0","788.0","1966.0","294.0","249.0","2428.0"
"1979.0","132.0","1026.0","742.0","890.0","1505.0","1254.0","298.0","1585.0"
"1993.0","121.0","975.0","741.0","906.0","1442.0","1248.0","281.0","1560.0"
"1733.0","105.0","1751.0","535.0","967.0","2087.0","935.0","254.0","2400.0"
"991.0","80.0","2397.0","244.0","1033.0","2191.0","291.0","224.0","2953.0"
"1579.0","410.0","1111.0","469.0","1687.0","944.0","855.0","739.0","1506.0"
"811.0","90.0","2175.0","187.0","820.0","2069.0","195.0","223.0","2658.0"
"1958.0","70.0","930.0","793.0","683.0","1482.0","1321.0","207.0","1430.0"
"810.0","79.0","2235.0","142.0","812.0","2170.0","177.0","238.0","2709.0"
"2029.0","107.0","940.0","751.0","902.0","1423.0","1321.0","243.0","1512.0"
"1852.0","88.0","1636.0","604.0","923.0","2049.0","1049.0","247.0","2280.0"
"894.0","97.0","2464.0","172.0","999.0","2284.0","231.0","239.0","2985.0"
"1933.0","88.0","1066.0","676.0","730.0","1681.0","1158.0","230.0","1699.0"
"862.0","108.0","2355.0","255.0","1000.0","2070.0","280.0","266.0","2779.0"
"1927.0","85.0","1479.0","581.0","1080.0","1830.0","1051.0","298.0","2142.0"
"851.0","99.0","2493.0","196.0","1065.0","2182.0","221.0","291.0","2931.0"
"2391.0","88.0","1464.0","862.0","1141.0","1940.0","1469.0","279.0","2195.0"
"1224.0","110.0","2488.0","364.0","1295.0","2163.0","498.0","293.0","3031.0"
"903.0","98.0","2453.0","224.0","980.0","2250.0","211.0","274.0","2969.0"
"1957.0","105.0","1311.0","802.0","905.0","1666.0","1303.0","276.0","1794.0"
"2129.0","102.0","1094.0","930.0","901.0","1494.0","1419.0","276.0","1630.0"
"2554.0","91.0","1180.0","1220.0","1003.0","1602.0","1837.0","286.0","1702.0"
"1607.0","99.0","1998.0","481.0","1038.0","2185.0","800.0","291.0","2613.0"
"830.0","118.0","2388.0","214.0","837.0","2285.0","237.0","268.0","2831.0"
"1967.0","98.0","1426.0","755.0","1063.0","1673.0","1253.0","276.0","1962.0"
"2464.0","99.0","1428.0","1007.0","1236.0","1748.0","1627.0","327.0","2037.0"
"974.0","78.0","2818.0","204.0","1152.0","2514.0","285.0","292.0","3293.0"
"2290.0","110.0","1102.0","977.0","935.0","1590.0","1519.0","292.0","1691.0"
"2726.0","101.0","1116.0","1251.0","1105.0","1587.0","1920.0","289.0","1734.0"
"1918.0","110.0","1794.0","620.0","1312.0","1890.0","975.0","309.0","2538.0"
"2382.0","116.0","956.0","1045.0","986.0","1423.0","1589.0","288.0","1577.0"
"2354.0","96.0","1872.0","866.0","1264.0","2192.0","1434.0","298.0","2590.0"
"2804.0","114.0","1036.0","1343.0","1114.0","1497.0","2020.0","319.0","1615.0"
"2690.0","74.0","1069.0","1100.0","1068.0","1665.0","1828.0","263.0","1742.0"
"769.0","81.0","2062.0","166.0","887.0","1859.0","166.0","202.0","2544.0"
"1901.0","71.0","822.0","717.0","756.0","1321.0","1260.0","202.0","1332.0"
"1906.0","87.0","967.0","663.0","858.0","1439.0","1217.0","232.0","1511.0"
"806.0","87.0","2019.0","169.0","871.0","1872.0","195.0","219.0","2498.0"
"2157.0","69.0","1186.0","834.0","992.0","1586.0","1398.0","210.0","1804.0"
"928.0","81.0","2282.0","192.0","1019.0","2080.0","244.0","220.0","2827.0"
"904.0","64.0","1955.0","256.0","783.0","1884.0","235.0","203.0","2485.0"
"1158.0","88.0","1915.0","342.0","964.0","1855.0","438.0","235.0","2488.0"
"2059.0","62.0","1206.0","678.0","1098.0","1551.0","1206.0","247.0","1874.0"
"1519.0","89.0","1671.0","488.0","1123.0","1668.0","778.0","253.0","2248.0"
"2711.0","87.0","981.0","1106.0","1241.0","1432.0","1857.0","250.0","1672.0"
"2080.0","64.0","1514.0","626.0","1260.0","1772.0","1170.0","231.0","2257.0"
"869.0","67.0","2354.0","238.0","966.0","2086.0","215.0","216.0","2859.0"
"2322.0","66.0","821.0","1111.0","1006.0","1092.0","1671.0","251.0","1287.0"
"2091.0","103.0","967.0","874.0","974.0","1313.0","1356.0","248.0","1557.0"
"2833.0","125.0","703.0","1414.0","1320.0","927.0","2162.0","334.0","1165.0"
"2427.0","78.0","1035.0","946.0","1135.0","1459.0","1562.0","247.0","1731.0"
"808.0","104.0","2260.0","205.0","900.0","2067.0","221.0","234.0","2717.0"
"2352.0","87.0","888.0","1014.0","1045.0","1268.0","1602.0","269.0","1456.0"
"2098.0","105.0","1624.0","784.0","1161.0","1882.0","1282.0","302.0","2243.0"
"2227.0","80.0","1399.0","737.0","1210.0","1759.0","1359.0","276.0","2071.0"
"1831.0","82.0","1425.0","597.0","980.0","1761.0","1022.0","256.0","2060.0"
"2472.0","125.0","1182.0","992.0","1286.0","1501.0","1620.0","341.0","1818.0"
"1887.0","95.0","1676.0","668.0","1329.0","1661.0","1076.0","259.0","2323.0"
"933.0","101.0","2256.0","239.0","992.0","2059.0","244.0","228.0","2818.0"
"2443.0","85.0","1630.0","879.0","1372.0","1907.0","1490.0","273.0","2395.0"
"2951.0","88.0","751.0","1403.0","1173.0","1214.0","2173.0","272.0","1345.0"
"2460.0","81.0","1128.0","823.0","1145.0","1701.0","1522.0","241.0","1906.0"
"2384.0","218.0","546.0","999.0","1538.0","611.0","1734.0","482.0","932.0"
"1998.0","76.0","1240.0","613.0","1032.0","1669.0","1164.0","241.0","1909.0"
"1741.0","72.0","1453.0","554.0","1101.0","1611.0","915.0","235.0","2116.0"
"2495.0","53.0","1218.0","953.0","1113.0","1700.0","1630.0","236.0","1900.0"
"1054.0","78.0","2513.0","281.0","1210.0","2154.0","356.0","212.0","3077.0"
"1260.0","82.0","1935.0","333.0","960.0","1984.0","466.0","204.0","2607.0"
"601.0","128.0","2467.0","144.0","1143.0","1909.0","150.0","254.0","2792.0"
"709.0","70.0","2369.0","228.0","832.0","2088.0","192.0","192.0","2764.0"
"2521.0","70.0","1057.0","1114.0","1002.0","1532.0","1749.0","237.0","1662.0"
"1806.0","54.0","1667.0","630.0","1013.0","1884.0","1018.0","210.0","2299.0"
"2547.0","107.0","505.0","1269.0","1136.0","754.0","1984.0","270.0","905.0"
"1930.0","79.0","1305.0","687.0","1013.0","1614.0","1160.0","237.0","1917.0"
"2318.0","57.0","1439.0","880.0","1056.0","1878.0","1498.0","245.0","2071.0"
"2153.0","84.0","1456.0","669.0","1265.0","1759.0","1251.0","261.0","2181.0"
"846.0","81.0","2398.0","250.0","864.0","2211.0","209.0","224.0","2892.0"
"2617.0","95.0","1054.0","1104.0","1289.0","1373.0","1817.0","274.0","1675.0"
"1152.0","93.0","2400.0","335.0","1154.0","2156.0","401.0","238.0","3006.0"
"2467.0","81.0","729.0","1079.0","1054.0","1144.0","1706.0","219.0","1352.0"
"2694.0","64.0","1387.0","1056.0","1259.0","1830.0","1773.0","251.0","2121.0"
"2757.0","72.0","948.0","1189.0","1084.0","1504.0","1903.0","231.0","1643.0"
"2285.0","100.0","1271.0","700.0","1099.0","1857.0","1333.0","240.0","2083.0"
"2359.0","78.0","1126.0","1020.0","1234.0","1309.0","1612.0","278.0","1673.0"
"2030.0","82.0","1403.0","781.0","1374.0","1360.0","1208.0","315.0","1992.0"
"2692.0","73.0","1250.0","1272.0","1303.0","1440.0","1926.0","261.0","1828.0"
"942.0","88.0","2864.0","260.0","1380.0","2254.0","297.0","277.0","3320.0"
"812.0","126.0","2588.0","242.0","1081.0","2203.0","213.0","275.0","3038.0"
"2247.0","81.0","1353.0","884.0","1250.0","1547.0","1490.0","276.0","1915.0"
"1790.0","69.0","2322.0","694.0","1441.0","2046.0","992.0","302.0","2887.0"
"2124.0","419.0","1517.0","621.0","2027.0","1412.0","1254.0","594.0","2212.0"
"1104.0","158.0","2430.0","291.0","1413.0","1988.0","430.0","337.0","2925.0"
"2851.0","67.0","1215.0","1241.0","1474.0","1418.0","2034.0","277.0","1822.0"
"1906.0","279.0","1827.0","554.0","1700.0","1758.0","1055.0","411.0","2546.0"
"1068.0","110.0","2466.0","345.0","1461.0","1838.0","388.0","305.0","2951.0"
"1046.0","123.0","3343.0","302.0","1499.0","2711.0","269.0","313.0","3930.0"
"2845.0","117.0","1182.0","1229.0","1489.0","1426.0","1887.0","328.0","1929.0"
"1089.0","72.0","2862.0","347.0","1330.0","2346.0","331.0","247.0","3445.0"
"2239.0","81.0","1243.0","1038.0","1183.0","1342.0","1496.0","287.0","1780.0"
"2139.0","60.0","1864.0","899.0","1231.0","1933.0","1377.0","288.0","2398.0"
"2041.0","87.0","1814.0","700.0","1320.0","1922.0","1194.0","309.0","2439.0"
"1908.0","74.0","1592.0","829.0","1070.0","1675.0","1181.0","259.0","2134.0"
"2595.0","134.0","1276.0","1208.0","1440.0","1357.0","1833.0","340.0","1832.0"
"922.0","97.0","2875.0","286.0","1252.0","2356.0","306.0","278.0","3310.0"
"3076.0","177.0","273.0","1766.0","1395.0","365.0","2477.0","477.0","572.0"
"2478.0","82.0","1695.0","1017.0","1325.0","1913.0","1599.0","292.0","2364.0"
"2394.0","110.0","1470.0","1141.0","1263.0","1570.0","1620.0","286.0","2068.0"
"2786.0","81.0","1038.0","1261.0","1305.0","1339.0","1975.0","270.0","1660.0"
"2901.0","108.0","1172.0","1355.0","1444.0","1382.0","2042.0","351.0","1788.0"
"1052.0","355.0","2653.0","304.0","1790.0","1966.0","331.0","632.0","3097.0"
"2213.0","132.0","1347.0","931.0","1328.0","1433.0","1397.0","328.0","1967.0"
"2956.0","50.0","1554.0","1234.0","1465.0","1861.0","1980.0","290.0","2290.0"
"3344.0","98.0","750.0","1829.0","1402.0","961.0","2667.0","344.0","1181.0"
"2828.0","66.0","1177.0","1254.0","1277.0","1540.0","1943.0","258.0","1870.0"
"3775.0","162.0","575.0","1800.0","1845.0","867.0","2994.0","449.0","1069.0"
"2925.0","62.0","1157.0","1390.0","1187.0","1567.0","2059.0","238.0","1847.0"
"2680.0","63.0","1280.0","1066.0","1260.0","1697.0","1745.0","232.0","2046.0"
"3170.0","89.0","1264.0","1414.0","1421.0","1688.0","2220.0","278.0","2025.0"
"708.0","89.0","1996.0","135.0","918.0","1740.0","158.0","203.0","2432.0"
"688.0","48.0","1939.0","143.0","727.0","1805.0","160.0","183.0","2332.0"
"745.0","60.0","2036.0","106.0","862.0","1873.0","149.0","228.0","2464.0"
"1931.0","79.0","783.0","631.0","901.0","1261.0","1208.0","233.0","1352.0"
"921.0","46.0","2326.0","209.0","941.0","2143.0","208.0","250.0","2835.0"
"821.0","76.0","2275.0","165.0","1031.0","1976.0","183.0","230.0","2759.0"
"680.0","150.0","1974.0","112.0","850.0","1842.0","108.0","245.0","2451.0"
"730.0","69.0","2243.0","164.0","967.0","1911.0","176.0","235.0","2631.0"
"906.0","88.0","2214.0","246.0","1105.0","1857.0","293.0","263.0","2652.0"
"874.0","67.0","2219.0","202.0","1107.0","1851.0","262.0","231.0","2667.0"
"2173.0","104.0","1383.0","644.0","1284.0","1732.0","1185.0","235.0","2240.0"
"923.0","47.0","2569.0","182.0","1224.0","2133.0","207.0","254.0","3078.0"
"2330.0","65.0","776.0","997.0","1054.0","1120.0","1539.0","245.0","1387.0"
"1034.0","58.0","1998.0","299.0","961.0","1830.0","406.0","258.0","2426.0"
"1059.0","61.0","1922.0","328.0","1035.0","1679.0","423.0","243.0","2376.0"
"2481.0","42.0","1019.0","1060.0","1106.0","1376.0","1621.0","267.0","1654.0"
"1451.0","67.0","1903.0","376.0","1104.0","1941.0","627.0","268.0","2526.0"
"2161.0","85.0","807.0","895.0","938.0","1220.0","1417.0","256.0","1380.0"
"923.0","67.0","2218.0","204.0","1020.0","1984.0","283.0","266.0","2659.0"
"1846.0","122.0","1740.0","572.0","1463.0","1673.0","962.0","328.0","2418.0"
"1785.0","68.0","1734.0","469.0","1200.0","1918.0","875.0","284.0","2428.0"
"838.0","57.0","2324.0","176.0","939.0","2104.0","202.0","239.0","2778.0"
"777.0","81.0","2802.0","146.0","1104.0","2410.0","134.0","265.0","3261.0"
"957.0","58.0","2524.0","195.0","1256.0","2088.0","260.0","267.0","3012.0"
"1674.0","62.0","1435.0","486.0","1023.0","1662.0","831.0","208.0","2132.0"
"2812.0","40.0","1187.0","1001.0","1391.0","1647.0","1819.0","244.0","1976.0"
"1805.0","54.0","1812.0","553.0","1122.0","1996.0","867.0","257.0","2547.0"
"2751.0","53.0","746.0","1038.0","1260.0","1252.0","1815.0","248.0","1487.0"
"1966.0","52.0","1011.0","734.0","964.0","1331.0","1199.0","219.0","1611.0"
"1567.0","73.0","1555.0","390.0","1027.0","1778.0","770.0","243.0","2182.0"
"811.0","69.0","2267.0","166.0","1057.0","1924.0","195.0","227.0","2725.0"
"930.0","69.0","2648.0","213.0","1357.0","2077.0","240.0","253.0","3154.0"
"907.0","51.0","2568.0","214.0","1163.0","2149.0","252.0","229.0","3045.0"
"863.0","66.0","2229.0","211.0","970.0","1977.0","212.0","218.0","2728.0"
"959.0","56.0","2062.0","254.0","880.0","1943.0","349.0","239.0","2489.0"
"894.0","62.0","2073.0","254.0","895.0","1880.0","268.0","226.0","2535.0"
"2521.0","27.0","981.0","1095.0","1106.0","1328.0","1675.0","247.0","1607.0"
"834.0","59.0","2515.0","215.0","1121.0","2072.0","236.0","233.0","2939.0"
"814.0","54.0","2172.0","230.0","810.0","2000.0","235.0","207.0","2598.0"
"2146.0","66.0","983.0","852.0","1028.0","1315.0","1374.0","252.0","1569.0"
"2100.0","54.0","1541.0","759.0","1101.0","1835.0","1224.0","275.0","2196.0"
"2653.0","77.0","844.0","1013.0","1349.0","1212.0","1839.0","280.0","1455.0"
"2264.0","58.0","884.0","912.0","911.0","1383.0","1480.0","221.0","1505.0"
"2376.0","53.0","1218.0","873.0","1145.0","1629.0","1469.0","240.0","1938.0"
"971.0","69.0","2486.0","252.0","1176.0","2098.0","298.0","240.0","2988.0"
"1790.0","67.0","1301.0","590.0","995.0","1573.0","958.0","255.0","1945.0"
"2264.0","23.0","1739.0","727.0","1189.0","2110.0","1300.0","229.0","2497.0"
"1350.0","45.0","2263.0","423.0","1056.0","2179.0","525.0","236.0","2897.0"
"2412.0","31.0","1094.0","802.0","1038.0","1697.0","1498.0","217.0","1822.0"
"682.0","101.0","2661.0","164.0","1137.0","2143.0","164.0","304.0","2976.0"
"2147.0","109.0","1140.0","823.0","1292.0","1281.0","1239.0","345.0","1812.0"
"2388.0","48.0","1460.0","928.0","1265.0","1703.0","1471.0","268.0","2157.0"
"947.0","53.0","2775.0","266.0","1339.0","2170.0","285.0","287.0","3203.0"
"842.0","74.0","2491.0","241.0","1160.0","2006.0","219.0","277.0","2911.0"
"965.0","58.0","2539.0","271.0","1340.0","1951.0","349.0","263.0","2950.0"
"2770.0","45.0","1247.0","1057.0","1317.0","1688.0","1788.0","299.0","1975.0"
"958.0","57.0","2926.0","184.0","1401.0","2356.0","249.0","310.0","3382.0"
"964.0","63.0","2546.0","264.0","1177.0","2132.0","286.0","270.0","3017.0"
"2059.0","54.0","1901.0","631.0","1380.0","2003.0","1098.0","291.0","2625.0"
"901.0","55.0","2937.0","207.0","1457.0","2229.0","225.0","294.0","3374.0"
"2108.0","116.0","1301.0","698.0","1308.0","1519.0","1212.0","274.0","2039.0"
"1907.0","75.0","2411.0","654.0","1722.0","2017.0","991.0","301.0","3101.0"
"2161.0","76.0","1788.0","763.0","1411.0","1851.0","1249.0","285.0","2491.0"
"2500.0","58.0","1346.0","906.0","1487.0","1511.0","1532.0","260.0","2112.0"
"977.0","96.0","2371.0","279.0","1143.0","2022.0","358.0","314.0","2772.0"
"2874.0","65.0","1005.0","1391.0","1275.0","1278.0","2052.0","325.0","1567.0"
"2292.0","41.0","1490.0","832.0","1249.0","1742.0","1425.0","285.0","2113.0"
"2644.0","94.0","717.0","1417.0","1168.0","870.0","1945.0","311.0","1199.0"
"2627.0","29.0","1240.0","1178.0","1241.0","1477.0","1764.0","266.0","1866.0"
"2874.0","56.0","845.0","1242.0","1322.0","1211.0","2027.0","259.0","1489.0"
"1619.0","64.0","1724.0","580.0","1065.0","1762.0","827.0","283.0","2297.0"
"2214.0","29.0","2032.0","961.0","1313.0","2001.0","1339.0","248.0","2688.0"
"2815.0","87.0","1005.0","1356.0","1233.0","1318.0","1972.0","318.0","1617.0"
"2778.0","48.0","960.0","1222.0","1224.0","1340.0","1924.0","253.0","1609.0"
"2533.0","73.0","1456.0","1015.0","1343.0","1704.0","1587.0","333.0","2142.0"
"3006.0","64.0","871.0","1285.0","1352.0","1304.0","2097.0","313.0","1531.0"
"1991.0","83.0","1499.0","735.0","1166.0","1672.0","1118.0","299.0","2156.0"
"3189.0","22.0","1230.0","1397.0","1336.0","1708.0","2247.0","259.0","1935.0"
"1418.0","49.0","2606.0","515.0","1246.0","2312.0","581.0","298.0","3194.0"
"2799.0","80.0","1073.0","1066.0","1393.0","1493.0","1789.0","322.0","1841.0"
"1259.0","47.0","3087.0","439.0","1452.0","2502.0","429.0","275.0","3689.0"
"2664.0","92.0","1269.0","1072.0","1341.0","1612.0","1640.0","348.0","2037.0"
"2622.0","79.0","1203.0","971.0","1408.0","1525.0","1682.0","297.0","1925.0"
"2967.0","103.0","1334.0","1201.0","1656.0","1547.0","1965.0","361.0","2078.0"
"2108.0","71.0","686.0","742.0","1119.0","1004.0","1337.0","230.0","1298.0"
"1376.0","51.0","1604.0","311.0","1077.0","1643.0","620.0","207.0","2204.0"
"1971.0","83.0","929.0","620.0","1271.0","1092.0","1204.0","221.0","1558.0"
"943.0","44.0","2496.0","280.0","1144.0","2059.0","232.0","202.0","3049.0"
"854.0","47.0","2461.0","177.0","1204.0","1981.0","186.0","210.0","2966.0"
"2035.0","66.0","893.0","670.0","1129.0","1195.0","1216.0","175.0","1603.0"
"1533.0","36.0","1344.0","521.0","914.0","1478.0","863.0","207.0","1843.0"
"714.0","53.0","2098.0","189.0","913.0","1763.0","162.0","205.0","2498.0"
"1778.0","45.0","1542.0","684.0","1192.0","1489.0","989.0","238.0","2138.0"
"1574.0","77.0","1593.0","538.0","1281.0","1425.0","785.0","212.0","2247.0"
"840.0","90.0","1946.0","169.0","868.0","1839.0","243.0","153.0","2480.0"
"1809.0","57.0","1165.0","541.0","1039.0","1451.0","990.0","212.0","1829.0"
"2250.0","43.0","1238.0","751.0","1116.0","1664.0","1338.0","226.0","1967.0"
"904.0","44.0","2462.0","198.0","1155.0","2057.0","258.0","218.0","2934.0"
"2172.0","58.0","812.0","796.0","985.0","1261.0","1381.0","224.0","1437.0"
"2516.0","53.0","914.0","1015.0","1230.0","1238.0","1689.0","234.0","1560.0"
"1904.0","43.0","1415.0","549.0","1199.0","1614.0","1022.0","187.0","2153.0"
"1386.0","63.0","1545.0","375.0","1016.0","1603.0","570.0","218.0","2206.0"
"2554.0","33.0","1275.0","1022.0","1333.0","1507.0","1706.0","218.0","1938.0"
"2175.0","37.0","1282.0","696.0","1230.0","1568.0","1219.0","251.0","2024.0"
"1924.0","41.0","1408.0","649.0","1137.0","1587.0","1084.0","185.0","2104.0"
"1146.0","78.0","2056.0","351.0","1283.0","1646.0","479.0","306.0","2495.0"
"599.0","106.0","2527.0","165.0","1235.0","1832.0","141.0","296.0","2795.0"
"979.0","147.0","2606.0","289.0","1613.0","1830.0","309.0","400.0","3023.0"
"1019.0","46.0","2546.0","360.0","1376.0","1875.0","379.0","214.0","3018.0"
"1881.0","121.0","1241.0","599.0","1434.0","1210.0","975.0","371.0","1897.0"
"2639.0","91.0","668.0","1065.0","1461.0","872.0","1823.0","316.0","1259.0"
"2444.0","74.0","1380.0","894.0","1503.0","1501.0","1501.0","296.0","2101.0"
"1073.0","65.0","2639.0","270.0","1446.0","2061.0","336.0","274.0","3167.0"
"902.0","62.0","2445.0","267.0","1188.0","1954.0","227.0","218.0","2964.0"
"1019.0","59.0","2772.0","350.0","1529.0","1971.0","295.0","276.0","3279.0"
"877.0","76.0","2776.0","249.0","1441.0","2039.0","234.0","243.0","3252.0"
"2385.0","64.0","912.0","817.0","1264.0","1280.0","1407.0","240.0","1714.0"
"1576.0","53.0","2600.0","590.0","1616.0","2023.0","736.0","270.0","3223.0"
"2291.0","72.0","1498.0","881.0","1375.0","1605.0","1424.0","259.0","2178.0"
"2029.0","532.0","1179.0","556.0","2132.0","1052.0","1293.0","781.0","1666.0"
"2210.0","79.0","991.0","920.0","1263.0","1097.0","1454.0","291.0","1535.0"
"847.0","36.0","2897.0","250.0","1138.0","2392.0","231.0","236.0","3313.0"
"936.0","37.0","2686.0","331.0","1169.0","2159.0","316.0","223.0","3120.0"
"1840.0","72.0","1379.0","650.0","1139.0","1502.0","1045.0","257.0","1989.0"
"920.0","30.0","2782.0","348.0","1144.0","2240.0","305.0","221.0","3206.0"
"826.0","110.0","2675.0","210.0","1452.0","1949.0","197.0","342.0","3072.0"
"2349.0","49.0","845.0","1026.0","1134.0","1083.0","1546.0","238.0","1459.0"
"2879.0","63.0","1169.0","1155.0","1525.0","1431.0","1879.0","334.0","1898.0"
"3144.0","101.0","498.0","1595.0","1378.0","770.0","2388.0","359.0","996.0"
"1628.0","70.0","1924.0","511.0","1277.0","1834.0","760.0","263.0","2599.0"
"2716.0","86.0","1096.0","1188.0","1451.0","1259.0","1830.0","342.0","1726.0"
"2488.0","58.0","1231.0","870.0","1430.0","1477.0","1525.0","264.0","1988.0"
"2389.0","70.0","950.0","917.0","1265.0","1227.0","1463.0","292.0","1654.0"
"1074.0","75.0","3128.0","306.0","1540.0","2431.0","293.0","332.0","3652.0"
"1301.0","53.0","2555.0","443.0","1306.0","2160.0","491.0","270.0","3148.0"
"2809.0","42.0","937.0","1288.0","1256.0","1244.0","2022.0","178.0","1588.0"
"1928.0","91.0","2210.0","788.0","1534.0","1907.0","1080.0","291.0","2858.0"
"2013.0","71.0","1777.0","818.0","1354.0","1689.0","1134.0","284.0","2443.0"
"1927.0","693.0","1120.0","780.0","2044.0","916.0","1256.0","1034.0","1450.0"
"3532.0","54.0","654.0","1657.0","1528.0","1055.0","2595.0","295.0","1350.0"
"747.0","33.0","2487.0","204.0","1097.0","1966.0","216.0","223.0","2828.0"
"1768.0","61.0","1390.0","556.0","1372.0","1291.0","941.0","273.0","2005.0"
"968.0","18.0","2733.0","363.0","1150.0","2206.0","284.0","212.0","3223.0"
"869.0","24.0","2705.0","276.0","1188.0","2134.0","255.0","213.0","3130.0"
"1542.0","74.0","1614.0","585.0","1322.0","1323.0","760.0","254.0","2216.0"
"854.0","33.0","2498.0","241.0","1185.0","1959.0","225.0","215.0","2945.0"
"2259.0","35.0","1591.0","814.0","1508.0","1563.0","1366.0","277.0","2242.0"
"1506.0","65.0","2193.0","556.0","1564.0","1644.0","718.0","258.0","2788.0"
"2279.0","50.0","1067.0","837.0","1203.0","1356.0","1439.0","230.0","1727.0"
"982.0","65.0","2790.0","299.0","1554.0","1984.0","265.0","284.0","3288.0"
"924.0","60.0","2732.0","238.0","1416.0","2062.0","246.0","236.0","3234.0"
"924.0","26.0","2398.0","312.0","1125.0","1911.0","275.0","166.0","2907.0"
"2745.0","31.0","1440.0","954.0","1531.0","1731.0","1674.0","237.0","2305.0"
"3106.0","60.0","682.0","1391.0","1512.0","945.0","2319.0","294.0","1235.0"
"2613.0","38.0","1076.0","939.0","1344.0","1444.0","1693.0","223.0","1811.0"
"2185.0","51.0","1031.0","878.0","1169.0","1220.0","1388.0","265.0","1614.0"
"1841.0","28.0","1898.0","720.0","1222.0","1825.0","1074.0","232.0","2461.0"
"1364.0","32.0","2250.0","452.0","1159.0","2035.0","650.0","223.0","2773.0"
"2385.0","29.0","864.0","1149.0","1046.0","1083.0","1657.0","239.0","1382.0"
"1972.0","34.0","1713.0","734.0","1239.0","1746.0","1129.0","259.0","2331.0"
"2095.0","34.0","1469.0","741.0","1265.0","1592.0","1184.0","231.0","2183.0"
"2164.0","65.0","1001.0","900.0","1200.0","1130.0","1323.0","256.0","1651.0"
"3142.0","18.0","938.0","1407.0","1364.0","1327.0","2275.0","226.0","1597.0"
"2863.0","61.0","806.0","1319.0","1323.0","1088.0","2016.0","267.0","1447.0"
"1153.0","60.0","2396.0","401.0","1239.0","1969.0","395.0","225.0","2989.0"
"2636.0","96.0","1153.0","1062.0","1535.0","1288.0","1689.0","351.0","1845.0"
"3266.0","219.0","279.0","1494.0","1942.0","328.0","2559.0","702.0","503.0"
"2306.0","51.0","1039.0","976.0","1128.0","1292.0","1523.0","209.0","1664.0"
"3212.0","26.0","1026.0","1415.0","1375.0","1474.0","2290.0","236.0","1738.0"
"1561.0","43.0","2292.0","565.0","1250.0","2081.0","732.0","236.0","2928.0"
"2816.0","35.0","924.0","1088.0","1313.0","1374.0","1841.0","245.0","1689.0"
"2380.0","48.0","1788.0","730.0","1472.0","2014.0","1302.0","260.0","2654.0"
"2173.0","68.0","1607.0","769.0","1338.0","1741.0","1230.0","259.0","2359.0"
"1375.0","34.0","2318.0","419.0","1270.0","2038.0","538.0","212.0","2977.0"
"3087.0","38.0","1102.0","1262.0","1398.0","1567.0","2091.0","208.0","1928.0"
"2565.0","77.0","992.0","1115.0","1426.0","1093.0","1732.0","327.0","1575.0"
"2852.0","85.0","1197.0","1246.0","1519.0","1369.0","2014.0","304.0","1816.0"
"2494.0","103.0","1416.0","859.0","1655.0","1499.0","1487.0","385.0","2141.0"
"2631.0","134.0","880.0","1144.0","1544.0","957.0","1795.0","407.0","1443.0"
"3267.0","164.0","655.0","1525.0","1780.0","781.0","2469.0","509.0","1108.0"
"1215.0","92.0","2658.0","442.0","1645.0","1878.0","502.0","343.0","3120.0"
"1910.0","75.0","1612.0","766.0","1390.0","1441.0","1116.0","292.0","2189.0"
"2490.0","25.0","1950.0","981.0","1539.0","1945.0","1603.0","254.0","2608.0"
"2848.0","51.0","1198.0","1271.0","1416.0","1410.0","1944.0","285.0","1868.0"
"2045.0","105.0","1826.0","677.0","1709.0","1590.0","1095.0","417.0","2464.0"
"2110.0","570.0","1572.0","814.0","2285.0","1153.0","1369.0","949.0","1934.0"
"3393.0","102.0","636.0","1514.0","1730.0","887.0","2582.0","383.0","1166.0"
"2495.0","53.0","1215.0","910.0","1369.0","1484.0","1474.0","261.0","2028.0"
"3722.0","36.0","873.0","1719.0","1692.0","1220.0","2850.0","310.0","1471.0"
"1509.0","75.0","2679.0","583.0","1532.0","2148.0","731.0","307.0","3225.0"
"1215.0","61.0","2866.0","408.0","1448.0","2286.0","460.0","258.0","3424.0"
"1244.0","36.0","3303.0","512.0","1595.0","2476.0","424.0","261.0","3898.0"
"2904.0","82.0","1229.0","1189.0","1610.0","1416.0","1948.0","343.0","1924.0"
"2330.0","83.0","1681.0","857.0","1589.0","1648.0","1387.0","291.0","2416.0"
"1284.0","61.0","3249.0","475.0","1684.0","2435.0","428.0","307.0","3859.0"
"2808.0","140.0","1186.0","1311.0","1566.0","1257.0","1959.0","425.0","1750.0"
"2711.0","156.0","1146.0","1234.0","1649.0","1130.0","1931.0","476.0","1606.0"
"2415.0","60.0","1170.0","1063.0","1260.0","1322.0","1514.0","302.0","1829.0"
"3361.0","28.0","1124.0","1665.0","1437.0","1411.0","2466.0","271.0","1776.0"
"2707.0","28.0","1410.0","1276.0","1227.0","1642.0","1822.0","253.0","2070.0"
"3193.0","85.0","746.0","1564.0","1432.0","1028.0","2338.0","329.0","1357.0"
"2642.0","73.0","1692.0","1187.0","1491.0","1729.0","1765.0","293.0","2349.0"
"2928.0","69.0","1100.0","1462.0","1389.0","1246.0","2036.0","310.0","1751.0"
"1139.0","73.0","2764.0","405.0","1385.0","2186.0","377.0","287.0","3312.0"
"2445.0","61.0","1870.0","1033.0","1466.0","1877.0","1466.0","289.0","2621.0"
"2746.0","38.0","1847.0","1225.0","1441.0","1965.0","1796.0","265.0","2570.0"
"2925.0","69.0","1269.0","1282.0","1510.0","1471.0","1894.0","347.0","2022.0"
"3104.0","45.0","993.0","1354.0","1456.0","1332.0","2148.0","287.0","1707.0"
"3901.0","62.0","679.0","2025.0","1521.0","1096.0","3069.0","303.0","1270.0"
"1629.0","62.0","2903.0","757.0","1429.0","2408.0","774.0","228.0","3592.0"
