"771.0","142.0","2006.0","139.0","918.0","1862.0","165.0","218.0","2536.0"
"826.0","142.0","1938.0","158.0","930.0","1818.0","213.0","214.0","2479.0"
"930.0","163.0","2180.0","199.0","1223.0","1851.0","251.0","277.0","2745.0"
"912.0","140.0","2103.0","265.0","1041.0","1849.0","281.0","278.0","2596.0"
"1010.0","135.0","2176.0","221.0","1143.0","1957.0","260.0","304.0","2757.0"
"974.0","141.0","2158.0","239.0","1156.0","1878.0","290.0","268.0","2715.0"
"1167.0","149.0","2457.0","341.0","1286.0","2146.0","369.0","294.0","3110.0"
"1042.0","145.0","2465.0","256.0","1345.0","2051.0","276.0","277.0","3099.0"
"1225.0","118.0","1941.0","361.0","1053.0","1870.0","414.0","240.0","2630.0"
"811.0","141.0","1790.0","136.0","1029.0","1577.0","177.0","237.0","2328.0"
"955.0","105.0","2049.0","181.0","1199.0","1729.0","219.0","246.0","2644.0"
"905.0","104.0","1982.0","242.0","1048.0","1701.0","238.0","258.0","2495.0"
"995.0","101.0","2061.0","245.0","1175.0","1737.0","260.0","276.0","2621.0"
"963.0","86.0","2060.0","247.0","1140.0","1722.0","237.0","254.0","2618.0"
"1368.0","106.0","2135.0","400.0","1269.0","1940.0","430.0","257.0","2922.0"
"1228.0","109.0","2151.0","359.0","1304.0","1825.0","343.0","249.0","2896.0"
"1021.0","102.0","1997.0","265.0","1097.0","1758.0","270.0","246.0","2604.0"
"811.0","163.0","2122.0","166.0","1247.0","1683.0","201.0","256.0","2639.0"
"856.0","138.0","1984.0","217.0","1046.0","1715.0","213.0","256.0","2509.0"
"1121.0","87.0","1936.0","254.0","1149.0","1741.0","322.0","249.0","2573.0"
"974.0","115.0","2007.0","213.0","1168.0","1715.0","266.0","243.0","2587.0"
"1068.0","105.0","2423.0","267.0","1331.0","1998.0","290.0","265.0","3041.0"
"1259.0","102.0","2114.0","405.0","1301.0","1769.0","401.0","232.0","2842.0"
"1121.0","89.0","1897.0","342.0","1086.0","1679.0","346.0","209.0","2552.0"
"1070.0","127.0","2148.0","298.0","1259.0","1788.0","323.0","266.0","2756.0"
"1117.0","121.0","2273.0","300.0","1353.0","1858.0","342.0","293.0","2876.0"
"1070.0","92.0","2301.0","299.0","1357.0","1807.0","294.0","258.0","2911.0"
"1350.0","109.0","2504.0","439.0","1487.0","2037.0","459.0","270.0","3234.0"
"1184.0","110.0","2548.0","350.0","1558.0","1934.0","345.0","295.0","3202.0"
"1109.0","99.0","2266.0","322.0","1306.0","1846.0","300.0","236.0","2938.0"
"1113.0","103.0","2177.0","316.0","1181.0","1896.0","339.0","288.0","2766.0"
"1021.0","113.0","2211.0","318.0","1165.0","1862.0","321.0","278.0","2746.0"
"1214.0","105.0","2526.0","426.0","1286.0","2133.0","405.0","276.0","3164.0"
"1270.0","112.0","2342.0","409.0","1351.0","1964.0","423.0","274.0","3027.0"
"1716.0","486.0","1154.0","700.0","1695.0","961.0","1096.0","659.0","1601.0"
"1188.0","104.0","2219.0","321.0","1281.0","1909.0","387.0","307.0","2817.0"
"1314.0","101.0","2596.0","397.0","1413.0","2201.0","401.0","324.0","3286.0"
"1276.0","107.0","2507.0","347.0","1497.0","2046.0","358.0","310.0","3222.0"
"1142.0","115.0","2265.0","356.0","1235.0","1931.0","338.0","284.0","2900.0"
"1296.0","108.0","2559.0","434.0","1398.0","2131.0","441.0","297.0","3225.0"
"1462.0","86.0","2294.0","468.0","1408.0","1966.0","492.0","250.0","3100.0"
"1170.0","105.0","2199.0","352.0","1206.0","1916.0","351.0","254.0","2869.0"
"1474.0","105.0","2763.0","485.0","1595.0","2262.0","455.0","303.0","3584.0"
"1498.0","113.0","2363.0","532.0","1323.0","2119.0","534.0","283.0","3157.0"
"1394.0","87.0","2372.0","514.0","1333.0","2006.0","443.0","249.0","3161.0"
"773.0","111.0","1739.0","127.0","996.0","1500.0","176.0","231.0","2216.0"
"878.0","107.0","2005.0","151.0","1202.0","1637.0","192.0","246.0","2552.0"
"860.0","91.0","1921.0","197.0","990.0","1685.0","219.0","232.0","2421.0"
"931.0","102.0","2005.0","168.0","1138.0","1732.0","223.0","284.0","2531.0"
"872.0","86.0","2032.0","210.0","1103.0","1677.0","232.0","247.0","2511.0"
"1090.0","92.0","2308.0","288.0","1246.0","1956.0","302.0","265.0","2923.0"
"1099.0","75.0","2195.0","254.0","1324.0","1791.0","288.0","244.0","2837.0"
"946.0","81.0","1974.0","237.0","1035.0","1729.0","242.0","230.0","2529.0"
"964.0","100.0","1913.0","190.0","1227.0","1560.0","255.0","238.0","2484.0"
"825.0","110.0","1924.0","218.0","1001.0","1640.0","223.0","235.0","2401.0"
"895.0","117.0","2013.0","190.0","1143.0","1692.0","228.0","268.0","2529.0"
"901.0","111.0","1965.0","226.0","1099.0","1652.0","262.0","233.0","2482.0"
"1053.0","121.0","2303.0","317.0","1248.0","1912.0","322.0","268.0","2887.0"
"1809.0","363.0","1184.0","588.0","1937.0","831.0","1231.0","594.0","1531.0"
"1103.0","92.0","1793.0","259.0","1050.0","1679.0","302.0","239.0","2447.0"
"887.0","114.0","2225.0","230.0","1239.0","1757.0","249.0","279.0","2698.0"
"899.0","128.0","2365.0","199.0","1365.0","1828.0","232.0","307.0","2853.0"
"904.0","107.0","2333.0","206.0","1331.0","1807.0","265.0","261.0","2818.0"
"1067.0","116.0","2661.0","259.0","1419.0","2166.0","291.0","271.0","3282.0"
"1124.0","107.0","2492.0","311.0","1502.0","1910.0","323.0","277.0","3123.0"
"1152.0","99.0","2104.0","320.0","1271.0","1764.0","362.0","266.0","2727.0"
"909.0","113.0","2252.0","244.0","1143.0","1887.0","254.0","311.0","2709.0"
"921.0","79.0","2226.0","254.0","1117.0","1855.0","290.0","258.0","2678.0"
"1100.0","113.0","2513.0","371.0","1254.0","2101.0","358.0","301.0","3067.0"
"1145.0","116.0","2344.0","338.0","1342.0","1925.0","342.0","296.0","2967.0"
"1064.0","105.0","2068.0","333.0","1057.0","1847.0","317.0","269.0","2651.0"
"1044.0","103.0","2245.0","259.0","1234.0","1899.0","310.0","301.0","2781.0"
"1181.0","99.0","2612.0","358.0","1336.0","2198.0","368.0","310.0","3214.0"
"1113.0","98.0","2560.0","337.0","1424.0","2010.0","316.0","308.0","3147.0"
"1227.0","95.0","2081.0","357.0","1184.0","1862.0","415.0","287.0","2701.0"
"1051.0","116.0","2677.0","341.0","1347.0","2156.0","325.0","303.0","3216.0"
"1041.0","95.0","2587.0","337.0","1397.0","1989.0","323.0","271.0","3129.0"
"997.0","89.0","2269.0","325.0","1147.0","1883.0","299.0","250.0","2806.0"
"1502.0","113.0","2608.0","477.0","1557.0","2189.0","506.0","302.0","3415.0"
"1237.0","95.0","2523.0","414.0","1280.0","2161.0","405.0","274.0","3176.0"
"1351.0","96.0","2287.0","444.0","1344.0","1946.0","410.0","281.0","3043.0"
"974.0","102.0","1737.0","206.0","1205.0","1402.0","245.0","202.0","2366.0"
"868.0","83.0","1744.0","219.0","1031.0","1445.0","235.0","197.0","2263.0"
"929.0","91.0","1841.0","194.0","1155.0","1512.0","223.0","246.0","2392.0"
"969.0","77.0","1767.0","227.0","1099.0","1487.0","243.0","225.0","2345.0"
"1174.0","92.0","2047.0","320.0","1255.0","1738.0","326.0","254.0","2733.0"
"1025.0","87.0","2080.0","312.0","1329.0","1551.0","276.0","257.0","2659.0"
"1050.0","104.0","1670.0","301.0","1069.0","1454.0","279.0","229.0","2316.0"
"870.0","92.0","2100.0","222.0","1249.0","1591.0","229.0","253.0","2580.0"
"1570.0","590.0","1068.0","464.0","1831.0","933.0","891.0","844.0","1493.0"
"921.0","80.0","2179.0","181.0","1297.0","1702.0","218.0","222.0","2740.0"
"1310.0","96.0","2274.0","319.0","1512.0","1849.0","387.0","286.0","3007.0"
"1336.0","66.0","2157.0","366.0","1527.0","1666.0","381.0","262.0","2916.0"
"1151.0","88.0","1952.0","297.0","1299.0","1595.0","276.0","241.0","2674.0"
"1071.0","79.0","1960.0","276.0","1159.0","1675.0","294.0","291.0","2525.0"
"998.0","79.0","1985.0","310.0","1099.0","1653.0","285.0","234.0","2543.0"
"1145.0","87.0","2330.0","372.0","1304.0","1886.0","343.0","286.0","2933.0"
"1064.0","71.0","2306.0","329.0","1366.0","1746.0","282.0","283.0","2876.0"
"921.0","79.0","2073.0","275.0","1087.0","1711.0","234.0","247.0","2592.0"
"1667.0","347.0","1214.0","578.0","1735.0","915.0","1024.0","609.0","1595.0"
"1181.0","80.0","2467.0","354.0","1399.0","1975.0","320.0","307.0","3101.0"
"1084.0","62.0","2461.0","340.0","1435.0","1832.0","289.0","271.0","3047.0"
"1162.0","71.0","2006.0","351.0","1177.0","1711.0","332.0","248.0","2659.0"
"1206.0","92.0","2382.0","361.0","1387.0","1932.0","340.0","270.0","3070.0"
"1119.0","68.0","2372.0","365.0","1392.0","1802.0","309.0","259.0","2991.0"
"1209.0","62.0","1920.0","383.0","1136.0","1672.0","374.0","227.0","2590.0"
"1477.0","66.0","2516.0","483.0","1552.0","2024.0","427.0","298.0","3334.0"
"1358.0","72.0","2261.0","432.0","1301.0","1958.0","391.0","271.0","3029.0"
"1410.0","55.0","2105.0","488.0","1333.0","1749.0","408.0","238.0","2924.0"
"1033.0","112.0","1904.0","251.0","1274.0","1524.0","283.0","254.0","2512.0"
"990.0","119.0","2106.0","231.0","1363.0","1621.0","258.0","292.0","2665.0"
"959.0","93.0","2115.0","269.0","1315.0","1583.0","271.0","249.0","2647.0"
"1181.0","100.0","2386.0","351.0","1484.0","1832.0","343.0","267.0","3057.0"
"1230.0","100.0","2216.0","380.0","1520.0","1646.0","367.0","268.0","2911.0"
"986.0","85.0","2107.0","291.0","1277.0","1610.0","255.0","229.0","2694.0"
"926.0","89.0","2082.0","261.0","1170.0","1666.0","285.0","265.0","2547.0"
"1041.0","90.0","1918.0","320.0","1111.0","1618.0","324.0","221.0","2504.0"
"1256.0","99.0","2194.0","444.0","1271.0","1834.0","454.0","264.0","2831.0"
"1131.0","78.0","2219.0","285.0","1366.0","1777.0","311.0","268.0","2849.0"
"1189.0","65.0","1806.0","373.0","1098.0","1589.0","354.0","214.0","2492.0"
"1120.0","69.0","2026.0","309.0","1223.0","1683.0","342.0","253.0","2620.0"
"1159.0","131.0","2425.0","340.0","1415.0","1960.0","339.0","305.0","3071.0"
"1127.0","115.0","2352.0","355.0","1471.0","1768.0","332.0","294.0","2968.0"
"1006.0","76.0","2144.0","288.0","1215.0","1723.0","257.0","263.0","2706.0"
"1137.0","107.0","2423.0","394.0","1374.0","1899.0","338.0","269.0","3060.0"
"1184.0","90.0","2272.0","405.0","1392.0","1749.0","328.0","255.0","2963.0"
"972.0","74.0","2132.0","333.0","1172.0","1673.0","275.0","226.0","2677.0"
"1523.0","98.0","2425.0","568.0","1534.0","1944.0","534.0","276.0","3236.0"
"1296.0","95.0","2287.0","465.0","1279.0","1934.0","412.0","247.0","3019.0"
"1119.0","86.0","2352.0","419.0","1340.0","1798.0","311.0","239.0","3007.0"
"1103.0","93.0","2268.0","342.0","1358.0","1764.0","329.0","294.0","2841.0"
"986.0","85.0","2345.0","300.0","1362.0","1754.0","287.0","274.0","2855.0"
"1108.0","142.0","2666.0","328.0","1578.0","2010.0","329.0","330.0","3257.0"
"1340.0","82.0","2373.0","419.0","1545.0","1831.0","408.0","295.0","3092.0"
"1201.0","74.0","2152.0","386.0","1296.0","1745.0","376.0","257.0","2794.0"
"1082.0","98.0","2402.0","296.0","1479.0","1807.0","287.0","307.0","2988.0"
"1395.0","89.0","2598.0","437.0","1605.0","2040.0","443.0","325.0","3314.0"
"1326.0","94.0","2541.0","351.0","1691.0","1919.0","372.0","327.0","3262.0"
"1132.0","77.0","2384.0","336.0","1421.0","1836.0","322.0","282.0","2989.0"
"1401.0","86.0","2547.0","458.0","1597.0","1979.0","438.0","297.0","3299.0"
"1263.0","79.0","2571.0","419.0","1631.0","1863.0","376.0","287.0","3250.0"
"1189.0","73.0","2283.0","383.0","1364.0","1798.0","348.0","241.0","2956.0"
"1565.0","79.0","2769.0","505.0","1792.0","2116.0","480.0","304.0","3629.0"
"1284.0","83.0","2678.0","466.0","1513.0","2066.0","398.0","271.0","3376.0"
"1406.0","72.0","2446.0","494.0","1549.0","1881.0","422.0","266.0","3236.0"
"1112.0","63.0","2289.0","344.0","1244.0","1876.0","349.0","301.0","2814.0"
"1481.0","153.0","2330.0","426.0","1572.0","1966.0","540.0","410.0","3014.0"
"1399.0","89.0","2355.0","475.0","1443.0","1925.0","440.0","306.0","3097.0"
"1175.0","82.0","2218.0","401.0","1210.0","1864.0","373.0","295.0","2807.0"
"1549.0","98.0","2269.0","545.0","1445.0","1926.0","615.0","314.0","2987.0"
"1048.0","82.0","2665.0","438.0","1391.0","1966.0","343.0","284.0","3168.0"
"1183.0","82.0","2162.0","400.0","1189.0","1838.0","410.0","261.0","2756.0"
"1458.0","73.0","2764.0","555.0","1522.0","2218.0","486.0","288.0","3521.0"
"1538.0","87.0","2302.0","601.0","1330.0","1996.0","577.0","290.0","3060.0"
"1466.0","75.0","2265.0","557.0","1332.0","1917.0","485.0","279.0","3042.0"
"1241.0","92.0","2749.0","449.0","1440.0","2193.0","387.0","300.0","3395.0"
"1197.0","76.0","2688.0","391.0","1519.0","2051.0","324.0","326.0","3311.0"
"1217.0","72.0","2304.0","425.0","1259.0","1909.0","368.0","279.0","2946.0"
"1608.0","78.0","2775.0","554.0","1701.0","2206.0","524.0","353.0","3584.0"
"1659.0","68.0","2366.0","574.0","1455.0","2064.0","619.0","324.0","3150.0"
"1353.0","105.0","2514.0","454.0","1495.0","2023.0","383.0","316.0","3273.0"
"1534.0","83.0","2796.0","547.0","1670.0","2196.0","496.0","304.0","3613.0"
"1453.0","71.0","2521.0","555.0","1379.0","2111.0","527.0","257.0","3261.0"
"1202.0","70.0","2652.0","470.0","1414.0","2040.0","342.0","273.0","3309.0"
"1530.0","81.0","2813.0","585.0","1586.0","2253.0","492.0","291.0","3641.0"
"707.0","121.0","1894.0","113.0","776.0","1833.0","159.0","192.0","2371.0"
"823.0","101.0","2165.0","173.0","1033.0","1883.0","196.0","227.0","2666.0"
"844.0","104.0","2023.0","209.0","952.0","1810.0","242.0","248.0","2481.0"
"925.0","111.0","2101.0","212.0","1063.0","1862.0","254.0","272.0","2611.0"
"907.0","94.0","2088.0","215.0","1046.0","1828.0","243.0","253.0","2593.0"
"1074.0","112.0","2403.0","290.0","1196.0","2103.0","325.0","260.0","3004.0"
"990.0","124.0","2354.0","227.0","1237.0","2004.0","259.0","279.0","2930.0"
"1941.0","369.0","790.0","795.0","1410.0","895.0","1412.0","458.0","1230.0"
"845.0","136.0","2095.0","149.0","948.0","1979.0","216.0","234.0","2626.0"
"867.0","108.0","1983.0","242.0","937.0","1779.0","275.0","232.0","2451.0"
"951.0","131.0","2042.0","173.0","1091.0","1860.0","264.0","288.0","2572.0"
"875.0","91.0","2110.0","173.0","928.0","1975.0","217.0","190.0","2669.0"
"1075.0","129.0","2372.0","295.0","1198.0","2083.0","320.0","269.0","2987.0"
"1039.0","103.0","2313.0","268.0","1259.0","1928.0","303.0","245.0","2907.0"
"959.0","118.0","2010.0","287.0","973.0","1827.0","270.0","216.0","2601.0"
"997.0","122.0","2206.0","258.0","1140.0","1927.0","297.0","268.0","2760.0"
"1074.0","117.0","2300.0","232.0","1285.0","1974.0","275.0","314.0","2902.0"
"1062.0","119.0","2262.0","274.0","1245.0","1924.0","332.0","261.0","2850.0"
"1236.0","103.0","2604.0","359.0","1369.0","2215.0","383.0","266.0","3294.0"
"1060.0","122.0","2640.0","263.0","1480.0","2079.0","302.0","290.0","3230.0"
"1129.0","103.0","2222.0","323.0","1202.0","1929.0","341.0","256.0","2857.0"
"988.0","110.0","2275.0","269.0","1054.0","2050.0","304.0","289.0","2780.0"
"952.0","105.0","2268.0","284.0","1042.0","1999.0","303.0","266.0","2756.0"
"1054.0","122.0","2649.0","371.0","1211.0","2243.0","366.0","305.0","3154.0"
"1354.0","112.0","2238.0","399.0","1262.0","2043.0","475.0","284.0","2945.0"
"1014.0","100.0","2222.0","322.0","998.0","2016.0","335.0","267.0","2734.0"
"1002.0","118.0","2371.0","266.0","1160.0","2065.0","302.0","299.0","2890.0"
"1172.0","115.0","2704.0","342.0","1319.0","2330.0","375.0","329.0","3287.0"
"1231.0","102.0","2537.0","328.0","1376.0","2166.0","363.0","331.0","3176.0"
"1221.0","97.0","2184.0","347.0","1102.0","2053.0","385.0","275.0","2842.0"
"1216.0","90.0","2637.0","392.0","1285.0","2266.0","400.0","289.0","3254.0"
"1183.0","74.0","2565.0","349.0","1350.0","2123.0","367.0","274.0","3181.0"
"1057.0","101.0","2296.0","301.0","1100.0","2053.0","316.0","256.0","2882.0"
"1606.0","102.0","2614.0","498.0","1492.0","2332.0","571.0","297.0","3454.0"
"1269.0","102.0","2583.0","417.0","1229.0","2308.0","410.0","274.0","3270.0"
"1168.0","88.0","2577.0","384.0","1303.0","2146.0","356.0","268.0","3209.0"
"882.0","127.0","1903.0","162.0","1126.0","1624.0","208.0","214.0","2490.0"
"927.0","101.0","1766.0","241.0","955.0","1598.0","258.0","231.0","2305.0"
"923.0","107.0","1930.0","207.0","1090.0","1663.0","216.0","266.0","2478.0"
"939.0","64.0","1909.0","228.0","964.0","1720.0","251.0","197.0","2464.0"
"1237.0","125.0","2050.0","335.0","1243.0","1834.0","373.0","265.0","2774.0"
"1140.0","87.0","2064.0","319.0","1243.0","1729.0","310.0","233.0","2748.0"
"961.0","95.0","1867.0","279.0","998.0","1646.0","277.0","217.0","2429.0"
"1063.0","100.0","1998.0","238.0","1194.0","1729.0","295.0","236.0","2630.0"
"1195.0","77.0","2055.0","271.0","1283.0","1773.0","324.0","278.0","2725.0"
"1010.0","75.0","2194.0","286.0","1249.0","1744.0","303.0","233.0","2743.0"
"1122.0","95.0","2562.0","324.0","1443.0","2012.0","334.0","265.0","3180.0"
"1084.0","77.0","2497.0","260.0","1475.0","1923.0","283.0","259.0","3116.0"
"1116.0","90.0","2084.0","312.0","1231.0","1747.0","307.0","244.0","2739.0"
"961.0","76.0","2172.0","257.0","1097.0","1855.0","262.0","273.0","2674.0"
"987.0","69.0","2105.0","277.0","1060.0","1824.0","280.0","246.0","2635.0"
"1181.0","78.0","2402.0","387.0","1210.0","2064.0","385.0","267.0","3009.0"
"921.0","84.0","2535.0","220.0","1249.0","2071.0","236.0","243.0","3061.0"
"1120.0","73.0","1979.0","318.0","1028.0","1826.0","315.0","236.0","2621.0"
"994.0","68.0","2265.0","257.0","1196.0","1874.0","274.0","296.0","2757.0"
"1148.0","78.0","2601.0","350.0","1322.0","2155.0","337.0","296.0","3194.0"
"1214.0","77.0","2415.0","291.0","1409.0","2006.0","311.0","304.0","3091.0"
"1043.0","79.0","2216.0","290.0","1143.0","1905.0","284.0","278.0","2776.0"
"1227.0","72.0","2480.0","394.0","1299.0","2086.0","374.0","255.0","3150.0"
"1108.0","87.0","2463.0","316.0","1386.0","1956.0","307.0","258.0","3093.0"
"1176.0","59.0","2055.0","360.0","1091.0","1839.0","340.0","221.0","2729.0"
"1263.0","71.0","2824.0","415.0","1529.0","2214.0","374.0","289.0","3495.0"
"1232.0","66.0","2492.0","448.0","1218.0","2124.0","361.0","234.0","3195.0"
"1198.0","63.0","2408.0","445.0","1260.0","1964.0","342.0","257.0","3070.0"
"1149.0","114.0","1885.0","300.0","1178.0","1670.0","391.0","238.0","2519.0"
"1070.0","118.0","2126.0","256.0","1298.0","1760.0","285.0","294.0","2735.0"
"1038.0","80.0","2148.0","248.0","1273.0","1745.0","296.0","244.0","2726.0"
"1091.0","95.0","2580.0","357.0","1418.0","1991.0","340.0","263.0","3163.0"
"1081.0","92.0","2472.0","293.0","1466.0","1886.0","276.0","238.0","3131.0"
"1034.0","94.0","2149.0","320.0","1191.0","1766.0","282.0","222.0","2773.0"
"953.0","140.0","2103.0","185.0","1181.0","1830.0","257.0","290.0","2649.0"
"1096.0","76.0","1976.0","291.0","1174.0","1683.0","328.0","248.0","2572.0"
"1317.0","113.0","2218.0","380.0","1249.0","2019.0","463.0","265.0","2920.0"
"1147.0","74.0","2306.0","391.0","1223.0","1913.0","355.0","229.0","2943.0"
"978.0","83.0","2098.0","320.0","1013.0","1826.0","276.0","222.0","2661.0"
"1098.0","63.0","2153.0","287.0","1175.0","1852.0","312.0","249.0","2753.0"
"1203.0","93.0","2518.0","348.0","1347.0","2119.0","357.0","303.0","3154.0"
"1169.0","80.0","2444.0","337.0","1396.0","1960.0","333.0","289.0","3071.0"
"972.0","88.0","2265.0","286.0","1158.0","1881.0","269.0","262.0","2794.0"
"1280.0","83.0","2403.0","430.0","1281.0","2055.0","427.0","246.0","3093.0"
"1165.0","66.0","2414.0","413.0","1315.0","1917.0","355.0","241.0","3049.0"
"1011.0","66.0","2200.0","320.0","1113.0","1844.0","315.0","223.0","2739.0"
"1515.0","74.0","2556.0","539.0","1477.0","2129.0","508.0","254.0","3383.0"
"1225.0","77.0","2475.0","453.0","1233.0","2091.0","379.0","243.0","3155.0"
"1445.0","89.0","2122.0","519.0","1234.0","1903.0","475.0","228.0","2953.0"
"990.0","94.0","2479.0","309.0","1300.0","1954.0","301.0","309.0","2953.0"
"954.0","85.0","2476.0","301.0","1298.0","1916.0","319.0","275.0","2921.0"
"1268.0","94.0","2653.0","434.0","1438.0","2143.0","430.0","288.0","3297.0"
"1381.0","79.0","2434.0","454.0","1457.0","1983.0","455.0","281.0","3158.0"
"1249.0","99.0","2178.0","392.0","1235.0","1899.0","404.0","265.0","2857.0"
"1078.0","86.0","2517.0","303.0","1416.0","1962.0","300.0","312.0","3069.0"
"1267.0","103.0","2811.0","382.0","1568.0","2231.0","373.0","339.0","3469.0"
"1531.0","302.0","2227.0","511.0","2084.0","1465.0","710.0","626.0","2724.0"
"1577.0","76.0","2039.0","537.0","1389.0","1766.0","645.0","307.0","2740.0"
"1267.0","77.0","2789.0","416.0","1517.0","2200.0","399.0","278.0","3456.0"
"1224.0","91.0","2697.0","390.0","1595.0","2027.0","377.0","285.0","3350.0"
"1491.0","104.0","2049.0","349.0","1306.0","1989.0","500.0","273.0","2871.0"
"1550.0","66.0","2896.0","508.0","1698.0","2306.0","492.0","282.0","3738.0"
"1241.0","78.0","2825.0","432.0","1482.0","2230.0","392.0","264.0","3488.0"
"1546.0","63.0","2414.0","564.0","1482.0","1977.0","514.0","244.0","3265.0"
"1126.0","61.0","2376.0","379.0","1168.0","2016.0","391.0","269.0","2903.0"
"1389.0","89.0","2585.0","460.0","1327.0","2276.0","500.0","326.0","3237.0"
"1348.0","84.0","2510.0","424.0","1413.0","2105.0","422.0","327.0","3193.0"
"1363.0","68.0","2143.0","492.0","1096.0","1986.0","490.0","274.0","2810.0"
"1424.0","78.0","2503.0","498.0","1296.0","2211.0","551.0","282.0","3172.0"
"1249.0","68.0","2577.0","460.0","1350.0","2084.0","409.0","265.0","3220.0"
"1158.0","74.0","2294.0","400.0","1117.0","2009.0","386.0","254.0","2886.0"
"1423.0","74.0","2758.0","500.0","1466.0","2289.0","498.0","280.0","3477.0"
"1275.0","85.0","2614.0","475.0","1249.0","2250.0","436.0","277.0","3261.0"
"1247.0","64.0","2594.0","425.0","1334.0","2146.0","404.0","258.0","3243.0"
"1577.0","71.0","2533.0","506.0","1408.0","2267.0","571.0","333.0","3277.0"
"1667.0","182.0","2211.0","429.0","1885.0","1746.0","631.0","506.0","2923.0"
"1347.0","92.0","2253.0","402.0","1342.0","1948.0","469.0","349.0","2874.0"
"1503.0","68.0","2989.0","483.0","1640.0","2437.0","483.0","335.0","3742.0"
"1346.0","71.0","2775.0","473.0","1370.0","2349.0","432.0","329.0","3431.0"
"1417.0","78.0","2576.0","486.0","1413.0","2172.0","437.0","307.0","3327.0"
"1601.0","60.0","2851.0","644.0","1507.0","2361.0","569.0","269.0","3674.0"
"1283.0","77.0","2784.0","490.0","1326.0","2328.0","435.0","268.0","3441.0"
"1420.0","57.0","2546.0","565.0","1328.0","2130.0","469.0","251.0","3303.0"
"1841.0","58.0","2624.0","723.0","1456.0","2344.0","701.0","259.0","3563.0"
"780.0","117.0","1896.0","126.0","1098.0","1569.0","202.0","217.0","2374.0"
"819.0","74.0","1782.0","199.0","907.0","1569.0","228.0","201.0","2246.0"
"872.0","91.0","1878.0","173.0","1022.0","1646.0","215.0","247.0","2379.0"
"890.0","78.0","1825.0","198.0","1016.0","1579.0","249.0","224.0","2320.0"
"994.0","101.0","2198.0","264.0","1156.0","1873.0","270.0","228.0","2795.0"
"967.0","88.0","2117.0","212.0","1242.0","1718.0","228.0","254.0","2690.0"
"835.0","66.0","1903.0","178.0","943.0","1683.0","193.0","198.0","2413.0"
"950.0","65.0","2027.0","233.0","1106.0","1703.0","260.0","245.0","2537.0"
"930.0","103.0","2175.0","190.0","1263.0","1755.0","248.0","288.0","2672.0"
"978.0","57.0","2125.0","246.0","1203.0","1711.0","289.0","235.0","2636.0"
"1278.0","51.0","2331.0","342.0","1342.0","1976.0","369.0","253.0","3038.0"
"1083.0","86.0","2370.0","267.0","1464.0","1808.0","296.0","271.0","2972.0"
"1034.0","59.0","2078.0","258.0","1177.0","1736.0","285.0","222.0","2664.0"
"971.0","63.0","2056.0","231.0","1049.0","1810.0","259.0","292.0","2539.0"
"928.0","76.0","2038.0","227.0","1024.0","1791.0","268.0","241.0","2533.0"
"1133.0","73.0","2336.0","330.0","1158.0","2054.0","341.0","257.0","2944.0"
"1081.0","56.0","2284.0","307.0","1213.0","1901.0","325.0","267.0","2829.0"
"958.0","72.0","2023.0","291.0","959.0","1803.0","262.0","229.0","2562.0"
"988.0","65.0","2155.0","254.0","1113.0","1841.0","270.0","268.0","2670.0"
"1648.0","122.0","1938.0","390.0","1421.0","1897.0","587.0","361.0","2760.0"
"1135.0","60.0","2392.0","297.0","1340.0","1950.0","317.0","306.0","2964.0"
"1195.0","61.0","1963.0","327.0","1055.0","1837.0","325.0","261.0","2633.0"
"1090.0","48.0","2522.0","312.0","1250.0","2098.0","304.0","266.0","3090.0"
"1121.0","40.0","2378.0","357.0","1259.0","1923.0","326.0","257.0","2956.0"
"1043.0","46.0","2082.0","309.0","1030.0","1832.0","301.0","220.0","2650.0"
"1337.0","74.0","2628.0","436.0","1425.0","2178.0","414.0","280.0","3345.0"
"1252.0","41.0","2378.0","400.0","1165.0","2106.0","367.0","243.0","3061.0"
"1186.0","42.0","2322.0","403.0","1211.0","1936.0","341.0","243.0","2966.0"
"942.0","86.0","2001.0","249.0","1098.0","1682.0","282.0","236.0","2511.0"
"961.0","94.0","2140.0","201.0","1241.0","1753.0","264.0","262.0","2669.0"
"885.0","86.0","2176.0","211.0","1240.0","1696.0","262.0","238.0","2647.0"
"1231.0","82.0","2334.0","349.0","1363.0","1935.0","383.0","250.0","3014.0"
"1094.0","74.0","2358.0","316.0","1418.0","1792.0","310.0","247.0","2969.0"
"1113.0","71.0","1974.0","317.0","1157.0","1684.0","332.0","232.0","2594.0"
"865.0","76.0","2136.0","238.0","1043.0","1796.0","259.0","261.0","2557.0"
"884.0","94.0","2051.0","239.0","1033.0","1757.0","282.0","232.0","2515.0"
"1189.0","103.0","2237.0","351.0","1188.0","1990.0","380.0","280.0","2869.0"
"1081.0","54.0","2273.0","356.0","1182.0","1870.0","326.0","244.0","2838.0"
"918.0","82.0","2040.0","272.0","984.0","1784.0","256.0","231.0","2553.0"
"901.0","77.0","2217.0","242.0","1118.0","1835.0","264.0","255.0","2676.0"
"1056.0","114.0","2525.0","288.0","1306.0","2101.0","311.0","296.0","3088.0"
"1123.0","106.0","2345.0","326.0","1328.0","1920.0","328.0","286.0","2960.0"
"989.0","74.0","2143.0","307.0","1078.0","1821.0","281.0","254.0","2671.0"
"1123.0","67.0","2457.0","344.0","1247.0","2056.0","357.0","251.0","3039.0"
"1184.0","87.0","2255.0","351.0","1293.0","1882.0","365.0","245.0","2916.0"
"976.0","61.0","2121.0","277.0","1063.0","1818.0","272.0","225.0","2661.0"
"1368.0","73.0","2585.0","442.0","1417.0","2167.0","438.0","259.0","3329.0"
"1478.0","50.0","2130.0","478.0","1161.0","2019.0","526.0","222.0","2910.0"
"1116.0","76.0","2345.0","398.0","1221.0","1918.0","322.0","229.0","2986.0"
"921.0","106.0","2417.0","215.0","1259.0","1970.0","246.0","323.0","2875.0"
"1026.0","82.0","2288.0","269.0","1244.0","1883.0","316.0","277.0","2803.0"
"1201.0","53.0","2642.0","409.0","1326.0","2161.0","396.0","277.0","3223.0"
"1122.0","84.0","2569.0","379.0","1426.0","1970.0","355.0","288.0","3132.0"
"1174.0","68.0","2165.0","364.0","1163.0","1880.0","371.0","250.0","2786.0"
"1004.0","51.0","2507.0","293.0","1322.0","1947.0","309.0","289.0","2964.0"
"1299.0","64.0","2699.0","393.0","1486.0","2183.0","397.0","297.0","3368.0"
"1252.0","66.0","2623.0","308.0","1576.0","2057.0","342.0","328.0","3271.0"
"1256.0","60.0","2257.0","358.0","1274.0","1941.0","377.0","293.0","2903.0"
"1263.0","52.0","2699.0","409.0","1446.0","2159.0","405.0","253.0","3356.0"
"1274.0","82.0","2537.0","412.0","1501.0","1980.0","388.0","291.0","3214.0"
"1146.0","61.0","2318.0","380.0","1245.0","1900.0","344.0","252.0","2929.0"
"1595.0","54.0","2744.0","531.0","1636.0","2226.0","551.0","280.0","3562.0"
"1444.0","81.0","2500.0","469.0","1403.0","2153.0","498.0","267.0","3260.0"
"1291.0","60.0","2553.0","402.0","1454.0","2048.0","367.0","262.0","3275.0"
"971.0","68.0","2405.0","288.0","1131.0","2025.0","309.0","324.0","2811.0"
"1271.0","91.0","2582.0","390.0","1297.0","2257.0","428.0","330.0","3186.0"
"1125.0","56.0","2642.0","374.0","1327.0","2122.0","357.0","313.0","3153.0"
"1159.0","77.0","2219.0","345.0","1099.0","2011.0","361.0","292.0","2802.0"
"1255.0","61.0","2580.0","420.0","1251.0","2225.0","435.0","281.0","3180.0"
"1132.0","49.0","2594.0","413.0","1265.0","2097.0","379.0","265.0","3131.0"
"1130.0","54.0","2223.0","409.0","1012.0","1986.0","408.0","242.0","2757.0"
"1317.0","55.0","2903.0","489.0","1442.0","2344.0","449.0","286.0","3540.0"
"1176.0","57.0","2674.0","442.0","1203.0","2262.0","413.0","268.0","3226.0"
"1388.0","58.0","2340.0","456.0","1259.0","2071.0","462.0","262.0","3062.0"
"1364.0","49.0","2649.0","438.0","1353.0","2271.0","462.0","311.0","3289.0"
"1192.0","47.0","2702.0","396.0","1394.0","2151.0","376.0","288.0","3277.0"
"1076.0","49.0","2448.0","327.0","1178.0","2068.0","316.0","283.0","2974.0"
"1471.0","66.0","2904.0","483.0","1569.0","2389.0","484.0","339.0","3618.0"
"1468.0","60.0","2545.0","492.0","1289.0","2292.0","497.0","315.0","3261.0"
"1206.0","45.0","2701.0","419.0","1353.0","2180.0","358.0","296.0","3298.0"
"1504.0","53.0","2836.0","532.0","1511.0","2350.0","525.0","285.0","3583.0"
"1228.0","65.0","2732.0","473.0","1261.0","2291.0","421.0","261.0","3343.0"
"1354.0","41.0","2509.0","499.0","1289.0","2116.0","440.0","254.0","3210.0"
"1487.0","55.0","2862.0","541.0","1443.0","2420.0","488.0","273.0","3643.0"
"982.0","71.0","1812.0","240.0","1143.0","1482.0","272.0","222.0","2371.0"
"916.0","86.0","2029.0","248.0","1256.0","1527.0","217.0","253.0","2561.0"
"932.0","84.0","1967.0","233.0","1225.0","1525.0","245.0","219.0","2519.0"
"1121.0","86.0","2276.0","325.0","1392.0","1766.0","319.0","250.0","2914.0"
"1050.0","92.0","2220.0","308.0","1421.0","1633.0","269.0","236.0","2857.0"
"1097.0","68.0","1829.0","300.0","1167.0","1527.0","311.0","203.0","2480.0"
"821.0","87.0","2005.0","213.0","1067.0","1633.0","210.0","259.0","2444.0"
"899.0","52.0","1914.0","238.0","1026.0","1601.0","231.0","219.0","2415.0"
"1187.0","83.0","2095.0","367.0","1180.0","1818.0","354.0","246.0","2765.0"
"1358.0","49.0","1837.0","432.0","1230.0","1582.0","429.0","233.0","2582.0"
"1312.0","44.0","1520.0","388.0","947.0","1541.0","476.0","184.0","2216.0"
"894.0","51.0","2086.0","257.0","1124.0","1650.0","243.0","222.0","2566.0"
"1313.0","55.0","2163.0","346.0","1291.0","1894.0","371.0","276.0","2884.0"
"1080.0","66.0","2264.0","314.0","1339.0","1757.0","287.0","273.0","2850.0"
"1215.0","52.0","1775.0","365.0","1043.0","1634.0","340.0","226.0","2476.0"
"1265.0","73.0","2145.0","409.0","1232.0","1842.0","384.0","249.0","2850.0"
"1032.0","62.0","2268.0","352.0","1310.0","1700.0","294.0","229.0","2839.0"
"1080.0","43.0","1871.0","346.0","1034.0","1614.0","311.0","189.0","2494.0"
"1312.0","52.0","2498.0","448.0","1449.0","1965.0","374.0","250.0","3238.0"
"1122.0","69.0","2303.0","395.0","1202.0","1897.0","326.0","214.0","2954.0"
"1386.0","57.0","1930.0","481.0","1219.0","1673.0","442.0","236.0","2695.0"
"989.0","62.0","2229.0","230.0","1286.0","1764.0","255.0","295.0","2730.0"
"913.0","55.0","2264.0","263.0","1259.0","1710.0","261.0","240.0","2731.0"
"1348.0","64.0","2320.0","375.0","1389.0","1968.0","411.0","267.0","3054.0"
"1226.0","60.0","2325.0","370.0","1430.0","1811.0","334.0","260.0","3017.0"
"1025.0","49.0","2169.0","330.0","1208.0","1705.0","295.0","226.0","2722.0"
"1146.0","61.0","2191.0","296.0","1369.0","1733.0","324.0","271.0","2803.0"
"1368.0","45.0","2485.0","396.0","1495.0","2007.0","392.0","306.0","3200.0"
"1388.0","67.0","2322.0","390.0","1556.0","1831.0","399.0","288.0","3090.0"
"1267.0","42.0","2100.0","353.0","1327.0","1729.0","372.0","255.0","2782.0"
"1411.0","61.0","2378.0","413.0","1503.0","1934.0","432.0","252.0","3166.0"
"1149.0","42.0","2538.0","389.0","1514.0","1826.0","325.0","262.0","3142.0"
"1091.0","47.0","2223.0","352.0","1258.0","1751.0","311.0","235.0","2815.0"
"1332.0","41.0","2856.0","449.0","1651.0","2129.0","375.0","276.0","3578.0"
"1508.0","43.0","2310.0","501.0","1390.0","1970.0","451.0","240.0","3170.0"
"2026.0","456.0","1258.0","621.0","1960.0","1159.0","1011.0","820.0","1909.0"
"1149.0","32.0","2099.0","329.0","1128.0","1823.0","354.0","258.0","2668.0"
"1264.0","30.0","2486.0","394.0","1302.0","2084.0","381.0","308.0","3091.0"
"1377.0","33.0","2249.0","426.0","1323.0","1910.0","421.0","282.0","2956.0"
"1132.0","38.0","2121.0","354.0","1093.0","1844.0","316.0","265.0","2710.0"
"1203.0","41.0","2488.0","415.0","1257.0","2060.0","381.0","257.0","3094.0"
"1298.0","41.0","2272.0","453.0","1280.0","1878.0","399.0","251.0","2961.0"
"1005.0","31.0","2207.0","363.0","1059.0","1821.0","301.0","232.0","2710.0"
"1732.0","39.0","2340.0","604.0","1492.0","2015.0","604.0","282.0","3225.0"
"1520.0","38.0","2185.0","544.0","1207.0","1992.0","505.0","251.0","2987.0"
"1249.0","26.0","2347.0","480.0","1220.0","1922.0","374.0","232.0","3016.0"
"1228.0","37.0","2633.0","412.0","1360.0","2126.0","380.0","295.0","3223.0"
"1193.0","29.0","2555.0","400.0","1409.0","1968.0","341.0","276.0","3160.0"
"1211.0","31.0","2167.0","392.0","1144.0","1873.0","344.0","258.0","2807.0"
"1302.0","37.0","2938.0","451.0","1571.0","2255.0","381.0","316.0","3580.0"
"1489.0","35.0","2385.0","499.0","1296.0","2114.0","467.0","282.0","3160.0"
"1343.0","24.0","2421.0","417.0","1389.0","1982.0","378.0","267.0","3143.0"
"1400.0","34.0","2795.0","503.0","1525.0","2201.0","426.0","268.0","3535.0"
"1364.0","40.0","2457.0","526.0","1246.0","2089.0","437.0","238.0","3186.0"
"2047.0","437.0","1256.0","611.0","2014.0","1115.0","1121.0","761.0","1858.0"
"1434.0","27.0","2779.0","573.0","1434.0","2233.0","433.0","258.0","3549.0"
"958.0","56.0","2253.0","298.0","1250.0","1719.0","276.0","280.0","2711.0"
"1059.0","58.0","2102.0","320.0","1215.0","1684.0","344.0","235.0","2640.0"
"1258.0","62.0","2399.0","410.0","1373.0","1936.0","413.0","243.0","3063.0"
"1235.0","71.0","2292.0","403.0","1434.0","1761.0","391.0","267.0","2940.0"
"1195.0","61.0","1974.0","412.0","1161.0","1657.0","372.0","211.0","2647.0"
"1297.0","48.0","2040.0","379.0","1324.0","1682.0","434.0","259.0","2692.0"
"1353.0","51.0","2481.0","394.0","1508.0","1983.0","429.0","279.0","3177.0"
"1226.0","81.0","2457.0","322.0","1637.0","1805.0","345.0","297.0","3122.0"
"1382.0","52.0","1962.0","417.0","1296.0","1683.0","465.0","250.0","2681.0"
"1316.0","69.0","2452.0","458.0","1437.0","1942.0","444.0","248.0","3145.0"
"1338.0","35.0","2343.0","457.0","1470.0","1789.0","396.0","245.0","3075.0"
"1299.0","51.0","1998.0","357.0","1303.0","1688.0","406.0","220.0","2722.0"
"1632.0","40.0","2544.0","586.0","1626.0","2004.0","543.0","261.0","3412.0"
"1539.0","37.0","2272.0","539.0","1424.0","1885.0","523.0","237.0","3088.0"
"1273.0","33.0","2421.0","457.0","1451.0","1819.0","356.0","225.0","3146.0"
"1027.0","67.0","2173.0","323.0","1138.0","1806.0","289.0","284.0","2694.0"
"1418.0","59.0","2290.0","458.0","1302.0","2007.0","511.0","276.0","2980.0"
"1294.0","43.0","2309.0","444.0","1321.0","1881.0","393.0","263.0","2990.0"
"1136.0","59.0","2083.0","368.0","1098.0","1812.0","333.0","270.0","2675.0"
"1389.0","45.0","2285.0","511.0","1216.0","1992.0","507.0","235.0","2977.0"
"1052.0","41.0","2505.0","412.0","1301.0","1885.0","334.0","254.0","3010.0"
"1223.0","45.0","1962.0","441.0","1029.0","1760.0","422.0","206.0","2602.0"
"1233.0","47.0","2818.0","515.0","1443.0","2140.0","419.0","263.0","3416.0"
"1363.0","42.0","2325.0","464.0","1219.0","2047.0","445.0","232.0","3053.0"
"1150.0","47.0","2412.0","491.0","1231.0","1887.0","363.0","230.0","3016.0"
"1275.0","60.0","2550.0","422.0","1371.0","2092.0","403.0","279.0","3203.0"
"1207.0","30.0","2527.0","402.0","1434.0","1928.0","390.0","278.0","3096.0"
"1221.0","34.0","2141.0","388.0","1159.0","1849.0","338.0","239.0","2819.0"
"1525.0","36.0","2703.0","510.0","1561.0","2193.0","476.0","301.0","3487.0"
"1310.0","42.0","2544.0","418.0","1352.0","2126.0","394.0","284.0","3218.0"
"1464.0","32.0","2279.0","527.0","1322.0","1926.0","494.0","251.0","3030.0"
"1370.0","60.0","2786.0","525.0","1531.0","2160.0","429.0","267.0","3520.0"
"1417.0","60.0","2371.0","557.0","1253.0","2038.0","496.0","227.0","3125.0"
"1336.0","40.0","2351.0","494.0","1318.0","1915.0","412.0","235.0","3080.0"
"1342.0","29.0","2856.0","586.0","1441.0","2200.0","419.0","239.0","3569.0"
"1174.0","47.0","2413.0","413.0","1305.0","1916.0","388.0","284.0","2962.0"
"1329.0","76.0","2729.0","429.0","1537.0","2168.0","420.0","331.0","3383.0"
"1269.0","55.0","2689.0","449.0","1553.0","2011.0","384.0","318.0","3311.0"
"1312.0","58.0","2275.0","433.0","1292.0","1920.0","413.0","297.0","2935.0"
"1232.0","58.0","2796.0","488.0","1467.0","2131.0","426.0","286.0","3374.0"
"1320.0","49.0","2596.0","462.0","1533.0","1970.0","411.0","277.0","3277.0"
"1408.0","52.0","2137.0","510.0","1243.0","1844.0","512.0","257.0","2828.0"
"1455.0","47.0","2963.0","510.0","1708.0","2247.0","460.0","302.0","3703.0"
"1582.0","42.0","2473.0","580.0","1416.0","2101.0","586.0","250.0","3261.0"
"1451.0","48.0","2477.0","544.0","1453.0","1979.0","482.0","254.0","3240.0"
"2445.0","413.0","1394.0","874.0","2200.0","1178.0","1410.0","834.0","2008.0"
"1481.0","42.0","2608.0","535.0","1587.0","2009.0","498.0","290.0","3343.0"
"1495.0","39.0","2229.0","482.0","1368.0","1913.0","527.0","280.0","2956.0"
"1932.0","73.0","2626.0","710.0","1860.0","2061.0","723.0","374.0","3534.0"
"1647.0","47.0","2569.0","563.0","1534.0","2166.0","579.0","301.0","3383.0"
"1717.0","47.0","2378.0","582.0","1588.0","1972.0","572.0","306.0","3264.0"
"1517.0","43.0","3023.0","614.0","1698.0","2271.0","515.0","272.0","3796.0"
"1456.0","45.0","2714.0","540.0","1484.0","2191.0","494.0","253.0","3468.0"
"1396.0","41.0","2657.0","542.0","1526.0","2026.0","442.0","246.0","3406.0"
"1757.0","32.0","2805.0","693.0","1629.0","2272.0","614.0","266.0","3714.0"
"1279.0","47.0","2808.0","478.0","1372.0","2284.0","440.0","312.0","3382.0"
"1461.0","47.0","2505.0","523.0","1409.0","2081.0","497.0","300.0","3216.0"
"1193.0","43.0","2409.0","426.0","1180.0","2039.0","376.0","288.0","2981.0"
"1795.0","28.0","2690.0","654.0","1557.0","2302.0","692.0","312.0","3509.0"
"1588.0","43.0","2514.0","613.0","1288.0","2244.0","594.0","295.0","3256.0"
"1545.0","45.0","2434.0","575.0","1353.0","2096.0","527.0","307.0","3190.0"
"1485.0","41.0","2881.0","658.0","1449.0","2300.0","548.0","271.0","3588.0"
"1294.0","39.0","2764.0","568.0","1248.0","2281.0","462.0","262.0","3373.0"
"1459.0","29.0","2488.0","619.0","1272.0","2085.0","505.0","229.0","3242.0"
"2336.0","44.0","1996.0","1131.0","1387.0","1858.0","1270.0","254.0","2852.0"
"1584.0","24.0","3023.0","639.0","1577.0","2415.0","551.0","303.0","3777.0"
"1647.0","32.0","2584.0","685.0","1337.0","2241.0","642.0","287.0","3334.0"
"1449.0","26.0","2667.0","615.0","1360.0","2167.0","482.0","270.0","3390.0"
"2000.0","33.0","2609.0","803.0","1583.0","2256.0","794.0","321.0","3527.0"
"2019.0","27.0","2548.0","827.0","1484.0","2283.0","833.0","255.0","3506.0"
