"0.40638910709609843","0.5013871374527112","0.5523491533508229"
"0.40009746588693956","0.4626865671641791","0.5348785379986628"
"0.38167576548777593","0.416267942583732","0.5296300222622707"
"0.3985324466865398","0.5192012288786483","0.5506663845991115"
"0.4058895705521472","0.4754373352504193","0.5414327419717044"
"0.3723150357995227","0.42289272030651337","0.5337881048816884"
"0.42948992713244755","0.47846889952153115","0.5487372380440624"
"0.4108342361863489","0.46243032329988853","0.5436228087850091"
"0.3943298969072165","0.4549412276882891","0.5418796696814785"
"0.48456057007125897","0.5318568994889267","0.45922974767596275"
"0.3906186817630409","0.4506983531373775","0.5333208711094496"
"0.3671578947368421","0.4618272841051314","0.5392361770853126"
"0.39704524469067404","0.4724664507172605","0.5388655462184874"
"0.37182601015676753","0.4749192680301399","0.533686898448242"
"0.41721187720181185","0.5288667141838918","0.5568717653824037"
"0.397737556561086","0.44921783796404396","0.5387438397819021"
"0.40938613031636284","0.4630266552020636","0.5487154629180806"
"0.4417148362235067","0.4992665036674817","0.5582624683980695"
"0.37822618488972315","0.4880817253121452","0.5417061112864205"
"0.35691387048514644","0.4272844272844273","0.5303044584786502"
"0.38458070333633904","0.5156110615521855","0.5498186473223811"
"0.3990079911821438","0.48029045643153534","0.5440445898461166"
"0.38413276664642787","0.46059616169865253","0.5298845265588915"
"0.3996455471865308","0.48304169367033917","0.5391390400791687"
"0.4108804581245526","0.49467240988438","0.5435853501820519"
"0.3829566121070408","0.5516448125143777","0.5641557244874453"
"0.43089617235846894","0.4713990351481737","0.5494079655543594"
"0.39067746395417735","0.4458730817088345","0.5333333333333333"
"0.3988541207580432","0.5330812854442344","0.554544525099683"
"0.4038095238095238","0.5035477225909819","0.5466480146346713"
"0.4062902810002578","0.4722083124687031","0.5518125655670824"
"0.3914209115281502","0.5124777183600713","0.550647128035084"
"0.3769266697804764","0.4464406018414552","0.5390345953668741"
"0.3858506944444444","0.4720235591081195","0.5351099007975103"
"0.41290635613779725","0.5083214455539705","0.5517085313419325"
"0.3926212707811433","0.4680656934306569","0.5357695881077733"
"0.4042073628850488","0.4883776659477594","0.538963963963964"
"0.3900993550636221","0.4466126656848307","0.5367880713761917"
"0.3991980396524839","0.4239738805970149","0.5385325808106721"
"0.3911353032659409","0.4707273802483738","0.5366723108457356"
"0.3991794871794872","0.47621026386868903","0.5416586860754645"
"0.41360294117647056","0.4522554188635032","0.5446140427387701"
"0.4686354817848674","0.47479674796747967","0.5485307212822796"
"0.38837675350701406","0.4725230645808263","0.5478468899521531"
"0.42266308002689973","0.45339216767788193","0.5341563099507882"
"0.40966386554621853","0.5004135649296939","0.5537833106399533"
"0.3868813825608799","0.45825789579561454","0.5378453784537846"
"0.4001528759793617","0.48955459203783996","0.548102302721398"
"0.39387036653551455","0.49694251936404404","0.5451320825165686"
"0.3893771494077188","0.4951326589043711","0.5424397239401273"
"0.4196936542669584","0.5470121186794819","0.5592078399346673"
"0.3830254252789464","0.49382260741287104","0.5370748299319728"
"0.38494478251070546","0.5518387699979224","0.5535274815422477"
"0.3785333879557558","0.467005076142132","0.53930513316745"
"0.3787007454739084","0.5114780507450665","0.5459963472075363"
"0.4065789473684211","0.516564952048823","0.5500308198068625"
"0.38005514705882354","0.44414715719063547","0.5334001001502253"
"0.3762621059138677","0.49139465875370913","0.5325399776868724"
"0.49101034208432776","0.5831101589001965","0.48329323710237904"
"0.4048582995951417","0.4752192535182541","0.5416548463356974"
"0.40230905861456484","0.5031042603296939","0.5513148470275249"
"0.42011605415860737","0.5028171750534292","0.5492124191932987"
"0.42586683684322485","0.471846355303361","0.5451622626343816"
"0.39607843137254894","0.5262934690415606","0.5562384757221881"
"0.4386520201079873","0.5137473562776389","0.5593657817109144"
"0.40641051982740906","0.49154639175257736","0.5496974935177182"
"0.424765478424015","0.4584916983396679","0.5459594557067481"
"0.3992458166391704","0.4932795698924731","0.5422005718521655"
"0.39037216828478966","0.4690371554135037","0.543039126478617"
"0.36640141467727677","0.4560518731988472","0.5296620374086859"
"0.39937718956792523","0.5362776025236593","0.5488079172289698"
"0.37115215479331576","0.48879477677783667","0.5388617886178863"
"0.3754822117445349","0.4941930316379655","0.5394687616909839"
"0.4045936395759718","0.49320974347919816","0.5412376287113866"
"0.40060962333986505","0.5328040117007941","0.5450509534860256"
"0.37416870843542177","0.47438596491228074","0.5433516661274669"
"0.40209463250420796","0.5178736803111688","0.5528498323628022"
"0.3948318449553487","0.43259557344064387","0.5388933440256616"
"0.4038755736868945","0.49276914836636315","0.548951048951049"
"0.3719111111111111","0.47753623188405797","0.5407570926334724"
"0.39376662865830486","0.5141253507951357","0.5521720052654674"
"0.3914617876882028","0.4861269479285443","0.5411061285500747"
"0.38547297297297295","0.4704858088107261","0.5345817924305609"
"0.38886854632002926","0.5159776132875971","0.5430509056571379"
"0.40298206729800523","0.46932141405932537","0.5436606731212541"
"0.46742756804214225","0.5693337583678673","0.5020203257009918"
"0.3680032566659882","0.46476642913697547","0.5367452873144523"
"0.40008990784445947","0.5","0.5467965146078934"
"0.3917396745932415","0.5122820919175912","0.5446241674595623"
"0.37835233659868317","0.4817325177715325","0.540900254224615"
"0.38917571657468397","0.5136498000347766","0.5414562632350546"
"0.40183735964613815","0.49384428645743017","0.5487330208912543"
"0.39230769230769236","0.5185840707964602","0.5488822155488823"
"0.40862341772151894","0.5272482187560178","0.5482717520858165"
"0.40201005025125625","0.5213908610959404","0.5482914923291492"
"0.3909090909090909","0.4917241379310345","0.5481245011971269"
"0.39366592882683465","0.45713269299181786","0.5467649202364564"
"0.39334900906953313","0.5062553556126821","0.554122265844083"
"0.4072894550601557","0.47031221801118933","0.5445254251486974"
"0.3843843843843843","0.5167608286252354","0.5378151260504201"
"0.3939285714285714","0.5127111111111111","0.5485752938192271"
"0.411033411033411","0.5606145774779838","0.564729867482161"
"0.3882017126546146","0.535656547512125","0.5524487669329629"
"0.38458728999269537","0.5042402826855124","0.5461099932930918"
"0.4047337278106509","0.5297152684884389","0.5530268128628029"
"0.3963518905567167","0.5009387908374013","0.5484813601345967"
"0.39391091900018793","0.5227356746765249","0.5571821488776505"
"0.48519294047262945","0.5012468827930174","0.5453575240128068"
"0.3948954271534917","0.49767608151590986","0.5517589631375189"
"0.4049271339347675","0.5139940151381799","0.552299858084982"
"0.36938555515630617","0.4514737598849748","0.5399106002554279"
"0.397216092344254","0.48139816577262495","0.5440464666021297"
"0.39285042333019754","0.4821327283040272","0.5389936019367111"
"0.46063738156761413","0.5092250922509225","0.54713059195662"
"0.4362292051756007","0.5066995768688294","0.5486045916190151"
"0.4107351225204201","0.5096674400618716","0.5489667565139263"
"0.4452662721893491","0.5473684210526316","0.5545107531887161"
"0.3851595661059582","0.4814274128142742","0.5506432056779536"
"0.38712629652226965","0.513038014451775","0.5494246090292122"
"0.38473423980222493","0.4928954846858225","0.5427745664739885"
"0.3877043354655295","0.5308831036242981","0.5444362078906185"
"0.38976504666881234","0.5186627718273288","0.5496668685645064"
"0.39562692176289715","0.4997389942578736","0.548148148148148"
"0.39813281132359585","0.5101340816962894","0.5503610239953323"
"0.4024370163016631","0.5104184604787326","0.5588899645046789"
"0.3989628909415006","0.5026333113890717","0.550301734015736"
"0.4046832782948064","0.47300603490458326","0.548309001540606"
"0.4380247616336986","0.4837929366231252","0.5564734154400721"
"0.376425855513308","0.4996600951733515","0.540702251613919"
"0.4081920903954802","0.5192005389624972","0.5529963977731689"
"0.3944865074742769","0.4942729567074355","0.5472341954022989"
"0.3751470011760094","0.49498449753784424","0.5405127325730944"
"0.4085297418630752","0.4844783715012722","0.550561797752809"
"0.381074168797954","0.44551753096787733","0.536720466049088"
"0.4105213715359323","0.48438893844781444","0.5420619860847565"
"0.39468963042698235","0.47576435495898584","0.5408388520971303"
"0.3759225092250923","0.4496402877697841","0.5401157981803143"
"0.42507232401157186","0.49132947976878616","0.5397062950144982"
"0.37475016655562954","0.49447103482422844","0.5448821316132996"
"0.383775918515824","0.48348457350272234","0.5426031533042602"
"0.3841973858128947","0.526347127121167","0.5516515884704397"
"0.4175056502979248","0.5144694533762059","0.5490309516922187"
"0.39649711198062226","0.5223588099055764","0.5459385196634038"
"0.38871667699938","0.5078459343794579","0.5493858939471943"
"0.3897616946160636","0.5565541800915721","0.5553877139979859"
"0.45129224652087474","0.4802386278896345","0.5332602339181287"
"0.38280309544282026","0.5232224286438102","0.550529355149182"
"0.4187158469945355","0.4525949018888686","0.5406002890910637"
"0.38890240934533943","0.4359281437125749","0.5393282773564464"
"0.41924994580533276","0.5460122699386503","0.5568611423316645"
"0.3946229209387104","0.4825619653432771","0.5456418710076241"
"0.40818544005795004","0.4946877912395154","0.5517061734826778"
"0.37918215613382905","0.49194232400339266","0.5445515049170558"
"0.39213675213675214","0.4857790961437794","0.5469011058954572"
"0.3795417727377922","0.48990983254615705","0.5488372093023256"
"0.38295537673738117","0.4868900218499635","0.537819335448322"
"0.41838733986435567","0.5256979695431472","0.5488270594653574"
"0.38800342759211653","0.4661953960485771","0.5454545454545455"
"0.3903500098872849","0.43748745735500705","0.536091870215093"
"0.38","0.47865303668069764","0.5402817420127061"
"0.40831535595214746","0.4780130293159609","0.5421287081793195"
"0.3937560975609756","0.5240375407010152","0.5541926034419626"
"0.39773204535909285","0.4671628721541155","0.5414691943127962"
"0.4067444876783398","0.42488935173132","0.5407596109309867"
"0.39504974520747393","0.44153369849964275","0.5405879771829749"
"0.37142857142857144","0.4689561833869057","0.5375620940007643"
"0.42676888675930363","0.5176708179064288","0.551061925299048"
"0.4321761219305673","0.5269030052186432","0.5551821719136895"
"0.3780381944444444","0.46121327414922847","0.5429653364404312"
"0.4570563753310632","0.45707175445873083","0.5501736781165574"
"0.3738591916558018","0.4594500522102332","0.5375731444410224"
"0.40995921871646274","0.46953405017921146","0.5404580152671756"
"0.4015151515151515","0.531621493105088","0.5482316425712652"
"0.3823689461273354","0.5145032632342277","0.548675581296312"
"0.4399555226093403","0.5043619395414892","0.5521819779361515"
"0.4070829450139795","0.5185185185185185","0.5483554684018184"
"0.38908127928294967","0.45062873634302203","0.5439898624185373"
"0.3958868894601542","0.5394880770072195","0.5509854327335048"
"0.3561241610738255","0.4486863711001642","0.5344280649374884"
"0.3879755753875058","0.4582658959537573","0.5438427854320197"
"0.39290917921321034","0.5133333333333334","0.5509467989179441"
"0.39820874956941094","0.4869072894550602","0.5423535172188672"
"0.4195380537675123","0.5258107848781424","0.5609733616001474"
"0.4098994586233565","0.4973378031946362","0.5492303488478004"
"0.38537774167343625","0.4947996589940324","0.5480049875311722"
"0.37615740740740744","0.5113636363636365","0.5416739472304735"
"0.41595153962645126","0.49693402011282806","0.5452460144511985"
"0.3865182436611008","0.48585744302569905","0.5455739619061519"
"0.38456809099292966","0.5297314081664338","0.5550218017884856"
"0.39158787088359964","0.4914675767918089","0.5504815159987574"
"0.35381818181818186","0.5034270047978067","0.5472675879396985"
"0.391097584173483","0.5053557765876053","0.5492639754357446"
"0.3837886251679355","0.47683271698934077","0.5393258426966293"
"0.41477832512315277","0.4547494390426328","0.5431956746807777"
"0.37387387387387383","0.5106807746057097","0.5464491181741016"
"0.385372192314832","0.4640967498110356","0.5402072450115611"
"0.3825853585805874","0.48397234443746073","0.5466752374830369"
"0.3745795716055939","0.5054712319096364","0.5469333554651837"
"0.3701165181631254","0.5066759146870122","0.538997995991984"
"0.3831708197905381","0.5209549071618037","0.5422671723556679"
"0.40653846153846157","0.5355504587155963","0.5564367392106234"
"0.3992380952380953","0.4684649718610518","0.5485734601368767"
"0.39374893833871244","0.5148986889153755","0.5530780416868638"
"0.38946301925025323","0.475239453841451","0.5416981132075471"
"0.4080531340805314","0.48187722606327255","0.5515814365947385"
"0.36691099476439787","0.4903748733535967","0.5362835177198575"
"0.3732601450695942","0.4793650793650794","0.5406886473650562"
"0.36853751760209214","0.4893445918777644","0.5365808653934865"
"0.388107858953676","0.45399907535829864","0.5309272973818713"
"0.40072463768115946","0.48574521833273177","0.5429095150808199"
"0.3946083219378785","0.5037746271404898","0.5468886941279579"
"0.38023593776713965","0.4870357393132445","0.5433064580506107"
"0.3601506333447449","0.4541012216404887","0.5338122754958613"
"0.4163353812793639","0.48756218905472637","0.556420233463035"
"0.405436013590034","0.4722436391673092","0.5473739312510906"
"0.43145500420521443","0.5101687581133708","0.5533539731682146"
"0.3876567020250723","0.4458355068683708","0.5434799472500194"
"0.42601626016260163","0.45809248554913296","0.5517013544763792"
"0.4523652365236524","0.4771945908778363","0.5450892857142857"
"0.4012859856787959","0.47288776796973514","0.5500680954770267"
"0.37834268735556287","0.48461804355340476","0.5460825875333648"
"0.4090509666080844","0.4975651069235656","0.5496603996456344"
"0.3923037629831432","0.46531038080333853","0.5390978617137505"
"0.4147058823529412","0.49164946519046726","0.5530456183528171"
"0.4107993647432504","0.45490640952921163","0.5492909618998804"
"0.40062475595470526","0.4527472527472528","0.538247191011236"
"0.3932810750279955","0.5116574819838915","0.543706818864524"
"0.38438438438438444","0.4583520936515083","0.5327054969802436"
"0.3613841918993315","0.483078708180236","0.5362827083895333"
"0.3972160923442539","0.4686638485572505","0.5468078068144226"
"0.3966327329678935","0.4696937697993664","0.54457419538593"
"0.38807429130009774","0.46542775824543786","0.5399892646269457"
"0.391536408692337","0.4919682601122508","0.5451772095109916"
"0.4042718446601942","0.5000982897582071","0.5461376340144781"
"0.3982782057091074","0.5069914298601714","0.5456277789540546"
"0.3844827586206897","0.510012782275245","0.5476237820640286"
"0.40663900414937765","0.4846416382252559","0.5475046210720887"
"0.3945675482487491","0.4699554896142433","0.5447209145931406"
"0.3604135893648449","0.47230201066885513","0.5431768193554557"
"0.3917525773195877","0.5363237445148707","0.5574023965983765"
"0.4056327009583415","0.5592558139534883","0.5632247377139703"
"0.38192598650582704","0.5254401238150512","0.547183886609474"
"0.35043250854958763","0.5027467323356697","0.553469950060272"
"0.4027346177750155","0.43611290670114206","0.5408362641656896"
"0.44138506466416355","0.5139807897545358","0.5590152063721942"
"0.38873360567619863","0.5003124349093939","0.5466640579143024"
"0.4077530509691314","0.48003825005976575","0.5464324917672887"
"0.3762306610407876","0.49445214979195573","0.5494237948385002"
"0.3669145819247239","0.44389027431421446","0.5370517928286853"
"0.4086731086495405","0.5235579040070453","0.5448356557812999"
"0.3964456596035543","0.4973867595818815","0.5397251782208906"
"0.38943248532289626","0.46602608098833215","0.5491320520768753"
"0.37808127914723527","0.493711219184974","0.5453978645468007"
"0.4287145242070117","0.48803493449781654","0.5413870246085011"
"0.40309777347531467","0.4912417282989491","0.5492817779383864"
"0.3835818148352659","0.503942921517086","0.5500649069666811"
"0.391653290529695","0.5116948542641238","0.5516547968160871"
"0.37722419928825623","0.42924002674392686","0.5330250326731678"
"0.4208754208754209","0.5304200414390658","0.5505213620005537"
"0.3839879154078549","0.4897827835880933","0.5445726464319836"
"0.3980080444359318","0.5048835462058603","0.5491537314741735"
"0.391697097828176","0.5404191616766466","0.5516683154959978"
"0.386594288411612","0.4515832950894907","0.5390933982354731"
"0.3987027851964899","0.476461655277145","0.5411353711790393"
"0.38398725353515234","0.48704253214638976","0.5520059435364041"
"0.3865917985366684","0.49982740766309974","0.5430930810550789"
"0.39780771865722764","0.4792274870873568","0.5473662294399334"
"0.4192006119716963","0.4814889743071011","0.5544848035581913"
"0.38737908797789034","0.4379971923256903","0.5367965367965367"
"0.4941770186335404","0.49684115523465705","0.536185707783341"
"0.3728123728123728","0.5053045186640471","0.5478002598849081"
"0.39115585115944634","0.48423662770102727","0.5422053858189904"
"0.38996385285987667","0.5044025157232706","0.5423728813559322"
"0.39245994344957585","0.5049279757391965","0.5506245017273452"
"0.3883565358886277","0.490566037735849","0.5429254138931559"
"0.4026321200904791","0.5332543911584764","0.5484796328169822"
"0.4094896331738437","0.5174129353233831","0.5533239038189534"
"0.36738640025781505","0.4734994148135764","0.5414074795773065"
"0.38256573142756306","0.5497115710892433","0.5517410897173289"
"0.3827453305662616","0.4893717524799245","0.542021314641299"
"0.3700894888518125","0.4782539933575834","0.5471884713195818"
"0.38835593781012234","0.5006816632583504","0.5479924717691342"
"0.3870763382958505","0.49421104862719156","0.547737933121501"
"0.4021962937542896","0.4733321280057856","0.5447767376356557"
"0.3906445277628995","0.5173989455184534","0.5503843928246672"
"0.4023588879528223","0.49332176929748484","0.548641260652838"
"0.37048604333398405","0.4587700217520268","0.5311662796928023"
"0.41326250228979666","0.4877672895395877","0.5534290271132376"
"0.38378984462598115","0.4969919786096257","0.5507157620760929"
"0.5361925092179313","0.48390748827430047","0.46298761134432265"
"0.407384099014055","0.4808861859252824","0.5435108402437806"
"0.4002842254855518","0.5411342748262722","0.5571351058057515"
"0.37458092045108193","0.51132989529614","0.5479788849519126"
"0.38369384359400993","0.5375779455201838","0.5483362245702571"
"0.378820323145805","0.45298980965199004","0.5422498703991705"
"0.3704639826683517","0.4536193029490617","0.5367294793995528"
"0.3896968635009638","0.4926975189160654","0.5415496448042293"
"0.39192968437874554","0.5186625194401244","0.5548939337551172"
"0.3912041884816754","0.48102893890675247","0.5383261634728197"
"0.42169197396963126","0.45829596412556056","0.553160621761658"
"0.40530612244897957","0.5196337741607324","0.5512510868515119"
"0.39731903485254694","0.4685598377281947","0.5396370582617"
"0.3804900601017106","0.45293857711003094","0.535584310553983"
"0.38692672641012127","0.5335840027345753","0.5482657068062826"
"0.4063761097659403","0.4929006085192698","0.5441729323308271"
"0.39738913419082356","0.49306381292112567","0.5458879618593563"
"0.38736757945232864","0.49919614147909963","0.5486157044316357"
"0.37543996871333596","0.4662162162162163","0.5438692098092643"
"0.39737354085603116","0.4952963311382879","0.542681588764538"
"0.4184820801124385","0.5218939124243503","0.5563985837126959"
"0.3998677029932198","0.5041224970553592","0.5438965238480195"
"0.37747265534093555","0.47954545454545455","0.5389848246991104"
"0.37508579272477693","0.4858314026020317","0.5442538455343481"
"0.3814964983413196","0.5136612021857924","0.5458754930543647"
"0.3886899151743638","0.4747591522157997","0.5362637362637362"
"0.39961529213753305","0.475670543555661","0.5496703296703297"
"0.396039603960396","0.5039689241682148","0.5447193149381542"
"0.40697674418604646","0.49134808853118717","0.549962852897474"
"0.4287230279448178","0.45035183737294754","0.5411045152005757"
"0.35934664246823955","0.45377787399870106","0.5350280815843925"
"0.3734037868780273","0.5025034137460174","0.5451258517591434"
"0.38590203106332144","0.4828124999999999","0.5447828437556316"
"0.35921958684009175","0.44709045515652013","0.5342268216133684"
"0.41428873388290005","0.5051308900523561","0.5562499999999999"
"0.37086795121088917","0.4863701578192252","0.5379605968180694"
"0.3860157219693836","0.5027386541471048","0.5549080313239847"
"0.4042328042328043","0.5041894353369764","0.5510448783830079"
"0.3887782805429864","0.4670680532749498","0.5421947965310207"
"0.43435924187097896","0.45","0.541264072334013"
"0.3918824352694192","0.5301288749564611","0.5580009928843289"
"0.42259887005649716","0.49650191830286616","0.5466155810983397"
"0.45024408561772433","0.5447344734473447","0.5176836377769142"
"0.37587896867675263","0.4951042997020008","0.5353050631671726"
"0.4305555555555556","0.4973648252976771","0.5499764484220444"
"0.40081195792581653","0.4935885523136964","0.5471991701244813"
"0.4055072938862482","0.4898380985187737","0.5463695183321351"
"0.4078473722102232","0.517203513909224","0.5504729148753226"
"0.39830697259968817","0.4693237796686073","0.5514607205533189"
"0.3784407450140102","0.45999648320731495","0.5410040536326786"
"0.4187942501609097","0.46640316205533594","0.5436181800178235"
"0.3855702094647013","0.5249401803791643","0.5537459283387622"
"0.38926174496644295","0.4981428883548176","0.5496348924412867"
"0.40501293017704393","0.5163309211813026","0.5546218487394958"
"0.5006418485237484","0.4710387745332696","0.5452165635411709"
"0.39863247863247864","0.5090592334494773","0.5517072373795132"
"0.42100098135426883","0.4533941236068896","0.5465909090909091"
"0.3827613727055068","0.47664949310287524","0.5409145607701565"
"0.38181198910081743","0.44388032638259295","0.5397768323031228"
"0.3790747608822955","0.45205205205205207","0.5348795071570938"
"0.4180327868852459","0.5053700449131029","0.5478475459281601"
"0.3918083462132921","0.4404032417473809","0.5384547305071246"
"0.4051413881748072","0.5068592057761733","0.5538849994261449"
"0.39172932330827076","0.5150048402710553","0.546158695847969"
"0.38415409776485554","0.5238931834153197","0.5544404149447584"
"0.3890602508739462","0.52739336492891","0.5510093727469358"
"0.3942339926248743","0.4583333333333333","0.5404201145767027"
"0.41237550328459416","0.503735325506937","0.5512459807073955"
"0.39050567595459235","0.519778643164583","0.5542261675028946"
"0.40322883424066086","0.5152145152145152","0.5515463917525774"
"0.36724987260064546","0.4492208490059108","0.5353503184713376"
"0.36020761245674743","0.47313328681088623","0.5409445062808078"
"0.38173115277223774","0.48356190118354303","0.5496930331880061"
"0.3867907316183178","0.43895074542366486","0.5403946702648001"
"0.39491004826678366","0.4576271186440678","0.539701733172108"
"0.40844763770955805","0.4938164460837492","0.5488599348534202"
"0.3824677274091864","0.48906009244992293","0.5433558558558558"
"0.38553449099888487","0.45864289252105006","0.5418443888807177"
"0.39136690647482014","0.48147472166453736","0.5393088371310855"
"0.40739284309870233","0.5118611378977821","0.5456535619812095"
"0.3729943738278808","0.43299832495812396","0.5296820782143862"
"0.4076163610719323","0.4676428908833255","0.5437877480586712"
"0.3978643464504647","0.44096435194724914","0.5368966154984279"
"0.38768999812347527","0.4778028592927012","0.5434952637524985"
"0.4182723533232301","0.5044038668098818","0.5514586709886548"
"0.40089358245329004","0.5165297535564015","0.5516652433817251"
"0.3908396946564885","0.539052256976962","0.5544554455445545"
"0.3859072654253377","0.46380007350238883","0.5412722139179539"
"0.384189139268563","0.4869310912081886","0.5500042412418357"
"0.3907685413399059","0.4960928778745256","0.5448132780082987"
"0.40119760479041916","0.5122041420118343","0.5465544450289321"
"0.3946544163708499","0.45755995828988527","0.5423209498276522"
"0.3768616447226419","0.49287169042769857","0.5434302716191574"
"0.39071856287425144","0.4475931677018634","0.5408892763731473"
"0.3842794759825328","0.48582545858810444","0.5492608732803554"
"0.4081632653061224","0.5504587155963303","0.5626827841684539"
"0.3973509933774834","0.5597269624573379","0.5596250650928658"
"0.375710804224208","0.45158698272398556","0.5335023542194857"
"0.40881169243804283","0.4753855905345447","0.5446428571428571"
"0.4037600716204119","0.5123895712131007","0.5495888742259669"
"0.37701349586417066","0.45987719669701466","0.5383199302393179"
"0.392721117223868","0.4713457823567289","0.5524958645519121"
"0.419154478060509","0.5137690094533498","0.5556304787592717"
"0.3632421614409607","0.4963553144600781","0.5416376171663181"
"0.3916773133783537","0.46969133506879884","0.5441313362105441"
"0.37564322469982847","0.5254384441743358","0.54716826489632"
"0.38348082595870203","0.49335579262586554","0.5457204301075268"
"0.40085786703061027","0.5081495685522531","0.544641259617105"
"0.3941755537325677","0.4795685542418585","0.5449347183836845"
"0.3796512673018156","0.4322712874976709","0.5329450915141432"
"0.39949484319090717","0.5082274526140387","0.5503783353245719"
"0.39484978540772536","0.495864262990456","0.5492412972329663"
"0.4175553732567678","0.5449077786688052","0.5568490492821109"
"0.37155555555555553","0.46976336546888686","0.5398909311250252"
"0.5086033519553073","0.5522066738428418","0.4446878422782037"
"0.4111270198404582","0.5401027261951798","0.5520982015415359"
"0.39236479321314954","0.47789824854045043","0.5400440149268012"
"0.38582805135706166","0.5072065888812629","0.553763013589764"
"0.39964633068081346","0.4990541051835037","0.5533666053760615"
"0.40513368983957215","0.5182357930449534","0.5507793110294847"
"0.36696933356176115","0.5230663694049048","0.5448831587429492"
"0.3982797307404637","0.5087881591119333","0.545502046503527"
"0.3647086577022883","0.4824715162138476","0.5502916197687507"
"0.39799391008418417","0.4778625954198473","0.5419893829953877"
"0.39852941176470585","0.49547834364588295","0.5417602155365963"
"0.450530315022954","0.5220040622884224","0.5563525434908072"
"0.389855308079987","0.49524796958700534","0.5490909090909091"
"0.38421147926851346","0.4714389009399856","0.5376078914919853"
"0.3961516694963214","0.5051823416506718","0.5441506051098163"
"0.4008834897846493","0.5519434628975265","0.5533753997752614"
"0.4040522111825443","0.5312855517633674","0.5510185438933041"
"0.40667361835245047","0.4817623690863128","0.5484295346160172"
"0.3893769152196118","0.4090316977854972","0.5329529243937232"
"0.39195648590736776","0.5322101090188306","0.5515670410808263"
"0.3760299625468165","0.48867562380038393","0.5416961130742048"
"0.40842648323301806","0.43367003367003365","0.5428715365239294"
"0.3836964160224877","0.49331405854716304","0.5415425355842436"
"0.36787307882994547","0.4718249181457867","0.5345173745173746"
"0.38017986245812024","0.45038032902883424","0.536523530343844"
"0.4868378290542736","0.4850230414746543","0.5437581638365366"
"0.35569209762758147","0.5015332197614992","0.5413310393368265"
"0.3809340764943302","0.4456780333068993","0.5347861034205591"
"0.3859768550034037","0.5125889911442959","0.5505277800507323"
"0.3752151462994836","0.49777605878940245","0.5449830084063673"
"0.41689128481581317","0.48899371069182396","0.5492227979274612"
"0.42828191848682723","0.4964012073368934","0.5509982638888888"
"0.41688654353562005","0.5003684598378777","0.5525613430908308"
"0.3897192854538826","0.5250780819401065","0.5498069498069498"
"0.3946464098390306","0.5188437614343213","0.5473557898345761"
"0.3983339644074214","0.5127723516153269","0.5463517800493479"
"0.3795427901524033","0.5192864765970422","0.5523202267091747"
"0.384659090909091","0.4802102659245517","0.5483825989960959"
"0.41348677569150005","0.4949000407996736","0.5468440418907444"
"0.4090115263709396","0.5013584495562399","0.5545767262354224"
"0.39489567166752887","0.46895516788595004","0.5480849640408094"
"0.40856098834174354","0.48813559322033895","0.5465735196274119"
"0.4415746071261864","0.4828178694158075","0.5456908455852489"
"0.38551803091013165","0.47966207759699625","0.5494923857868022"
"0.4104129263913824","0.5290441176470587","0.5609584214235377"
"0.4019258202567761","0.4531926916556791","0.5470692717584369"
"0.39376729284986167","0.5170583775587567","0.5558076868529287"
"0.3882229232386961","0.49483648881239245","0.5466573118171795"
"0.3816977724262492","0.4494887525562372","0.5418855405031794"
"0.3882063882063882","0.4841679766449585","0.54799917064068"
"0.39318060735215765","0.4934739853388163","0.5427490956922065"
"0.3883802816901408","0.5176262178919396","0.5476846057571965"
"0.38713175492499546","0.5227673843981645","0.5516366404465871"
"0.37985347985347984","0.4769173492181683","0.537812288993923"
"0.37669172932330824","0.47527003979533816","0.5426027977956761"
"0.3942754919499106","0.47277506571535866","0.5438356164383561"
"0.37951942510666964","0.504817762882279","0.5414629278515118"
"0.37846222025260357","0.44257206208425715","0.537190890431043"
"0.39250555731978404","0.49975045749459324","0.550019135093762"
"0.4011766868909726","0.5448950036205648","0.5571340333539222"
"0.39497827136648955","0.5173263261619314","0.5513313837155611"
"0.4985391357834845","0.5473025801407349","0.5093271850765039"
"0.48608653691491077","0.5464175371487422","0.41706011960969464"
"0.5067215363511659","0.5417224453369032","0.4775127566156402"
"0.4099722991689751","0.5050872093023256","0.557079945799458"
"0.3956088635901606","0.5135135135135135","0.5493856557767407"
"0.40994249675384903","0.4943645549941702","0.5504242965609647"
"0.4141715002351466","0.4995044598612487","0.5537018528484662"
"0.41207107843137253","0.4885883347421809","0.556235002709188"
"0.38405486498071156","0.48791860958033056","0.5369075369075369"
"0.41500904159132007","0.5090992858788298","0.5587563865637569"
"0.4188438592882123","0.4719726144629867","0.5492248444751654"
"0.3582669516223043","0.5147917844356511","0.5385022026431717"
"0.4145668567224572","0.4941982119079323","0.5514134275618374"
"0.4052488070892979","0.5193164933135215","0.560007059654077"
"0.40647706041104426","0.4691041265768655","0.5401872805306281"
"0.4044051272792923","0.464592479480817","0.5462328767123288"
"0.40199542714612346","0.4864187212703719","0.5418489355497229"
"0.384358009201171","0.43357539513028615","0.5315658973869922"
"0.4139882757226602","0.46723044397463","0.5451182711963399"
"0.39460131415379157","0.45672048239642093","0.5444521019986216"
"0.4027118644067797","0.42746970253396993","0.5406366133462596"
"0.3897861195984286","0.4298808432630614","0.5425659472422063"
"0.40285019117135906","0.4758378078133679","0.5484972108900175"
"0.3738276990185387","0.5198647506339815","0.5483645093528058"
"0.40249537892791126","0.44267515923566875","0.5396534148827726"
"0.37233325847743093","0.4854744996772111","0.5435226808336738"
"0.4000645265365381","0.537294155634485","0.557276018796703"
"0.39981066582518143","0.5018026876433955","0.5498411738012403"
"0.39267886855241263","0.5044266007823759","0.5476073979841471"
"0.3751335184789575","0.5131964809384163","0.5418350251305805"
"0.3922137088424104","0.5409478485028753","0.5483809158842691"
