"0.8301051466519093","0.7768924302788845","0.676655808903366"
"0.8381815014805782","0.7808326787117047","0.6807969478592624"
"0.8303064699205448","0.7545758183032732","0.6755346017848122"
"0.8062469497315764","0.7438409023449094","0.6704395397094888"
"0.8011486001435749","0.7554863813229571","0.6696072253728209"
"0.8158211521926054","0.7386438446346281","0.682173651493884"
"0.8252165270481329","0.7335513407455853","0.6864244741873805"
"0.8083028083028084","0.7511910250499462","0.6662505201831044"
"0.8297090352220522","0.7599147121535181","0.666544722882751"
"0.8144226641865788","0.7329968119022318","0.6898605234289296"
"0.804885404101327","0.7381619314392424","0.653046722330787"
"0.8067226890756302","0.7470507124253101","0.675390625"
"0.8122967780076854","0.7435319092477113","0.6699507389162562"
"0.8381631743201071","0.7616502421914146","0.6837996096291477"
"0.8242363545317977","0.8014101057579319","0.6827586206896552"
"0.8452267681573105","0.7780407004259348","0.6819806023481367"
"0.8220640569395019","0.7614703514891333","0.6931428571428572"
"0.8397358943577432","0.7735721069054402","0.6762489044697634"
"0.8430561935385087","0.7757292239955971","0.7032486113448915"
"0.8227424749163879","0.7253722794959909","0.6748566748566749"
"0.8318174301306431","0.80608","0.6989084802686818"
"0.8408726339428938","0.7963473466574776","0.7082790091264668"
"0.827810650887574","0.7960987503809813","0.7054698457223002"
"0.8264976385781755","0.7726380712082984","0.6708173690932311"
"0.835248041775457","0.7462772050400917","0.6890459363957597"
"0.8329411764705883","0.75375751503006","0.6406639004149377"
"0.8481506388702085","0.7678035470668487","0.6730797691283114"
"0.8194981761910025","0.7538688282977155","0.6504951916176259"
"0.8310897435897436","0.787358184764992","0.6858075040783035"
"0.8366592756836658","0.7870201096892139","0.7001035656162155"
"0.838023915931876","0.7823529411764706","0.682309919244248"
"0.8301476301476302","0.7735452909418116","0.6717114796329093"
"0.841688654353562","0.7769764593822288","0.6890891968249697"
"0.839413215630274","0.7530353200883003","0.6749426528133855"
"0.8386229155459924","0.773254379471996","0.67965098161421"
"0.842631661197062","0.7912575229648401","0.7031275060144346"
"0.8370904718966036","0.7678571428571427","0.7066754357119368"
"0.8337916284754049","0.7686556434219985","0.6817469984339656"
"0.8339571792184459","0.7723397537101359","0.682475231443885"
"0.8203890006706908","0.7276774672273064","0.650663485910243"
"0.8300653594771241","0.7621736062103035","0.6776059179556154"
"0.8189189189189189","0.7469372602400692","0.6556567371507948"
"0.8286460734593515","0.7617082076520082","0.6740279937791601"
"0.8317183021700559","0.7955644014785328","0.6888797477032771"
"0.8291178285009254","0.7870538415003024","0.6818610499842818"
"0.8359981726815898","0.7763050237277042","0.693822739480752"
"0.8429871443016034","0.7802098950524738","0.7061772077251954"
"0.8342541436464088","0.8127552623311342","0.6916177992411177"
"0.841773576412334","0.7528382213812678","0.682843969910216"
"0.8372349215092261","0.7766881479405996","0.6785079928952042"
"0.8396313364055299","0.7651759093619559","0.6949337869031709"
"0.8344266596693781","0.7674033149171271","0.6828087167070219"
"0.8362849803974585","0.7838226827864134","0.6897964758912717"
"0.8296495956873315","0.7872068230277187","0.6785363802046825"
"0.8343934040047114","0.7633624297500897","0.6665804783451842"
"0.8301075268817204","0.7894273127753304","0.6803144933986055"
"0.8283655420897479","0.7769423558897244","0.6828267760581764"
"0.8328719219000437","0.7421521590130227","0.6918138041733547"
"0.845426673479816","0.7592592592592592","0.6909712332668756"
"0.8048752705319512","0.7376942159550854","0.6702561117578579"
"0.826264690853347","0.7457717405779731","0.6750813272608979"
"0.8380378873416134","0.7536582416253476","0.69194180190263"
"0.8219780219780219","0.7601270849880857","0.689540391755217"
"0.8219178082191781","0.7648632580261593","0.6735413839891451"
"0.8351699338823801","0.7372043965804373","0.6671830622256649"
"0.8439070778426844","0.7814588782330719","0.6884009160716691"
"0.8365100035515568","0.7542857142857143","0.6471774193548386"
"0.8327176781002639","0.7705464560081171","0.6797350277139381"
"0.8203184230477635","0.7333811573409851","0.6770745428973277"
"0.8286740590348274","0.789268292682927","0.7073135409123824"
"0.8309837805062906","0.77498388136686","0.6940439784476482"
"0.8229842446709916","0.7725682295311407","0.6883285677151028"
"0.8385738718589658","0.7813561625220817","0.7072120559741657"
"0.8074484944532488","0.757017543859649","0.6800809921538851"
"0.8334652942728953","0.7848951048951048","0.7005009227524387"
"0.8414782397276925","0.7602548340225774","0.669059583632448"
"0.8553904222694032","0.7818959372772629","0.6900452488687783"
"0.8460291734197729","0.7628017754682257","0.6627342123525329"
"0.8175318619832141","0.7567027952082146","0.6888664648503195"
"0.8260607884441769","0.7603068072866729","0.6816960286652732"
"0.8415853511625105","0.7715126811594203","0.6902509255450433"
"0.8217499022036772","0.7422799422799422","0.6885286474446232"
"0.8074403982184963","0.7605274351339857","0.6789639924194567"
"0.8460119870908254","0.768389780154486","0.6735424724251541"
"0.8406263406263406","0.7602143335565974","0.6696245733788396"
"0.857673986290229","0.7758346581875993","0.701980198019802"
"0.8501571777855396","0.7766019304570299","0.6893520843797087"
"0.8462657613967023","0.7614354308819812","0.6721755621782715"
"0.8474532224532225","0.7739810621655002","0.6944042132982227"
"0.8428591103153834","0.7736949152542374","0.6842833425567237"
"0.8671651937457513","0.7677595628415301","0.7123066577000673"
"0.8599393438103115","0.7976727272727272","0.7053584255135756"
"0.8319160104986878","0.7690605289365939","0.6741110147441457"
"0.838893581081081","0.7602833638025593","0.673598949211909"
"0.8502487562189055","0.804400050575294","0.6894133513149022"
"0.8546377480387632","0.7760721247563354","0.7062039458046114"
"0.8420611646418098","0.7931086142322097","0.7063870352716873"
"0.8624740843123704","0.7805212620027435","0.7026881720430108"
"0.8580958999305073","0.8048167262141062","0.7012779552715656"
"0.8527719985313916","0.7774855339295109","0.68834963791132"
"0.8625797904371914","0.7811655731377846","0.6850580781414995"
"0.8627305359574206","0.7795076513639387","0.678921568627451"
"0.8467275974367054","0.7559952683084202","0.6688940092165899"
"0.8567069294342022","0.7824777549623546","0.6871657754010695"
"0.8524680324487832","0.7714022706351641","0.6963480285173869"
"0.8679029957203994","0.8161369902771731","0.7142638740253784"
"0.8063316944477755","0.7037926068170907","0.6524148851939825"
"0.8564195298372513","0.7831632653061225","0.6961659333752357"
"0.8573738306963854","0.7739463601532569","0.6907739938080495"
"0.8515689270184509","0.7755558315737175","0.6907016266084002"
"0.8641047062099695","0.8071919310042392","0.7126882361711644"
"0.8410300676161704","0.7771574413782101","0.6955820702999033"
"0.8568186975266621","0.795249288630459","0.7242680546519192"
"0.8471345168592875","0.7875833760903026","0.7152580126222001"
"0.8394437420986094","0.7809859154929577","0.7052770132822783"
"0.8431674842326559","0.784974859509021","0.6842027486330722"
"0.8522911051212938","0.7964831363505334","0.7065868263473054"
"0.8473754394472057","0.7660702451954936","0.6783391695847925"
"0.8442134617822284","0.765412329863891","0.6484106233659006"
"0.8446705311723648","0.7545357524012807","0.6805466854004343"
"0.840327787434815","0.7674631152892023","0.6637017658600392"
"0.8468208092485551","0.7516564417177914","0.667236328125"
"0.8371467025572006","0.7473400846045379","0.6366006256517206"
"0.8523036835248134","0.767706131078224","0.6875083500334002"
"0.8550825773435682","0.7823273179838207","0.7010157875413046"
"0.8304455445544555","0.7673254281949935","0.6698676356086167"
"0.8406755639541751","0.7799442896935933","0.6943933259722733"
"0.8501594048884167","0.7752057613168725","0.7008736311061893"
"0.8220677414583641","0.789537502165252","0.6747671121911705"
"0.8651934993569508","0.7720095422015222","0.6831298557158713"
"0.8398611799702528","0.7720500595947556","0.7006344933666603"
"0.8315734810455254","0.7913349379744493","0.6992831541218638"
"0.8273420479302833","0.7517090158648265","0.6733453769091805"
"0.8352248240195375","0.7488693801542963","0.6553221045320368"
"0.8293455313159745","0.772211720226843","0.6863905325443787"
"0.8532656943563728","0.7756186215573885","0.6912381951731376"
"0.8324668790877076","0.7626483447845097","0.6614140576404727"
"0.8563975155279504","0.774445564516129","0.672483639763166"
"0.8344658088766806","0.7480027081922817","0.668824531516184"
"0.8523878437047756","0.7785126197867458","0.68924234650248"
"0.8575262259087583","0.7857693295658875","0.6850649350649349"
"0.8321831869510665","0.7650787900742618","0.6973706246859822"
"0.8200765631646108","0.7750167897918067","0.6976317238847072"
"0.8441623517621514","0.7621435286743967","0.6745051930237116"
"0.8343457560334919","0.7457793804294378","0.6670687575392039"
"0.848948871009603","0.7612370101414799","0.660579849431363"
"0.8505365355135411","0.7646695491043854","0.6575781876503608"
"0.8515480285789891","0.7543750775722974","0.6549818411495342"
"0.8346129902469391","0.7608616283315077","0.6745704009591049"
"0.8462704669496665","0.8006884681583477","0.6956352299298519"
"0.8411990776325904","0.7752692931975801","0.6793713163064834"
"0.8356679908007526","0.7535355977275475","0.6656832506369854"
"0.8409143384899561","0.7476736637091539","0.6388415672913118"
"0.8209298214601379","0.7579924372636646","0.6849840255591054"
"0.8538697960324113","0.769777020309615","0.7055204791970211"
"0.8433964835763936","0.7754125204685728","0.6696547144754317"
"0.8449248120300752","0.7604449267498644","0.68"
"0.8267168936540135","0.7839142091152815","0.6882006460193806"
"0.8371242427706024","0.7738322862605846","0.7010570824524314"
"0.8303470174642776","0.7598675131106818","0.6944760820045557"
"0.8257209879950324","0.7825229960578186","0.687916441563119"
"0.855632708052648","0.7550976138828633","0.6744333291123211"
"0.8290238068117098","0.743553680262541","0.6621679827709979"
"0.8324111643919833","0.7945361411496871","0.677424666556891"
"0.8274948483956432","0.7546811397557666","0.6621282694374776"
"0.8349928876244667","0.7795674183156928","0.6774028629856851"
"0.8402211108186365","0.7668200472578037","0.6740491092922485"
"0.8230161537554533","0.7653075925659127","0.6801857585139318"
"0.8315789473684211","0.768363136176066","0.7057665260196905"
"0.8524715800229913","0.7807850361343347","0.709901254336803"
"0.8481252367125363","0.79557384026103","0.7105751391465678"
"0.8460837887067394","0.7934122161816438","0.6973468719292499"
"0.8409055906360695","0.7677011147936125","0.6775464265616207"
"0.8623746548466793","0.8058201058201058","0.6629152296242512"
"0.8177352980220364","0.7745448358005784","0.6813304721030042"
"0.8200429491768074","0.7716082659478887","0.6686611817501871"
"0.8516633124186102","0.7859802285274103","0.693934760448522"
"0.8522446607583902","0.7619314205738278","0.6811594202898551"
"0.8517042939353697","0.7703022705112132","0.6785589366911507"
"0.8341475329750855","0.7456571223193961","0.652704535181558"
"0.8472510732585514","0.771981320880587","0.6639916259595254"
"0.8385665150338399","0.7726557773744708","0.656411730879816"
"0.8394976379767255","0.7749200611705825","0.7067627494456763"
"0.8515654709088605","0.7452671938653247","0.6478565861262665"
"0.8532331634022001","0.8067271055051899","0.6761661916904154"
"0.8414790996784566","0.7732443500682542","0.6884100174723354"
"0.8547868922681516","0.7638418079096045","0.6652844369573668"
"0.8441007732601646","0.7958867446119171","0.680893300248139"
"0.8586267788511479","0.7582324198002975","0.6733855916386711"
"0.8470588235294119","0.7786491272451304","0.6596071733561059"
"0.8472140762463343","0.7532729103726081","0.6823489592147572"
"0.8467346668432905","0.7754215636177824","0.6839478344872002"
"0.8575595527467186","0.7895357058684894","0.6898041474654378"
"0.848780487804878","0.7675103001765745","0.6824577025823687"
"0.856675392670157","0.7647796114476708","0.6550377505857851"
"0.8550201655699426","0.7498168881448154","0.6516853932584269"
"0.844175145764262","0.7508263141059816","0.6598304621274269"
"0.8677146311970979","0.7854587420657819","0.6889177864470454"
"0.8539931406173444","0.7872062663185377","0.7024901703800787"
"0.8516720604099245","0.7867740568037305","0.6729083073264972"
"0.8134734709383309","0.7439395946482978","0.6405490420360308"
"0.867104183757178","0.7964111360337776","0.7041713281125139"
"0.8614816917399943","0.7995147103427359","0.7191077194012329"
"0.8481428008925056","0.7792633703329971","0.6844514601420679"
"0.8267403696666091","0.7495843032923177","0.6732630673263067"
"0.8550468686319794","0.7740404745289602","0.6839782756279701"
"0.8544572468162523","0.7860828541943095","0.7024215246636771"
"0.8447129909365559","0.7592005513439007","0.6798196166854567"
"0.8466704610130904","0.7531575448703746","0.6482504604051567"
"0.8531484690930099","0.751671766972685","0.6707717569786535"
"0.8383262583383869","0.7676684506655688","0.6651940675291891"
"0.8468912626677623","0.7765674814027631","0.6530612244897959"
"0.8600400600901352","0.7679488959866685","0.6896828582898434"
"0.8547922665569724","0.78205791106515","0.650412208384494"
"0.8277785525031376","0.7993501218521527","0.6994240460763139"
"0.8498362700764074","0.793775410065891","0.6944649446494465"
"0.8440699935191186","0.7640304476841697","0.6876362503892869"
"0.8470042007517133","0.7781215196139092","0.693697421045373"
"0.8450590762620838","0.7707623788315432","0.6726854891661196"
"0.8516746411483254","0.7733370992797628","0.6951461446898558"
"0.8452456518979307","0.7594936708860759","0.6429534726904922"
"0.8518903919528269","0.7624007290717354","0.6918676946033325"
"0.8731137645978218","0.8010766470135862","0.7151136870263041"
"0.8633674018289403","0.7941014332965822","0.6963715529753265"
"0.8484273747431642","0.7804145389005707","0.6858230256898192"
"0.8160696999031946","0.740979381443299","0.6235066193090086"
"0.8374750071408169","0.7643577027675572","0.6626249385548092"
"0.8419278064260214","0.7723282219360881","0.6929053623742197"
"0.8528748590755355","0.776165483173819","0.6918553366656865"
"0.8439716312056738","0.7545735997748382","0.6961325966850829"
"0.8623001547189272","0.7735800565407349","0.688759926695174"
"0.8391380945927632","0.7574782888388549","0.6900503559645772"
"0.8500768049155146","0.7735454164922563","0.6674229532993005"
"0.8523574947220268","0.781446540880503","0.7001060766782846"
"0.8485370051635113","0.7577639751552795","0.6638433033350979"
"0.8497580850522026","0.7666460778258184","0.6884308710696554"
"0.8555070883315158","0.7812068171349609","0.697524219590958"
"0.848851269649335","0.7793182188876203","0.6921776548332566"
"0.8599824612686349","0.7842075256556442","0.6988283942108892"
"0.8374237288135592","0.7873799725651578","0.667928373853545"
"0.8339524935269617","0.7690872751499","0.700109950522265"
"0.8537390894078791","0.7623591782637508","0.6861313868613138"
"0.8657071173907301","0.7926920208799404","0.696528555431131"
"0.8602860286028602","0.7795438838977194","0.6954038618438945"
"0.8539871343609662","0.7677436440677966","0.6687784051783501"
"0.8468339307048983","0.7542014266715028","0.6586345381526105"
"0.856663872590109","0.7845744680851063","0.6932493878978664"
"0.8557161629434955","0.7799767171129219","0.7090958754438678"
"0.844027877913963","0.7523351259552787","0.6982803543512246"
"0.8510741594853745","0.7644787644787645","0.6704144332592494"
"0.8373085613858899","0.7621019932694796","0.6808240887480191"
"0.8423580261736102","0.7566450902079603","0.6834359111586834"
"0.8492359523523042","0.7630564784053155","0.6849465313956677"
"0.8507614213197969","0.749639344262295","0.6900774806298426"
"0.8436730674544558","0.7624281150159744","0.6689622789168884"
"0.8448464912280702","0.7507423034849195","0.6699714586149916"
"0.8383397731521876","0.7699706118087096","0.6732875711990653"
"0.8272266904974681","0.7989356394478629","0.6973916454206707"
"0.8413249211356466","0.7736257394315393","0.6619798593957819"
"0.8450886501876537","0.7543338286280337","0.669000152183838"
"0.8248237923328177","0.7810179315341425","0.6826630618452181"
"0.8575615474794841","0.780403953588311","0.7039218986702576"
"0.8476872964169382","0.7716855236437481","0.6859589546729662"
"0.8226933554423783","0.752734599884859","0.6771220695230397"
"0.8523184829198597","0.7679894179894179","0.6896332751230355"
"0.8712451407704088","0.7784597568037059","0.6764452113891286"
"0.8354280644684311","0.7571669477234402","0.6781235485369251"
"0.841644204851752","0.7428381079280479","0.6621114683815649"
"0.8425184487360654","0.7841874084919472","0.679474985733308"
"0.8585066484827821","0.7650112866817156","0.6804901036757776"
"0.8215428368290081","0.7663609513446292","0.6328106716592558"
"0.8317196864914707","0.773685690188361","0.648838571149717"
"0.8497809842824015","0.7531720078482668","0.6617481956696071"
"0.858658058565829","0.7499169711059448","0.6522043386983905"
"0.8506592292089249","0.7805945180800411","0.6690284779942772"
"0.8583825479088828","0.7877520905066404","0.6786872486703852"
"0.8464332413191922","0.7673068334077714","0.6741038771031455"
"0.8610280932456664","0.8012331656660716","0.7212260536398467"
"0.8468683019766611","0.7649002570064865","0.6889564336372846"
"0.8454557075290811","0.7866302864938609","0.69671586225236"
"0.8417542959733264","0.7837150127226463","0.6897891231964485"
"0.8280132085855807","0.7500974658869395","0.6641954507160911"
"0.8473871733966747","0.7855809277610224","0.697773820124666"
"0.8369765604424546","0.7481426448736999","0.6467027715833068"
"0.8398858592263792","0.7839343301084725","0.6831976313841599"
"0.8438412142440165","0.7812235214370445","0.7110055423594616"
"0.8394352117955766","0.7875618374558303","0.6945751019128253"
"0.8502869066249348","0.7593690851735015","0.6678195252318818"
"0.8252140951846132","0.7917746673578709","0.6884003032600455"
"0.8532942898975109","0.7722482435597189","0.6790123456790124"
"0.8477141992128369","0.7692978630614915","0.6692237442922374"
"0.8593372833004168","0.7555508564178474","0.6569495054659031"
"0.8516397709526289","0.7440622844190402","0.6372247823860726"
"0.8469925272571358","0.7610010674890286","0.6838690651725154"
"0.8347437330352866","0.7768227622999407","0.6759635870617858"
"0.836306810782654","0.7334326135517497","0.6247948679695658"
"0.8562457337883959","0.7803808740923414","0.6887841023913776"
"0.8596514566981508","0.7721854304635763","0.6880050705118048"
"0.8476634194550333","0.770037246516761","0.6678584197354308"
"0.8512059369202225","0.7681818181818181","0.6874146045240626"
"0.8339288077279343","0.7552752849866603","0.6604531576410092"
"0.8497794288367773","0.7627541919372102","0.6979439768179937"
"0.8484454273448679","0.7665271966527197","0.6759288167343116"
"0.8616687150075106","0.7837456736315856","0.681366047745358"
"0.8540758134854075","0.746519982038617","0.6789180794616281"
"0.8425791076393486","0.7653681894655106","0.6733420879842416"
"0.8545918367346937","0.7660170381608123","0.6777920410783055"
"0.8399592252803263","0.7963107706737532","0.7051151416343998"
"0.8551575650812292","0.7545739958861103","0.6738120757413363"
"0.8605932700199321","0.7828515909642945","0.6967041106036291"
"0.8571780653111521","0.7654257374726265","0.6625467088243748"
"0.8573530957636918","0.7571573604060914","0.6457387469191854"
"0.8224867724867725","0.7664102144377148","0.6771354616048317"
"0.8445135495335406","0.734347442680776","0.6588452412338518"
"0.8561920608509627","0.7712327175554782","0.6774147524611215"
"0.8365634060735541","0.7573073516386183","0.6690444903322696"
"0.8603147492985238","0.7901146978834102","0.6906305244549205"
"0.8533476452435262","0.7723029045643154","0.6833742833742834"
"0.836472602739726","0.746268656716418","0.6814260133485268"
"0.8387096774193548","0.7627568852229833","0.6723082463089665"
"0.8402787654672166","0.7947204968944099","0.6761353018127452"
"0.8303419363290973","0.771608643457383","0.6902958410747463"
"0.8417319343874686","0.7507895924199127","0.6797316384180792"
"0.8418412511065211","0.7868799999999999","0.6906211936662606"
"0.8363691560412873","0.7790454764582998","0.6664384733869587"
"0.8595194085027728","0.7779930259589307","0.6928376862682262"
"0.8368839427662957","0.7661566156615661","0.689558295614172"
"0.8683892779521856","0.7793709528214616","0.682672837720567"
"0.8156017123830666","0.7502265176683781","0.622143332593743"
"0.8291558628637279","0.7543323139653415","0.6659368728334245"
"0.8524209167204648","0.7669317247052372","0.7004494033782737"
"0.8302257114818449","0.7516124408771678","0.5855754013113271"
"0.8508009632499214","0.7487517263359185","0.646792653713069"
"0.832586395777313","0.7494289629968022","0.6511445389143231"
"0.8569198171071707","0.7665699860350198","0.658946787979046"
"0.8579275905118601","0.7775522388059701","0.6604551703070107"
"0.8495301840648732","0.7866559052999732","0.6830935764136162"
"0.8614325068870523","0.7966308925417743","0.7149407114624506"
"0.8430188679245283","0.7689701077090646","0.6705310982296726"
"0.8431253785584495","0.7637462235649547","0.6540433925049309"
"0.854445720117362","0.7755102040816326","0.6845854051874748"
"0.8238023431156478","0.7612279704377487","0.6828887849009514"
"0.868098531731586","0.794142359860761","0.6684164479440069"
"0.8390055515327057","0.7798165137614678","0.6880024737167594"
"0.859877300613497","0.7773339990014978","0.6595979069126962"
"0.8526765963722164","0.7690202517788725","0.6746815000897183"
"0.8534061511928714","0.7754761573752259","0.6914985342300396"
"0.8505535055350553","0.7728225919194743","0.6641832743527658"
"0.8442224996532112","0.7532649908720684","0.6679310344827587"
"0.8370842179759377","0.7745504840940527","0.6772172766238047"
"0.8810464640959258","0.8026782197715635","0.702258064516129"
"0.8340070742799393","0.7916989313922875","0.7032500408296586"
"0.8555871798044795","0.7895889078083191","0.6732200533632916"
"0.8461173118024222","0.758445945945946","0.6769095697980685"
"0.8492208982584785","0.7787810383747178","0.6965376782077394"
"0.8698030634573304","0.787086856264412","0.7243884358784285"
"0.8629925676623194","0.8016217781639154","0.6975800156128025"
"0.8539424555238304","0.7594966761633429","0.6615763546798029"
"0.8538197845249754","0.7671957671957673","0.6434943094432483"
"0.829064296915839","0.750428025813249","0.652959708174432"
"0.8356047700170358","0.7541425299744039","0.6541630148992112"
"0.8608369247879882","0.8029110351997623","0.706179441473559"
"0.8495818535914766","0.7695371997656708","0.6934144991698948"
"0.8414691943127962","0.7544544788869905","0.6692467996427507"
"0.8383760020687872","0.7510482180293502","0.6734430461439174"
"0.849597423510467","0.7553484431264562","0.6657371022943338"
"0.8594017094017095","0.76539026318762","0.6696132596685083"
"0.8393867924528302","0.7454350161117079","0.6657014622846388"
"0.8596118053709119","0.768404691253356","0.6868229587712207"
"0.8445103857566766","0.7653471026965003","0.6724328303275673"
"0.8509998496466697","0.7889696169088507","0.6999157540016849"
"0.841633019291162","0.7521789657176061","0.6602122509774716"
"0.8359819215629101","0.7716312056737588","0.6365265883290181"
"0.8368531554896876","0.7513917175831637","0.7003514938488575"
"0.8639131585914747","0.7828612926652142","0.7079037800687286"
"0.8543662362904346","0.7918157104020604","0.6922841396203306"
"0.8503126149319602","0.7696509142721444","0.6574311097726245"
"0.8525463219793632","0.7707641196013288","0.6515401191532514"
"0.855659980361902","0.7941088067327923","0.6887227612533801"
"0.8397837222538419","0.7642093415869443","0.6561250454380226"
"0.8386675375571522","0.7543167242229897","0.6338482430826685"
"0.8637592570824026","0.7732522796352583","0.6906045983536758"
"0.8576488216864188","0.798315903843542","0.7153094462540717"
"0.8457407859409324","0.7538368580060423","0.6302480142648728"
"0.8476278578036209","0.7843548628802637","0.6940998487140695"
"0.8444507521998297","0.7966244725738396","0.7081091111523473"
"0.8291394411233144","0.7695718915231109","0.696376811594203"
"0.8848901825879862","0.8106368089573127","0.7286752707313455"
"0.8668869795109054","0.7868334052033922","0.7195784094538485"
"0.8661290322580646","0.7846763540290621","0.6873143826898599"
"0.8712845358124919","0.8034000548395942","0.7035500230520978"
"0.8596604898276532","0.7829044661342798","0.7153484135418249"
"0.8408113091579595","0.78137421919364","0.7129827285076655"
"0.8584528915840852","0.7978014656895404","0.7224572950948126"
"0.8712824173209613","0.7891203703703704","0.6801762114537445"
"0.8693910256410257","0.7858113207547169","0.718420662015734"
"0.8582405935347112","0.7568783068783069","0.6762728146013449"
"0.847592915939137","0.7430389817024663","0.6800822561692128"
"0.8614178838617741","0.7391722810394611","0.648747869411302"
"0.8747645951035782","0.77863474156786","0.6726045108461427"
"0.8547921478060045","0.76874625074985","0.7036656389174375"
"0.8518228759192614","0.7794716981132076","0.6697768762677485"
"0.8642917726887193","0.7891294869931695","0.7044405538755371"
"0.8433048433048433","0.8030838419530999","0.71706910907577"
"0.8604819277108434","0.7770407472586977","0.7008825526137136"
"0.8502072232089993","0.7831844779796735","0.6999249812453113"
"0.8579817647967858","0.7888638073739653","0.7042465238632094"
"0.8552210828095711","0.7739709144688192","0.7046319380658705"
"0.8448275862068966","0.7644042968750001","0.673036093418259"
"0.8456375838926175","0.7591706539074959","0.6838222679704925"
"0.8501711054902544","0.7922038060159607","0.7076231504026972"
"0.85261327605605","0.7492975335622852","0.6776190476190476"
"0.8567160994345461","0.7725779036827196","0.6870047543581616"
"0.8649551241911919","0.771510320866544","0.6781356759394827"
"0.8674133889033603","0.7986045887562054","0.7063362516693872"
"0.8562367864693445","0.805749372034608","0.6961602671118531"
"0.8551285595797623","0.7985517740767559","0.676010781671159"
"0.8615908538068597","0.7930497303774714","0.6770993433002656"
"0.8669904062537014","0.8005407398304043","0.7083223249669749"
"0.828836545324768","0.7310366136258304","0.633616298811545"
"0.8646182745203274","0.78247523371006","0.6917830464436506"
"0.8557933579335794","0.765149136577708","0.6792384406165004"
"0.8595472324285883","0.7697278488877843","0.6962418762362249"
"0.8488160291438981","0.7749012724879333","0.6829084041548631"
"0.8264518294729775","0.752876357154432","0.6658243840808591"
"0.843844754396604","0.7748592870544091","0.6719658782473826"
"0.8517090722179388","0.7812128418549346","0.6999704404374816"
"0.8530120481927711","0.7965827073206657","0.6911234850966264"
"0.8458136342839713","0.8041617721094144","0.7015027322404371"
"0.8406384595895616","0.7612127986586558","0.6564573762123531"
"0.8647272727272727","0.7738707059778199","0.6839741790625877"
"0.857273559011894","0.7987507807620237","0.7041822981797972"
"0.8544845552660959","0.7655349920333373","0.6802135864728568"
"0.860388420666911","0.7873187010653319","0.6958882854926299"
"0.8620889973277566","0.7937460913070669","0.7120980091883615"
"0.8649396378269618","0.7969568470940384","0.6700266824785057"
"0.8451757666417352","0.7738351254480287","0.7095704096865153"
"0.8682420749279539","0.7852023121387284","0.6964310321069312"
"0.8356020942408378","0.7593905566450444","0.6888467505602482"
"0.8550939663699307","0.7955486542443064","0.6767847105115233"
"0.8473591104371999","0.7693953986088817","0.655013799448022"
"0.8393977415307403","0.7923513594263518","0.6900702106318956"
"0.8385158087274627","0.760849492151431","0.6687367216865501"
"0.8565459610027855","0.7895633932083387","0.6997208560414728"
"0.8193420816106417","0.7556561085972852","0.6579363287423798"
"0.8530577576443941","0.7668949091991665","0.6864966949952787"
"0.8419898588461012","0.7747747747747746","0.6753660089115213"
"0.8445006321112516","0.7592715671939386","0.685722882503385"
"0.8371950283872949","0.7604251839738349","0.691395793499044"
"0.8432642487046632","0.7771092049673538","0.689655172413793"
"0.8544914625092799","0.7749934054339224","0.6763473053892216"
"0.851006711409396","0.7886275677284906","0.68625"
"0.8585022755482004","0.771402958314657","0.6667560321715819"
"0.845499645641389","0.7802775158291796","0.6704915490773763"
"0.8373091000883504","0.7698810269254852","0.6804358432265408"
"0.8465909090909091","0.7651933701657457","0.673406862745098"
"0.8605374823196605","0.7785935715451135","0.7138369483919221"
"0.8629043957638184","0.7932278656674993","0.7077078765390454"
"0.8648883734415772","0.8144944825529375","0.6912306558585114"
"0.8513195098963242","0.7787064420727788","0.687041902917992"
"0.8602175422355937","0.7739097649868041","0.6919972164231037"
"0.8558417902680199","0.8007073867501021","0.6990907778900274"
"0.854542696799636","0.8123348017621145","0.714676390154968"
"0.8526285550129273","0.7712895377128954","0.6933240611961057"
"0.8660842352327552","0.7989501312335958","0.6917472118959107"
"0.8477703741670938","0.7530974581683486","0.6804851834791954"
"0.8635701998147413","0.7910365686004949","0.693164809579245"
"0.8675928551176637","0.8170310701956272","0.7074875207986688"
"0.8558781408670746","0.761528326745718","0.6687266222149942"
"0.851520572450805","0.7741379310344828","0.691786870768325"
"0.8623525205577405","0.7819248533266758","0.6850629874025195"
"0.8523652994140345","0.7719694829047753","0.6886359775777136"
"0.8592411260709915","0.782671272308578","0.7086016179626878"
"0.859665646338592","0.790241448692153","0.7022326064382138"
"0.8697498820198207","0.7956430251268721","0.6826146579308243"
"0.8643356643356642","0.7853127616313837","0.6889758076198755"
"0.851662799690642","0.7864502029347488","0.6917234664070107"
"0.8603670634920635","0.7946266489168582","0.6797523780764004"
"0.8493406154256029","0.776363392737505","0.6760469011725293"
"0.8225289622874045","0.7557462457860864","0.6930247508839602"
"0.8577771973357712","0.7788222283660492","0.6902024291497976"
"0.8412408759124086","0.7850368809272918","0.7010014306151645"
"0.8678585831428957","0.7958246346555323","0.6981967731730465"
"0.8318584070796459","0.7859358841778697","0.6849218887133579"
"0.8253689902089726","0.7426426426426427","0.6597316448062717"
"0.8629958555358199","0.7807648617947747","0.6822122571001493"
"0.8404891304347826","0.7750570342205324","0.6790890269151139"
"0.8524031007751938","0.800924397490921","0.6952029520295202"
"0.8603170929290592","0.771072681098077","0.6922861934041363"
"0.8502252252252253","0.789256828933313","0.7134585014914897"
"0.8404080289568937","0.7864092664092663","0.6625347296430861"
"0.8358161648177497","0.7704408267788548","0.7015064162172215"
"0.8405797101449276","0.7865812542144301","0.7026439695762404"
"0.8654613759098381","0.7643873567560759","0.674320592937073"
"0.8408335850196315","0.7663934426229508","0.6855652173913044"
