"0.7965717981888745","0.7007376185458378","0.5884"
"0.7942821628340585","0.6904607397793641","0.6080153281175156"
"0.7953619554998432","0.6959199384141648","0.6042699199390011"
"0.7961196974679381","0.6880875064091608","0.5906512810483082"
"0.7985228951255539","0.701215049041136","0.5623273798563799"
"0.8097771387491014","0.7038290293855743","0.6196581196581197"
"0.8073878627968338","0.6937043950449686","0.5992738390980318"
"0.7987228947718504","0.6685560436446082","0.5899843505477308"
"0.8033869602032176","0.6980224478888296","0.5953293830602997"
"0.8138528138528138","0.6993495161034428","0.6138175376439327"
"0.7891156462585034","0.6623924413700016","0.5824809373256463"
"0.8064162325198794","0.674034735180135","0.5823519922568156"
"0.7893559928443649","0.6653526678868084","0.5875087719298244"
"0.7942553855760226","0.6608130081300813","0.5865008880994671"
"0.8066666666666666","0.6652159357214597","0.6007029876977152"
"0.8110506727741196","0.7030728122912492","0.6228199822642625"
"0.8012968967114404","0.6738268341044282","0.604228551459025"
"0.7986083232972033","0.661401776900296","0.5794126934006947"
"0.7992709599027947","0.6830271858927259","0.6001463057790783"
"0.8127853881278538","0.6799589503005425","0.5800130633572828"
"0.8128435782108945","0.6964370546318289","0.6140731108221354"
"0.8033962816571513","0.6950922380786635","0.6132150213912216"
"0.7997204751921733","0.6796116504854369","0.6213441194772868"
"0.8031204548459605","0.6801705756929637","0.5911484274939519"
"0.8206696223818988","0.6981270657363202","0.626441320486495"
"0.8078490566037735","0.661207778915046","0.6099454815793821"
"0.7947770386794777","0.6914542728635681","0.6129747712780704"
"0.8002734419505526","0.6696832579185521","0.6143986910280884"
"0.7953104438329943","0.6636878165028298","0.6198950198438099"
"0.8203521336914353","0.7005850026591031","0.6362412090378573"
"0.8000510399387519","0.6815369117858684","0.6275439085586841"
"0.8135421930267812","0.6932839013261086","0.6051392439122831"
"0.8120849068889179","0.6812106314333999","0.6118403428877578"
"0.8084147257700977","0.6936086879116967","0.6303827751196173"
"0.8128133023597016","0.6817057196914568","0.6173684210526316"
"0.7970318638149281","0.6793748926670101","0.6014362657091562"
"0.8078597189404303","0.687077763403766","0.6055172413793104"
"0.8075718015665796","0.6663761801016703","0.5951990457730729"
"0.8071132445996073","0.6560568196764435","0.5964583089011375"
"0.7894193015085762","0.6483335445444176","0.585402370555209"
"0.7984459618554274","0.6633821185335459","0.5914591737376547"
"0.8098987626546681","0.6957415565345081","0.630747675455356"
"0.8243021346469621","0.7154612386314422","0.6361221779548473"
"0.7985621854780733","0.6617852161785216","0.6060698490163186"
"0.8069425229530877","0.6724164484829817","0.6213411389036722"
"0.8044077134986225","0.6826409688761558","0.6206977288691173"
"0.8228805951006798","0.6772727272727272","0.5974520427588226"
"0.8095122543072069","0.6627771295215868","0.6190237797246558"
"0.8212530712530712","0.6872512362803039","0.6256195616257297"
"0.8040729551303569","0.6495402131075756","0.6157090142329996"
"0.8258228563356407","0.7135065768367019","0.6315482270538452"
"0.8223978919631093","0.7042459736456809","0.6182721501518079"
"0.8025559105431309","0.6627182991647684","0.5979105277256898"
"0.8045891008853971","0.6814683244523386","0.6146703806870938"
"0.8130140299951619","0.6859515967349278","0.6250477767868519"
"0.8032155797101448","0.6828996799777376","0.6112091192834849"
"0.8059173093943608","0.6712328767123288","0.6216400600354755"
"0.8189228529839884","0.7083403538331929","0.6257780476696524"
"0.8178789561354802","0.6909975669099757","0.63028921498789"
"0.7960912052117263","0.666777353478333","0.6070679844264749"
"0.8267491670633031","0.7015894955079475","0.6291875240662302"
"0.8186877562975982","0.671172587236718","0.6052967453733248"
"0.8058029301924734","0.6764555233054464","0.6191517271534762"
"0.8002694509936005","0.6631537346858122","0.587886279357231"
"0.7950017682423671","0.6509501357336762","0.5991313234542668"
"0.8009456264775414","0.6611364579012858","0.5967511371020142"
"0.8073661255149018","0.642199234802324","0.5979101642013842"
"0.797943057820143","0.6665690008789921","0.607307743041815"
"0.7950880674770529","0.668807473361553","0.5950547223348196"
"0.8044838373305526","0.6719681908548708","0.6024129049749221"
"0.8198725451944336","0.6812090994079152","0.6285947935123347"
"0.8209722039257015","0.7025649195475545","0.6438659651066188"
"0.8177652449770885","0.7102852656372678","0.6235635812602601"
"0.7986096912696791","0.6608362285851205","0.6103347416314592"
"0.8122819260293093","0.6619758759333716","0.6185414091470952"
"0.8151914496212513","0.6491425710351734","0.5970961887477314"
"0.8276111311890133","0.7204835460040295","0.6332378223495702"
"0.8179118660173418","0.6942762795817282","0.6411075612353567"
"0.8144297082228118","0.6703296703296704","0.6217328439550661"
"0.8117222932899173","0.6786753498683663","0.6260587942202293"
"0.8106702837119928","0.66030230708035","0.6035684745362164"
"0.8213108268495318","0.6893859780813691","0.6270254629629629"
"0.8084070796460178","0.6770792659117533","0.6237987898920393"
"0.8116896918172158","0.6627440492110189","0.6190696598009721"
"0.8137432188065099","0.6579758901037287","0.61058648111332"
"0.811577220529646","0.6782757636311733","0.6169415292353823"
"0.8153945111492281","0.6777381279165522","0.637090909090909"
"0.8216980002394922","0.6842105263157895","0.6368620835090679"
"0.8251052430156908","0.6623337363966143","0.6095751854349292"
"0.8232195764292768","0.68384697130712","0.6398427563880217"
"0.8169546436285097","0.6837081378417732","0.6282033328665454"
"0.8249226214506794","0.6957355055103018","0.6142222222222223"
"0.8094128094128094","0.6736498435586995","0.6387806555122623"
"0.7960119184047674","0.6491228070175439","0.5946632782719187"
"0.7956754395544393","0.6558573165788407","0.6125703564727956"
"0.8239157513305401","0.7013156180799791","0.6296740172579098"
"0.8157340201357995","0.6707441386340468","0.6261670608738951"
"0.8219780219780219","0.7075840500390931","0.6282595512431777"
"0.8220917694980233","0.6904694967669384","0.6213738540750973"
"0.8302606484424665","0.6970059880239521","0.6342662116040955"
"0.8168071107006811","0.7053011082921617","0.6316579144786196"
"0.8023964683624133","0.663171036204744","0.5981435363368802"
"0.8135930047694755","0.6806752449533703","0.6160883632712261"
"0.8154308154308154","0.705594785442694","0.6311647429171039"
"0.8065524302187735","0.6632261479423052","0.6137962332652599"
"0.8136902383806099","0.6808443104269163","0.5987744382842136"
"0.8243346007604563","0.6972997165448306","0.6182221605879906"
"0.8131073446327685","0.6880831778192482","0.6221945137157108"
"0.8066564484344207","0.6852331606217616","0.6391563502980285"
"0.8229190164674035","0.7009958071278827","0.6293913904007917"
"0.8260652878146025","0.7020725388601036","0.6349289847448711"
"0.8109315185027649","0.6858038837293451","0.6157220362461041"
"0.8083010903974674","0.6726100672061446","0.5941732685918732"
"0.817022263450835","0.6543765831691528","0.607091518926689"
"0.8077373974208676","0.659660921956004","0.599818394084836"
"0.8074198988195616","0.6775985189103412","0.6246555648736073"
"0.8052442850739577","0.6693329524353664","0.6168343308289825"
"0.8092473979183347","0.6688176999308597","0.6044317683194385"
"0.8089865001007455","0.6312925170068027","0.594022278592699"
"0.8202810018326208","0.667167092028224","0.6089185033316249"
"0.8010330578512397","0.6520155720205953","0.6053537709652338"
"0.8123070136744597","0.6575342465753423","0.61249401627573"
"0.8100832667959392","0.6872942725477288","0.618945868945869"
"0.8046893317702227","0.6738410596026491","0.611566265060241"
"0.8172600801697713","0.6936017650303364","0.6161866931479643"
"0.8165735567970204","0.7026437721449987","0.6179321486268174"
"0.801259700821055","0.6536367443808461","0.6121663861505169"
"0.807032967032967","0.6350936015646829","0.6047273578282237"
"0.7881858983639786","0.6828620231542988","0.5834592145015105"
"0.7935623645930052","0.6894597657725727","0.5669732107157138"
"0.7945312500000001","0.6770176289826945","0.5723494486853266"
"0.8182099721275938","0.7123917270638147","0.6257128890337298"
"0.7942671009771987","0.6503695281409893","0.590888030888031"
"0.8133757211821501","0.6934911242603551","0.6133407914976925"
"0.808797559800931","0.6973068859861313","0.6132996024575352"
"0.8064749241219831","0.6842340330504689","0.5758407687028141"
"0.8346012269938651","0.6758869512928443","0.6358352287086175"
"0.8133604152561499","0.6619385342789599","0.5961117548603063"
"0.8017317939609235","0.6667487988172971","0.6102518215518343"
"0.8012984001854857","0.6631393298059964","0.584602125825912"
"0.8108242923057737","0.6674132138857782","0.5912097603998236"
"0.8250460405156539","0.6951589500065953","0.6164181109767567"
"0.7955665024630542","0.6888478126925446","0.5915954156812806"
"0.8214971209213052","0.688126779744955","0.6030071221313638"
"0.7945205479452054","0.6695652173913044","0.586629910406616"
"0.814220439095063","0.6601298529216908","0.6174599134639858"
"0.8113045960605195","0.697559250088433","0.6215704824976348"
"0.7990879828326181","0.6945213060320974","0.5967170904409397"
"0.7956622395516022","0.6621883863263174","0.6033810143042911"
"0.8291189779079052","0.7141329258976318","0.6347038327526132"
"0.8237921234267154","0.6685089812837584","0.6194480634845434"
"0.8039172535211268","0.6749745676500507","0.5990487514863259"
"0.8140966451215759","0.66600790513834","0.5909890883491729"
"0.8128783709411117","0.6959247648902821","0.6243772832945865"
"0.8270698766881972","0.7061517325599146","0.624118129614438"
"0.8094365551992672","0.6585615936721839","0.6130912047702941"
"0.8121512709237445","0.6712391403749428","0.6152416356877323"
"0.8157177685357809","0.6683336310055366","0.6284070260448213"
"0.8000528262017961","0.6722193302099599","0.6189347241978821"
"0.8214704940774731","0.658241910845716","0.6274656679151062"
"0.8159846853314191","0.6711543970209108","0.6130845898287759"
"0.8131238264650656","0.6748732802317162","0.6137149672033393"
"0.8201202843083651","0.6688495311802352","0.5965182560468341"
"0.802133850630456","0.6523169728544009","0.593201133144476"
"0.8157774737802097","0.675035224798258","0.6044115704662527"
"0.8318407960199005","0.7077804583835947","0.631548480463097"
"0.8082351692666879","0.6984050265828903","0.6089850249584027"
"0.8143018654607123","0.7197082711752031","0.6260598719501644"
"0.7995927865037813","0.6590645535369154","0.6044226044226043"
"0.8171760324241428","0.6891673904950988","0.5991274842462433"
"0.8167843788948899","0.684161778326644","0.624111234002212"
"0.8232835820895522","0.6665111940298508","0.6010293130454241"
"0.8020745724698626","0.6779786056805607","0.6114649681528663"
"0.8130150610969026","0.7056157954361547","0.6229078736719547"
"0.8250196166349064","0.698844323589395","0.6348284960422164"
"0.8273240410091004","0.6607427055702919","0.614413732172157"
"0.8136353442475892","0.6745817593092283","0.6035078394897687"
"0.8196635806493676","0.6740245608580756","0.617824377457405"
"0.796758767268863","0.6696651674162918","0.5963825973602738"
"0.80682356657716","0.6817303978370027","0.6265632420452746"
"0.7975805317203545","0.6652406417112299","0.6046290424857323"
"0.8122137404580153","0.7048244855611275","0.6202918221920598"
"0.7998963193364437","0.6678299492385786","0.6102879507967569"
"0.808979000724113","0.6932957944747493","0.6238225463384989"
"0.8073513513513514","0.6581063553826201","0.6030797517811998"
"0.8088383838383839","0.6821201413427561","0.5993681360012036"
"0.808568598315998","0.6731100225076129","0.5994596900327029"
"0.8071379547014413","0.6824508078707406","0.5986689814814814"
"0.8077918875601034","0.6926138876603272","0.603824320286824"
"0.8068136801795854","0.6844064525024128","0.5848938826466916"
"0.8217386643798906","0.6556335231034026","0.6207451701931923"
"0.8213931990756026","0.701763907734057","0.6296055201145685"
"0.8211228460255697","0.697158873741878","0.6194451925666576"
"0.8070551781670838","0.6677316293929713","0.625901920019567"
"0.8109580747691842","0.7094915254237287","0.6349945660611706"
"0.8163029673247894","0.6910127613358675","0.6391237052030003"
"0.8075663877773736","0.6739159983689004","0.6141304347826085"
"0.8012295081967212","0.6808192554940948","0.6104265402843602"
"0.8051422793586595","0.6947176684881603","0.6120465197014406"
"0.8081868276043033","0.6747028862478779","0.5885214007782101"
"0.7994444444444444","0.6614950634696756","0.6252139189960069"
"0.8173190984578884","0.6424024024024024","0.6003210272873194"
"0.809591280653951","0.6565086037041902","0.6005124621476823"
"0.796347260445334","0.6793869252424148","0.6008266902863891"
"0.817783343769568","0.6903409090909091","0.6370661795700435"
"0.8068775790921596","0.6874890943988833","0.6031535269709544"
"0.8031178605026206","0.6737601442741208","0.6144121365360304"
"0.802751686731049","0.7105551211884283","0.6258461538461538"
"0.8048114828666734","0.6625445897740785","0.6035684745362164"
"0.806714439972514","0.679862510370985","0.6115056818181819"
"0.8078971294973374","0.6890145395799677","0.6044787186712145"
"0.8092074038917894","0.6829019507841388","0.6020521696130547"
"0.8098647573587908","0.6879521862220824","0.6146637265711137"
"0.8099573257467994","0.6748074394138643","0.6397023135414982"
"0.8079547104078966","0.6982461891493197","0.625794732061762"
"0.8209606986899564","0.6562209121936085","0.6168485866218864"
"0.8194328108172789","0.6804123711340206","0.6172091849608881"
"0.7943702290076335","0.674787845606351","0.5916010498687664"
"0.7912841229036601","0.6858178775624042","0.6063525123665712"
"0.8166150271107667","0.6888550333997422","0.6262208433873377"
"0.8080446456775824","0.658019887591872","0.6201174368138882"
"0.8131915816880018","0.7052631578947369","0.6331466395112016"
"0.8104905293831957","0.6582842174197774","0.6236359414905968"
"0.8069790141532454","0.6906680530283337","0.622319956019791"
"0.8217747949291574","0.6998582007247519","0.6325292289477579"
"0.8227904890085241","0.69671463480858","0.6190728476821192"
"0.814734853596006","0.6918216284527893","0.6410587475790833"
"0.82555910543131","0.6641334875268462","0.6413849958779885"
"0.8106591865357643","0.6738738738738739","0.6159776684833178"
"0.8113613541816095","0.6770777239274817","0.6208358570563295"
"0.8214242534155484","0.7275617863853159","0.6364998501648187"
"0.7983904537255445","0.6785206258890469","0.6049073610415624"
"0.8011075219197046","0.6716791979949875","0.6099713740458014"
"0.811597605352741","0.6769603390856798","0.6128533258332163"
"0.8240247678018576","0.6881876085697741","0.6197991391678623"
"0.8009276211399974","0.7046792686705919","0.6154763679737588"
"0.7964882331422998","0.6788399570354456","0.5990593768371546"
"0.823291462635725","0.709404990403071","0.6295954671234681"
"0.8012820512820512","0.6611889801836637","0.6010977599762646"
"0.8048079435589234","0.670576455442712","0.5918517429033682"
"0.8164669895488146","0.6857483601669647","0.6279872543813063"
"0.8179696616102684","0.69316812940974","0.6210320445313675"
"0.8271493212669683","0.7072633895818049","0.6429408318687757"
"0.8187996774565142","0.6516070345664038","0.6319503589244433"
"0.8009074214108243","0.6553344389165285","0.6040755094386798"
"0.8157721796276013","0.7098886705959399","0.617570706380653"
"0.8045274476513866","0.71814955329825","0.6165352189284743"
"0.8268419746961053","0.6910593998775261","0.625365283459965"
"0.804384746024394","0.6748041537620696","0.5982603092783505"
"0.7963337377004988","0.6576991150442477","0.6162924110801509"
"0.796207104154124","0.6745604592752062","0.604099935938501"
"0.8125638406537283","0.6790104247704994","0.604369274136716"
"0.8039323981000773","0.6846298031865041","0.6055234425176621"
"0.7993083858219092","0.6533090467516697","0.602004008016032"
"0.7917267917267917","0.6513677811550153","0.5974304068522484"
"0.8193729527374825","0.7048160173160174","0.6268278965129358"
"0.799359813764004","0.7046453832919135","0.610231873389768"
"0.8158240707541532","0.6829876812724155","0.6349955739156092"
"0.8168229034709906","0.7023914968999114","0.6295814920717443"
"0.8008766437069504","0.6773049645390071","0.6075061381971238"
"0.7955146780899585","0.6709449703192684","0.5714285714285714"
"0.8101859607974534","0.692101020956475","0.6077602766039186"
"0.8178449258836945","0.6712540856700498","0.6236527388158867"
"0.8153274381648086","0.677786688051323","0.604426433915212"
"0.7976660374120474","0.6866642573183953","0.5982699658016496"
"0.8105123674911661","0.6989187690601608","0.6375203031943694"
"0.8194784613168131","0.6963081861958267","0.6223503476343903"
"0.795588726746129","0.6712345832814252","0.5893877551020408"
"0.7988765417022835","0.6643587726199843","0.6167728237791932"
"0.8026361429066944","0.6973264995151682","0.600357355568791"
"0.8164092175234238","0.6892929292929293","0.5956226415094339"
"0.80138390568939","0.6855902487894473","0.6188078609712523"
"0.8056004308023694","0.6766456880421841","0.6031371226176422"
"0.8166806605093759","0.6624134159679184","0.6273932253313697"
"0.7949915110356536","0.6783422459893048","0.5918367346938774"
"0.8155611530926392","0.6948658109684948","0.6016207455429498"
"0.8082364476817482","0.6581181770923584","0.6031081888822475"
"0.8014568158168573","0.6668548842461886","0.606963861777895"
"0.8195702121908366","0.6802131912058628","0.6193716519472998"
"0.8070925016022219","0.6710228030404053","0.6073643922396726"
"0.8012129380053908","0.6785446923192094","0.6198615623675661"
"0.8170802077322562","0.7125850340136055","0.6472992700729927"
"0.7983805668016194","0.6748728048580338","0.6104884461048844"
"0.787514605241195","0.669492962523317","0.5771407016220294"
"0.790811088295688","0.6667718523193435","0.6060606060606061"
"0.8287166454891995","0.715672280902084","0.645959318306762"
"0.7837771203155818","0.6662087912087912","0.576910131268933"
"0.8113127902068383","0.6891801075268817","0.6265201465201465"
"0.7982597486303578","0.664765638923543","0.5785417901600474"
"0.7969104952294411","0.6754869533259832","0.6164404929028232"
"0.7845338322419707","0.665011380095179","0.5841966280723137"
"0.8139646102343376","0.6868113522537562","0.620053238686779"
"0.7878584605064564","0.6589446589446589","0.5924752475247526"
"0.8108667042677196","0.6640980735551664","0.5961382818822986"
"0.7886148007590132","0.7053227050655696","0.5656356371170638"
"0.7889638978573524","0.6730378202521351","0.5997697620874904"
"0.8122319081223192","0.7007174581482746","0.6457653567881968"
"0.8108591885441527","0.7045760430686407","0.6232917409387997"
"0.8189675309507124","0.6950537634408603","0.6149353358364622"
"0.8206896551724139","0.6679193713700033","0.61800346220427"
"0.7913924579546642","0.6688680491348566","0.6016049702303908"
"0.7956256213606022","0.6694380292532717","0.5605413105413105"
"0.7842367507171977","0.6679153399513018","0.6043956043956044"
"0.8138145315487573","0.6751870324189526","0.6181711948583115"
"0.819118488838008","0.7054487179487179","0.6254272043745728"
"0.8104113819344877","0.6753595913429224","0.6155772602053594"
"0.7899442788648439","0.6677140612725845","0.6121846484165324"
"0.8124844566028352","0.6646954464813719","0.6092524830109776"
"0.8147574819401444","0.7066725069353189","0.6243086469715365"
"0.8102945078270098","0.6712328767123288","0.6055159590951349"
"0.7678027997565429","0.703347799132052","0.5703012912482066"
"0.8171552138395002","0.6876727473742399","0.6157229246838922"
"0.794011357769747","0.6787781350482316","0.5999999999999999"
"0.8046702429788576","0.6725964682799215","0.6054238944539457"
"0.7651683726450081","0.6868277474668745","0.5898261429491307"
"0.8106831931533127","0.6771340913192565","0.6135746606334842"
"0.7854913037015014","0.6689398636081836","0.5865244789142026"
"0.809149040826365","0.6517454484716886","0.6115528882220554"
"0.8042559393674392","0.6519069767441861","0.6176836861768369"
"0.8172240973713817","0.6901124925991711","0.6237887596899224"
"0.807413990097753","0.6671318911374738","0.5946180555555556"
"0.822892707346773","0.6916397071343438","0.6329411764705882"
"0.7980613893376414","0.7070528967254407","0.5851244343891403"
"0.8153607447633824","0.6506224066390042","0.620786912988295"
"0.794598436389481","0.6705446853516658","0.6116562592922985"
"0.8089197489651488","0.6905243503967635","0.6205308775731311"
"0.7920398009950248","0.6599677014175489","0.6080562659846548"
"0.8051109616677875","0.6613572258171562","0.6121334100057504"
"0.8076750448833034","0.6770011273957158","0.6276232308443144"
"0.8004981320049814","0.6690799396681749","0.6015495296070835"
"0.7910705476073014","0.6687593423019432","0.6155408836973084"
"0.7936626746506986","0.684706597750076","0.6190221747261556"
"0.782316313823163","0.6592685214129416","0.6044362292051756"
"0.8042010502625656","0.6650049850448654","0.5949609035621198"
"0.8121247620442231","0.6625507144117129","0.616171003717472"
"0.8042474607571561","0.6766428106701367","0.5816946728637826"
"0.8023114355231143","0.6787193973634651","0.622263336416898"
"0.8173937360178971","0.6876178504085481","0.6260491140814424"
"0.8041261560350961","0.6543152694148525","0.613834788448623"
"0.8227861000713339","0.6953438903332546","0.6265772422416733"
"0.8109416606148633","0.670929241261722","0.6052855924978687"
"0.8091747458027904","0.7059468347492465","0.6192696192696193"
"0.8168044077134986","0.6830608240680184","0.6187069779997301"
"0.7939346811819595","0.6770293609671848","0.6015853149770547"
"0.8149418248622168","0.7023981508234614","0.6304652644996813"
"0.8118932038834951","0.6596724667349028","0.6093002051515842"
"0.8170026968023628","0.6798125101018264","0.6167414050822122"
"0.7996818543347347","0.694254835039818","0.6246726395589249"
"0.8277799055278949","0.6610671936758894","0.6431464785051614"
"0.8100085857966393","0.6675942674272993","0.6294594594594595"
"0.8038317367763431","0.6940757526707673","0.6161543959971407"
"0.8073418724415686","0.6968411126826969","0.6373056994818653"
"0.8138492871690427","0.6733322918294017","0.6140791954745444"
"0.8041208015805814","0.6989330446884181","0.6067142640133678"
"0.799434628975265","0.6383450314000739","0.618901995048784"
"0.8116770186335404","0.66821499668215","0.6185505517447063"
"0.8131396083385976","0.7111669546097062","0.6150627615062761"
"0.8006993006993007","0.6716517115320706","0.613025608599431"
"0.8198886443092063","0.6884306987399772","0.610052513128282"
"0.8194602812618775","0.6756422160321883","0.6215496707299987"
"0.7997457088366179","0.7015677491601344","0.5873473308631809"
"0.8176638176638177","0.6848912404467958","0.6184036064704322"
"0.8183031921349678","0.7052993805918789","0.6221374045801527"
"0.8014784785978298","0.676239127433384","0.597770154373928"
"0.8056674538130295","0.6806048161284302","0.609009628610729"
"0.8162846390694491","0.6909530850920823","0.6029575892857142"
"0.8044382801664356","0.668270591565242","0.6214247166756611"
"0.8040303407675762","0.6710239651416122","0.6327836573960127"
"0.7992996279273364","0.6592859119845004","0.6106907493287771"
"0.8180300500834725","0.7062758840395029","0.6346124677688457"
"0.8108484005563283","0.66206652512385","0.6023948418790298"
"0.7961569626114132","0.6650034650034651","0.5930232558139535"
"0.8148055520820308","0.6737330241801922","0.6326146722616119"
"0.8192799621032687","0.7014072732339418","0.6325886659093777"
"0.8219393780343788","0.6351304347826087","0.6355189111372856"
"0.8171363578920764","0.6815896188158962","0.6376523958037993"
"0.8013426914861154","0.6747608535688006","0.6106356968215159"
"0.7961517010596765","0.6695604991861095","0.6033014769765422"
"0.8081970987796454","0.6807126696832579","0.5959485354503148"
"0.8011785246617198","0.654587621394405","0.6215169311508184"
"0.8094791806132013","0.6753642832937987","0.6165099268547545"
"0.8100641341884558","0.6858278550680325","0.6307712316296007"
"0.805464337317746","0.6451080679755817","0.6086175942549372"
"0.8101265822784811","0.6710715311692043","0.6284712860609327"
"0.8065445026178011","0.7011437095972152","0.6072781162522641"
"0.8170761975676346","0.6764460743457242","0.6343272934798118"
"0.8262310606060607","0.6882140709561034","0.6300386526780785"
"0.8263059433011944","0.6836801040312093","0.639855399909625"
"0.8199155254063739","0.6993885308213518","0.6340937114673243"
"0.8193456614509246","0.6813840613746673","0.61569108182654"
"0.8018205461638492","0.6748313809016685","0.6138115990613476"
"0.8248443689869835","0.7085034013605442","0.6375260184359203"
"0.808230018464785","0.6477644492911669","0.614939024390244"
"0.7934044616876819","0.6848746758859118","0.6071055381400209"
"0.8023255813953488","0.6983880967141972","0.6208891595615103"
"0.8081941911042515","0.6947481627531815","0.613815318539728"
"0.825878812747914","0.6927006096556271","0.637213254035684"
"0.8058927840676579","0.7005813953488372","0.6270178419711131"
"0.8048619368476682","0.6949556918882072","0.6034452139939619"
"0.8198448704814868","0.6714896415652747","0.615765989092712"
"0.7811051246710937","0.6700445263319514","0.5975713075402429"
"0.7819015229927546","0.6841726618705035","0.6016312170158323"
"0.8020711541673627","0.6702368692070031","0.6136440391759541"
"0.7893549842129003","0.7124799715150436","0.602229054573405"
"0.7861149007124449","0.6635694928377855","0.6283558264402844"
"0.8102012046648724","0.7137197358767424","0.6329598250888221"
"0.8019161676646706","0.6785657873953561","0.606215282990542"
"0.8176072735336513","0.6748732802317161","0.6315789473684211"
"0.7747321991178324","0.6698582918422061","0.5987075928917608"
"0.7985357563080141","0.668986083499006","0.6165953334253762"
"0.8091145833333333","0.7019889687447768","0.6261311319257025"
"0.7617554858934169","0.6822791812649824","0.5746822908070638"
"0.826236366352906","0.6950072358900145","0.6490733876945886"
"0.8218826248876333","0.7091079309883642","0.6211849192100539"
"0.7959610027855154","0.6771630795897732","0.6106909370593513"
"0.8130791633571618","0.6839881045547034","0.6184915510372305"
"0.7940351771603366","0.6591514012838579","0.606351263771873"
"0.7923900613369373","0.6695464362850972","0.5977575332866153"
"0.784785748675975","0.652468218590061","0.5958935361216731"
"0.8052175819357666","0.6881230418684136","0.6356609458928337"
"0.7994978888508503","0.6862248696947133","0.6295163979988884"
"0.7919880904046556","0.6761246966585776","0.6216123499142368"
"0.8330370572952276","0.7189967487227125","0.6244700181708055"
"0.7605733498495841","0.6326390478370337","0.5767750961874781"
"0.8119658119658121","0.6916132789749564","0.6309736774853055"
"0.804605335990258","0.6572539979829995","0.618718425950545"
"0.8077098540145986","0.6485604036806174","0.6163650267652306"
"0.8132016165244723","0.6778922920598055","0.6037573497777141"
"0.8116613808245915","0.669578783151326","0.6285486866542851"
"0.7952160117158897","0.6733251382913338","0.6098289437958185"
"0.7978750316215532","0.6765486035262912","0.6069802731411229"
"0.7909869733599343","0.6482111057147483","0.5973317161916312"
"0.8143205440780188","0.7062224250722653","0.6220584065778282"
"0.8132827760542342","0.6869026091449237","0.5950367392208512"
"0.8271520146520146","0.6805537244561634","0.6273651692624533"
"0.7852302586087678","0.6311233523509739","0.5974072740367303"
"0.8143585386576042","0.679144385026738","0.6220272454398523"
"0.8065661047027508","0.6463304137722742","0.6107816711590297"
"0.7982844889206576","0.6798669412323775","0.6051487796723504"
"0.8080749819754867","0.6695171922323179","0.6158663883089771"
"0.7977099236641222","0.6718576195773082","0.5999281092739036"
"0.7848837209302325","0.6653106508875739","0.5963216957605985"
"0.8202666666666666","0.6887266828872668","0.6307090039147456"
"0.8160566706021252","0.6823598646461675","0.634329323502781"
"0.8020521590423257","0.660347551342812","0.6324898387308248"
"0.7777902663819265","0.6452599388379204","0.5979862833795417"
"0.8033103448275861","0.6487796434135364","0.615448620163639"
"0.8110075051171253","0.6678367705133831","0.6259059164580314"
"0.8240041655818797","0.7172808132147395","0.6510340809787357"
"0.82837528604119","0.6912286631739056","0.6407796101949025"
"0.7873316136428776","0.6972607612949128","0.6152402402402404"
"0.8190118152524167","0.7024756189047261","0.6343972167599456"
"0.792","0.6598639455782312","0.6158307744796997"
"0.8033849001718895","0.6611274030628869","0.5877384592980923"
"0.7639759839893262","0.6670739156994502","0.5823075660594124"
"0.81175","0.6908467799514493","0.626782994045146"
"0.80351613225452","0.6424469079738213","0.613394584139265"
"0.7988480283562251","0.6641296687808316","0.6074924944524213"
"0.7988864142538975","0.6806747558449245","0.6268086268086268"
"0.8083941605839415","0.6667661097852028","0.6207542123562451"
"0.8008229394368008","0.6467023172905525","0.6263954733139624"
"0.7808350444900753","0.6594535118283514","0.595467032967033"
"0.8089241719134957","0.6603605211493843","0.6381790252757995"
"0.7859979408736579","0.6517077045274027","0.5888324873096447"
"0.8041632429471378","0.6583575209151442","0.5973068745570518"
"0.7820421701018716","0.6419294990723563","0.6060699429979972"
"0.8132738979692917","0.6849583537481627","0.6404815650865313"
"0.806777300684693","0.6800341296928327","0.6224148606811145"
"0.7964965101957028","0.6705030629292742","0.6176866173503698"
"0.7966839960657581","0.6784439015222703","0.6012359142130135"
"0.8106765983860956","0.6789515488482923","0.6158277744087326"
"0.8007846021821748","0.6583909490886235","0.6080368015153566"
"0.7909936368086148","0.677761461902431","0.6242174377767599"
"0.8145854833161335","0.7204002223457476","0.6371408549404345"
"0.793244491357699","0.6436140546569994","0.6159759358288769"
"0.8078521939953811","0.6564491654021245","0.6088251218191663"
"0.7783845278725825","0.6447051261449462","0.6083421171510315"
"0.8149584487534626","0.6675122304765356","0.6298927006196162"
"0.813814667424673","0.6585182399398269","0.6277372262773723"
"0.8040489499924459","0.6633935585231736","0.6277465918203688"
"0.8054341036851967","0.6619110193354608","0.6046173423013997"
"0.8120624663435649","0.6974926733962878","0.6312357352461688"
"0.8018209408194235","0.6649001943119591","0.6085143353605561"
"0.8229541945445188","0.7033294682789465","0.6507592190889372"
"0.7909298345693098","0.6188118811881188","0.5949770074283693"
"0.8076519916142558","0.7052377115229654","0.630456706526437"
"0.7939244663382594","0.6777242732298913","0.6187713818235907"
"0.7913972448692719","0.6686125705390153","0.6172223212693885"
"0.802820874471086","0.699870872532743","0.6144778043838645"
"0.8071321627875323","0.6764653798477068","0.6345574954846478"
"0.8098693759071117","0.687076832499264","0.62287166454892"
"0.8013927576601672","0.662883087400681","0.6140229087122526"
"0.8121243125719402","0.6852825229960579","0.6453415281463892"
"0.8262123918120622","0.680190174326466","0.6080804904889168"
"0.7790599493385871","0.630641570532281","0.59974021154203"
