"0.8148744365743722","0.722272155311882","0.6239466980207721"
"0.8209496766051428","0.6839663172366386","0.5872180451127821"
"0.8196917551997607","0.6866485013623979","0.6077073343988635"
"0.8177496038034866","0.6892902754971721","0.6127497621313035"
"0.8032786885245901","0.6962506792247781","0.5952145540834487"
"0.8152616990053808","0.7286091217489634","0.6120705663881152"
"0.8089462907544495","0.6938775510204082","0.6178674351585014"
"0.8159501233926484","0.6873996203825377","0.6062967581047382"
"0.8044374009508716","0.6920165795638853","0.5941422594142259"
"0.813642183680596","0.6787830896878704","0.5884373211219234"
"0.8086098162873596","0.6910977784984597","0.593217360745036"
"0.8230958230958231","0.7250125986897363","0.6140254003313086"
"0.8014734903302196","0.6749680715197957","0.6053550640279395"
"0.8044619422572179","0.6897983392645314","0.5969220694171579"
"0.8101907429638523","0.6852248394004283","0.5939886271324126"
"0.816379760041732","0.7133666904932093","0.6197273456295108"
"0.8030909341796606","0.6811224489795918","0.6255506607929514"
"0.8111847794753531","0.6862531737395721","0.6312778130959948"
"0.8190504189328238","0.7054545454545454","0.6435118186203569"
"0.8358944621629457","0.721518987341772","0.637351443123939"
"0.8208338550143984","0.720471829892907","0.6282539682539683"
"0.8153235653235653","0.6783625730994153","0.6264424662050776"
"0.8357379219060226","0.7107464607464608","0.6262028127313102"
"0.8123549883990719","0.709351011863224","0.6197666437886067"
"0.8143712574850299","0.7259721203228172","0.6411867364746946"
"0.8331690834858512","0.7023599859105318","0.6444206337058014"
"0.8070766638584668","0.6945137157107232","0.6227900757688308"
"0.7944358578052549","0.7026780279975654","0.591903210795719"
"0.8256462240243284","0.714456035767511","0.6202312138728324"
"0.8330867850098619","0.7220152034580415","0.6298211910743313"
"0.8133985048878666","0.6712382445141066","0.625426039536469"
"0.8067731475921701","0.6976891421335866","0.6049245432883241"
"0.8208345491683688","0.7400329489291598","0.65983860955928"
"0.8053287494628278","0.6969752520623281","0.6170808540427022"
"0.8227848101265823","0.6965966690803765","0.6194149791063965"
"0.8243971631205674","0.7119603680113235","0.6459705236751333"
"0.8295838020247469","0.6883688192855887","0.6328839299550596"
"0.8265234648610786","0.706860121143823","0.6432962720732505"
"0.821629506147114","0.6903896103896104","0.6205648081100652"
"0.8282953419226956","0.6915748734742482","0.6088060965283657"
"0.8227036185404817","0.6999855135448355","0.6246966837422486"
"0.8251373100012773","0.708700355431927","0.6271878646441074"
"0.8025316455696202","0.7101083032490975","0.6009209516500384"
"0.8261978257951954","0.6803102822247895","0.6297698805709292"
"0.8307082020767705","0.7111862496477881","0.6234063887695173"
"0.823293172690763","0.6854274414359599","0.6329700272479565"
"0.8383658969804618","0.7108976283398378","0.629254571026723"
"0.8317388857625212","0.7043418332184699","0.6373692077727952"
"0.8253382533825339","0.7232328843216221","0.6229414291851639"
"0.8071925052886068","0.6805028936340052","0.6106787330316742"
"0.8171095637345459","0.7216793340571841","0.6224823549664315"
"0.8110367892976588","0.7084421235857268","0.6032267702420078"
"0.8183843357955212","0.7084610668301655","0.6415255443290167"
"0.8319716775599129","0.698585789742716","0.630304887390838"
"0.816952426950012","0.7303573911834238","0.601819022660706"
"0.8136363636363637","0.7089978934697563","0.6346483704974271"
"0.8267057960381511","0.7301923416269631","0.6470588235294117"
"0.8298541607091794","0.7094017094017094","0.6327666151468315"
"0.8236065573770492","0.7147603227337447","0.63538327018362"
"0.8279382470119523","0.7111843090282978","0.6389160497276156"
"0.822690992018244","0.7041484716157207","0.6386687797147385"
"0.8159963014331947","0.7006987024098104","0.6258484554647459"
"0.8156232050545664","0.6797823357053161","0.6106480236622749"
"0.8413229282794501","0.7268118103191172","0.6316248003484826"
"0.8320285675044637","0.7042589437819421","0.6252105988665952"
"0.8326689353427321","0.6812072624381041","0.6220302375809935"
"0.8075959382830015","0.7057692307692308","0.6398310677048963"
"0.8338003880146583","0.7001438159156279","0.6157585060117676"
"0.8230873290245002","0.7036263527624834","0.6241110734845919"
"0.8345936734476515","0.707580380192443","0.631276213301378"
"0.8414585810543006","0.7226011823556163","0.6459197786998616"
"0.8320234447848674","0.6959177113468337","0.6242379182156134"
"0.8373854612095296","0.709057510244454","0.6273774444146799"
"0.8472134462277265","0.7033742331288343","0.6381696122756543"
"0.8232018561484918","0.7115411195577056","0.634010354440462"
"0.828242257689462","0.6961644522436701","0.6031505986137367"
"0.8265551489806586","0.6888916844886148","0.6129111438389788"
"0.8207355136382142","0.6919029027329825","0.6295289855072463"
"0.836623748211731","0.7278439153439152","0.6348756688700031"
"0.838230475150191","0.693920062491863","0.627994011976048"
"0.8310998151571163","0.6913580246913581","0.6391433363436976"
"0.827270593757334","0.6910167818361302","0.6241228650867204"
"0.8364505695401491","0.7007072623770916","0.6323664122137406"
"0.8288011350200993","0.7058331007535585","0.6257356875334403"
"0.8256007613609327","0.7068991208463716","0.6317525773195876"
"0.8407538923791313","0.6801203752876616","0.6513827195873334"
"0.8195000690512361","0.6956987328217027","0.6267372600926537"
"0.830225711481845","0.7022164276401565","0.6072843450479233"
"0.8356026222894604","0.7020987467914842","0.6212909576712137"
"0.8508261577845008","0.7219123505976096","0.653388515261252"
"0.8440720190238931","0.7207825203252034","0.6457193741254295"
"0.8477605271975875","0.7222291954311535","0.6482602118003025"
"0.8316115702479339","0.7013530927835052","0.6451243923362883"
"0.8394799054373523","0.7318727915194345","0.6540489387589563"
"0.8260713859376867","0.6915593705293276","0.615069055107343"
"0.8205987488829313","0.6865177832919768","0.5964912280701755"
"0.8432141107300343","0.6949977866312528","0.6518266334948278"
"0.8295860474889682","0.6793873312564902","0.6309238870272857"
"0.8357181280258205","0.7133177282247137","0.6440720995176441"
"0.8365832980076303","0.7","0.6518730613218803"
"0.8403213658046699","0.6785390884394807","0.6295685627919758"
"0.837450113256391","0.6923076923076923","0.6290383406662476"
"0.8158598881050839","0.7007196274869479","0.6070873923478751"
"0.8274597143980088","0.7099186991869919","0.6461090909090909"
"0.8438065099457505","0.6816755355437304","0.6216934565244905"
"0.831735472510272","0.7061808118081181","0.6421502474134053"
"0.8393464195635487","0.7150192554557125","0.6405992128983116"
"0.8398215733982158","0.7079136690647482","0.6389471232238527"
"0.8335294117647057","0.708197484862599","0.6399540757749713"
"0.8429962894248608","0.7310847766636281","0.6347001469213304"
"0.8277729636048526","0.7134560731496354","0.6220984215413186"
"0.832623795653148","0.6968183763732344","0.6368773820475753"
"0.8434029320302088","0.7188106011635425","0.6510263929618769"
"0.8377941855099216","0.7077418410654178","0.6413087934560326"
"0.8040530897673757","0.7378495588455212","0.6252716547656008"
"0.8341304347826087","0.7065616797900264","0.6385270541082164"
"0.8356667431719073","0.6966228627949698","0.6363058135097316"
"0.7996765249537893","0.6822157434402333","0.6016181620577226"
"0.8250368522508221","0.7274464310085983","0.6509584664536742"
"0.8283396430502975","0.6709146422408071","0.6177423374034389"
"0.8241628082265533","0.6845618915159944","0.6341588605158476"
"0.8275259421081377","0.7107415107415108","0.6556962025316456"
"0.8241423375602084","0.6849179923541743","0.622112211221122"
"0.8262959594647266","0.7056269828018032","0.6421477343265052"
"0.8339653304442036","0.6720499174160397","0.643800273182577"
"0.8211029092488059","0.7042828008157715","0.627097489945916"
"0.8179236352161565","0.6835062807209176","0.6221119958229997"
"0.8240246406570841","0.6936996433760402","0.6283792201320543"
"0.8102226720647773","0.6862716552627748","0.6050210509901762"
"0.8055692055692055","0.6777343749999999","0.6006066734074822"
"0.812641815235008","0.7007087043430855","0.6057030481809244"
"0.8022505378123449","0.6951754385964913","0.589993772057297"
"0.8268139285166437","0.7266108481980343","0.6385481431692153"
"0.8310834605000588","0.7156587313322491","0.6363381072732378"
"0.804644412191582","0.6753398058252428","0.623541523678792"
"0.8123231688148381","0.6938992042440318","0.6188817598533456"
"0.8184281842818427","0.6864590876176684","0.6037455961431485"
"0.8263095706971249","0.689380751056951","0.6253623188405797"
"0.7967948717948719","0.6875951293759512","0.6105730427764325"
"0.7993300852618758","0.7285499247365781","0.6195275070213118"
"0.81959636419658","0.7017543859649124","0.6158892128279884"
"0.8150087260034904","0.6990502880274015","0.6322471434617013"
"0.8309584520773962","0.7073307218802463","0.6323907455012853"
"0.8258503401360544","0.706357516828721","0.6167983233919071"
"0.8312020460358056","0.711503347534997","0.6197018415667934"
"0.8054650288292806","0.6969026548672567","0.6140939597315437"
"0.8302578196571129","0.7328649492583917","0.6238981390793339"
"0.8365393910101497","0.6916016521340064","0.6249573427368901"
"0.8196082922918337","0.6975069252077563","0.6195286195286196"
"0.8199134199134199","0.6809078771695595","0.645233168868375"
"0.8103418948800817","0.6867632850241546","0.5936749399519615"
"0.8243660271031799","0.705224476753475","0.6210973022127917"
"0.8128201375676863","0.7077993409007689","0.6154118689105403"
"0.8082474226804123","0.7108896797153024","0.6130696474634565"
"0.8172166427546628","0.7192784667418264","0.5884161968221425"
"0.8183352080989876","0.7275844333961942","0.635628198778273"
"0.8252850908067015","0.6988687376548752","0.6402419611588666"
"0.8233707865168539","0.700187292897277","0.6371244340787489"
"0.8036006546644845","0.6907026695305309","0.5964793500338526"
"0.8259335847220532","0.7310496629522631","0.6258810262193403"
"0.8267228267228267","0.7021849745585155","0.6299057532705022"
"0.8258694325808419","0.7059877557115125","0.6363886595100468"
"0.8433211344922233","0.6982280535641824","0.630910739733126"
"0.8338125359401956","0.7420959717541327","0.6374939447763603"
"0.8227712137486572","0.7037938439513243","0.6136038868248072"
"0.8314289382462446","0.6979500320307496","0.6439317953861584"
"0.8084051469720221","0.7037474181174388","0.6111864917835068"
"0.80795557277541","0.681184668989547","0.5955002393489707"
"0.8455059420791509","0.7233498935415187","0.6602697095435685"
"0.8220858895705522","0.68744648056174","0.6222021931801112"
"0.8341494036409292","0.7378271677145781","0.6487404472120011"
"0.8285094989162312","0.7056591843186848","0.6317746317746319"
"0.8266753274872793","0.7079064880483321","0.6328269729529455"
"0.8204752126723379","0.6797762332598746","0.6341538937916086"
"0.8324540139740483","0.6938630720113516","0.6384720327421556"
"0.8283431212092036","0.6686292981629769","0.61502189289323"
"0.8328276260655975","0.7099195710455763","0.6442396313364055"
"0.8275204359673024","0.7036775106082036","0.6446540880503143"
"0.8304262295081966","0.6663401893568397","0.616519600752206"
"0.8212770835721656","0.6912391693027095","0.6128420482254131"
"0.8363553943789664","0.6880353688864327","0.6218354430379746"
"0.8137661703685624","0.7014902905313863","0.6243086087079848"
"0.8192887281494877","0.7290780141843971","0.6470831609433182"
"0.8326068003487358","0.7211805555555555","0.643241532130421"
"0.8192336589030804","0.7143354210160056","0.6144640109420414"
"0.8204583396570041","0.7139479905437353","0.6290587077730404"
"0.8331970564186427","0.7203418803418803","0.6532356532356534"
"0.834108527131783","0.6857957583318481","0.6500862564692352"
"0.8207029990325703","0.7139867457272411","0.6169172932330828"
"0.8351500168558263","0.7057537242039087","0.6446953781512607"
"0.8415449088231962","0.6912380180909949","0.6312594840667679"
"0.8255082284607939","0.6861514919663351","0.6342864603734168"
"0.8264024560424226","0.7077766358341898","0.6530489636527487"
"0.8184452563941036","0.6986152170530575","0.6187572590011614"
"0.8312629399585921","0.7364854912358227","0.6303409260086349"
"0.838672102504368","0.7306333242729003","0.6449089683074849"
"0.8350243506493507","0.6857926905326182","0.624576963472984"
"0.8315156457038019","0.6931664826401668","0.6218388087922476"
"0.8296933835395374","0.6965094590993871","0.6518979762902646"
"0.8300958937791985","0.6901496259351622","0.6375570776255708"
"0.8425446171560161","0.7210860972675718","0.6522193991929457"
"0.8151778213385606","0.6973180076628352","0.6237771513845134"
"0.8263840468553897","0.7196088349350868","0.6455189405605174"
"0.8148148148148149","0.668540312664676","0.6306250959913992"
"0.8331522276005137","0.6917368884417054","0.6337662337662338"
"0.8424916573971079","0.6996600951733515","0.6489295879222868"
"0.8495008958280009","0.7149787750151607","0.6575571667596207"
"0.8236487465584696","0.7120492524186456","0.601129544652312"
"0.8263771066621424","0.6741154562383613","0.6240754909461872"
"0.8061855670103093","0.6808931041296187","0.6191064806639591"
"0.793758280582953","0.6795427670476942","0.6115999281738194"
"0.8358568940104516","0.7216752617596499","0.6310144039227705"
"0.8185677894140957","0.7133961928482477","0.629040533606978"
"0.8307094266277939","0.6856591018831484","0.6321420441611655"
"0.8262348618859708","0.6976882923191647","0.6024844720496895"
"0.8348414039972158","0.6715939886671595","0.6222621588228686"
"0.8124855491329479","0.698997641509434","0.6330633901144932"
"0.8209504193026336","0.7064255482878031","0.6388561816652648"
"0.8268348623853211","0.6941121640515768","0.6022145099983474"
"0.8337168463122199","0.7195225916453537","0.6325505633229266"
"0.8362117620498928","0.7283644432841666","0.6492791612057667"
"0.8256023776669144","0.6767901922541097","0.6347531096871467"
"0.8389024721543058","0.7150225660863958","0.645760743321719"
"0.8274608783442704","0.6918723660445515","0.6323628977657414"
"0.8225096679557276","0.6970566037735849","0.6092171717171717"
"0.840769331414366","0.679139072847682","0.6380019866609905"
"0.8208383495676919","0.7144058295964125","0.6502331778814123"
"0.8330511344395529","0.7200851856781578","0.6475622406639003"
"0.8305448305448306","0.7160429884759808","0.6470954098768503"
"0.8417582417582418","0.7142146292917565","0.6518885810121045"
"0.8338008415147264","0.7119661618228952","0.6305876110890037"
"0.8297995933778681","0.7156448202959831","0.6517381772627623"
"0.8182370820668693","0.6957038210255395","0.6163185145509731"
"0.8326680994780473","0.7157538387135775","0.631072631072631"
"0.8292097045399952","0.7085714285714285","0.6124842899036447"
"0.8372253537328885","0.7191011235955056","0.6434047052603753"
"0.8159549100368525","0.6937418702124585","0.6470970255877386"
"0.8409387222946544","0.7284097677188803","0.6516853932584271"
"0.8335419274092616","0.6984536082474228","0.6030886801464735"
"0.8473340040241448","0.689708617482951","0.6427027027027028"
"0.8384371700105596","0.6963620739043254","0.6253195210547557"
"0.8331114607285488","0.7156502571638502","0.6324762437115707"
"0.8279210925644918","0.7019803183088325","0.6212084445522931"
"0.8294430035815734","0.70569468814803","0.6485368016553354"
"0.8284883720930233","0.6828832051511358","0.6522934452322385"
"0.8215503523528075","0.70862859524802","0.6345820557259031"
"0.8320158102766797","0.6937942297223735","0.6379702095430446"
"0.823399069355196","0.6947397110929407","0.6171305052688463"
"0.8311221945137157","0.7085800680357817","0.6521841240018789"
"0.8251181634031058","0.7036616520011354","0.6333693304535637"
"0.8276673332549112","0.709581284458352","0.6362871564778464"
"0.8315206238456803","0.688202610156351","0.6366757428672901"
"0.8213278646500897","0.6840894148586456","0.6254253015774822"
"0.818276220145379","0.7037408149632599","0.632173095014111"
"0.8251971648198063","0.7074447707827863","0.6411506582155048"
"0.8294794395717053","0.7178399773819621","0.6381441866925962"
"0.8144107937419263","0.6864661654135339","0.626493856253156"
"0.8398237465761583","0.7107391119307703","0.6268739589117156"
"0.8243831640058055","0.7409800753904147","0.6094499815430048"
"0.8038176033934253","0.6928261195147521","0.6026200873362445"
"0.8190012877378737","0.7042253521126762","0.6447241045498548"
"0.8323512420566147","0.7107438016528926","0.6345273363856719"
"0.8377699648417881","0.7209635790077431","0.6272360069244085"
"0.8123230263903045","0.6740521142143859","0.6386486486486487"
"0.8177223357350253","0.6854420624912428","0.6306684141546527"
"0.8223565942147409","0.7005776038755357","0.6130500758725341"
"0.8149765990639625","0.6936063218390806","0.6237410071942446"
"0.8182941903584672","0.6894540741940709","0.6394237836248713"
"0.8436968058476019","0.6869021808442801","0.6640171858216971"
"0.8289886720349392","0.6969901927629355","0.6397376658220301"
"0.8212603062426385","0.6999246987951807","0.6343612334801763"
"0.8177848352520842","0.6737928492443789","0.6488354620586025"
"0.818708929261693","0.696103027262084","0.6197096076614149"
"0.831965967790945","0.733803058944836","0.6260176684566083"
"0.8379058070416096","0.7138787138787139","0.6416436191228764"
"0.8392333709131905","0.7062994273247886","0.6448197630451222"
"0.8261089987325729","0.72202500385862","0.6424710424710425"
"0.8271813974489219","0.7118495846086575","0.6458502297918356"
"0.8264444444444444","0.7050340136054423","0.6355976829910479"
"0.8117996044825314","0.6963263799150822","0.6137526046599736"
"0.8260777683854605","0.6958838417477021","0.6397330473125968"
"0.8225154288146415","0.6939027400641817","0.5990251410979991"
"0.8171434787338192","0.6872005475701575","0.6168680894831575"
"0.842846733058052","0.727171181234292","0.6415770609318998"
"0.8175787728026535","0.6992352114874356","0.618384401114206"
"0.8035170781197161","0.6995112414467254","0.6081970694414951"
"0.8073170731707316","0.6944772842425264","0.5994322925363167"
"0.8165075034106413","0.6716240333135038","0.6268498942917548"
"0.8343007337641003","0.6914165350184308","0.6255887969446212"
"0.8216021102318477","0.7302688638334779","0.6439344262295081"
"0.8188521035130838","0.7080886531540065","0.6438176451295506"
"0.8261920457042408","0.6947769314472253","0.6179948586118252"
"0.8196643819428032","0.6854803333820734","0.6149842487330502"
"0.8050837101307589","0.6950860331731513","0.608108108108108"
"0.8187250996015937","0.7045603031490919","0.6039908932636936"
"0.8297373936629269","0.7183924904664125","0.6274398062402052"
"0.8238866396761133","0.7262474367737526","0.6375531566895649"
"0.8101159703786504","0.6732405259087394","0.6421669570727071"
"0.8168160585784624","0.7055600322320709","0.6344437834622249"
"0.818052133316042","0.698943661971831","0.656740060193252"
"0.8236742000447527","0.6868287167891464","0.631868131868132"
"0.8174530161650677","0.705372038705372","0.624026512013256"
"0.8137779607520242","0.6980108499095841","0.6389618414954426"
"0.8106238760547794","0.7323340471092078","0.6470485808810726"
"0.8278231000429369","0.7266378450282674","0.6277178423236515"
"0.8347534211205783","0.7180496668685645","0.6330935251798561"
"0.833609588167793","0.7097415506958251","0.6638908829863603"
"0.8270544172725269","0.7006848395326977","0.6389703071237416"
"0.8077841451766953","0.687842278203724","0.6229127341367795"
"0.8398225726959093","0.7218968718754463","0.6426898167286758"
"0.8202054794520548","0.7102831594634872","0.6110124333925399"
"0.8200212992545262","0.693134049509575","0.6314293833475418"
"0.8195657599201399","0.7166821994408201","0.6292497069167644"
"0.8340611353711789","0.7347112117780293","0.6546802086192698"
"0.8358277162115847","0.695049504950495","0.6365664785404909"
"0.824161368121026","0.6799945967850871","0.6221485918185293"
"0.8324554803110108","0.7312930150827354","0.6468859342197341"
"0.819173715826897","0.7016373559733172","0.6187050359712231"
"0.8205320344698389","0.7033201340237587","0.6155452782336266"
"0.8277634961439589","0.7129357087529048","0.6096893610172219"
"0.8299825174825175","0.7021639344262296","0.6294217465082886"
"0.8288019863438859","0.7239320165365181","0.633304067895815"
"0.821049731367957","0.7071415390293412","0.6471367096987752"
"0.8151281413286888","0.698531810766721","0.6128125"
"0.8413450688332205","0.7174577848690333","0.6380766731643924"
"0.8365090566925429","0.7054307648564117","0.6384532179556518"
"0.8286300667008722","0.7355223880597015","0.6312312312312313"
"0.8161795262501731","0.7041564792176039","0.633574297188755"
"0.8101057256625017","0.6767281535308366","0.619689817936615"
"0.8060925600468658","0.687255197348599","0.6204861598988338"
"0.8177142140258437","0.7092703446044331","0.6292798110979929"
"0.8027154336381268","0.6954453996707519","0.6206077066711935"
"0.8310193024043345","0.6998722860791826","0.6531082118188795"
"0.8138809814287651","0.6929409703976178","0.6255183413078151"
"0.8203842940685045","0.7103626156880595","0.6335034013605442"
"0.8044772564896403","0.6704014939309056","0.6168849261632767"
"0.8212827988338193","0.683798068161108","0.6201144726083401"
"0.8328067403896786","0.720112958895513","0.6505774355937223"
"0.8236171535114979","0.7138432951378134","0.6272846907442607"
"0.8416355083825836","0.711985178851361","0.6376889848812094"
"0.8157413914265637","0.6922790003729952","0.6302906680265171"
"0.8167795877180338","0.6901408450704224","0.6257339372588492"
"0.8337474120082816","0.6954109934442765","0.6137999503598908"
"0.8190114969775987","0.7050867391943546","0.6444833625218914"
"0.8205311420745505","0.7026537997587455","0.6314458339187861"
"0.8236318407960198","0.7097806947334722","0.6505384274966809"
"0.8402813965607087","0.7139724310776941","0.6509246088193457"
"0.8304585612116113","0.7307381683088354","0.6394836272040303"
"0.8195819581958196","0.6877614111656665","0.6328949504789738"
"0.8329083046900987","0.7092618832925415","0.6325316783035945"
"0.812733630772941","0.6880896226415094","0.6169462850697871"
"0.8188175460902732","0.6854864433811803","0.6276459724392669"
"0.8218433407462318","0.7166228454572012","0.5980934809348093"
"0.826479438314945","0.696801480306635","0.6243594797004336"
"0.8372736070786672","0.6935842600513259","0.6301739652069587"
"0.8359693877551021","0.7013517761710154","0.6492537313432837"
"0.8203470201530336","0.7080778459077579","0.6421994553235638"
"0.8278496611213801","0.7066995986415561","0.6447311204522396"
"0.8179263422570626","0.7072649572649572","0.6061756080731412"
"0.8264571054354943","0.6616620111731844","0.6318545454545454"
"0.8291800083530557","0.6801709719383013","0.6310527960012496"
"0.8341674249317561","0.7392063888195659","0.6359544612126027"
"0.8296777081468218","0.7342140026420079","0.6366391184573003"
"0.8283222400734449","0.7321797520661156","0.6438140267927502"
"0.8202118157458211","0.6630010642071658","0.6366409995641434"
"0.811822923632473","0.695794647733479","0.622906898861353"
"0.822414037073723","0.7235659986178301","0.6408088844687551"
"0.8267006261275602","0.6798199152542372","0.6332141536185427"
"0.8219209825049242","0.6951003541912633","0.6379880873593646"
"0.8290391027584116","0.6539583738572261","0.6229810798338717"
"0.8394625176803395","0.7148367952522254","0.6498807315133845"
"0.8261370916079436","0.7088444157520981","0.6457134425261916"
"0.8312914752424707","0.7057124518613608","0.6381774865991662"
"0.8207308664674786","0.6802617562014914","0.6369675654552559"
"0.8254146122814882","0.703841059602649","0.6191106405505558"
"0.8198451004602089","0.6666666666666666","0.6422184786834262"
"0.8335726406474351","0.6756665541680729","0.6371326164874552"
"0.8355503237198353","0.724040632054176","0.6540946854806805"
"0.8445121951219513","0.727096327096327","0.6495210602283166"
"0.8300876338851023","0.7174806024646281","0.627686010817132"
"0.81479724922931","0.6936505484319482","0.6365032816645719"
"0.8317526308951539","0.7134767836919592","0.6430945905107284"
"0.839448411721251","0.7085765603951504","0.6486338047507895"
"0.8229786157155511","0.6620712844653664","0.6184912736189241"
"0.8175824175824176","0.7072825162935676","0.6154066848371826"
"0.8155635558017169","0.7059881316310016","0.6389817024661893"
"0.8348942439229716","0.7058071117932976","0.6366183457181143"
"0.8320710368242361","0.7190412782956057","0.6531559405940595"
"0.8182203989248832","0.7001174693740561","0.6138065776619993"
"0.825115562403698","0.6951888418743143","0.631842998376863"
"0.8383588729609491","0.7212626563430614","0.6481481481481481"
"0.8212952096447244","0.7067414265223628","0.623403168114461"
"0.8242236897569201","0.7083969465648854","0.625"
"0.8320367045681228","0.6902094495859717","0.6201236917221694"
"0.8172773598641105","0.7139099941554647","0.6356680400235433"
"0.8248203788373611","0.7073495177918192","0.6376856919468334"
"0.813711803939817","0.6860525857565734","0.6165170556552964"
"0.8066522053506868","0.6807346619773348","0.6189751395230848"
"0.8388481939883808","0.6854124592201336","0.6406889735987576"
"0.8376285387838008","0.6820982514571191","0.6446613088404134"
"0.8286430760657565","0.7005166577587743","0.6303574191551911"
"0.8330308529945555","0.7319838056680164","0.6400992829564258"
"0.8247193508947426","0.6796632698272043","0.6394662560944315"
"0.8380208333333333","0.7286352040816327","0.6529500756429653"
"0.8373293194280185","0.7296351824087957","0.6441938282315033"
"0.8126032570214774","0.6951925497105462","0.6289672544080606"
"0.8084285502300045","0.7091846476990643","0.6229985443959243"
"0.8249167591564928","0.6728714236470182","0.6152912621359223"
"0.8263914485809067","0.7146853146853147","0.6239253970566808"
"0.8429136606935071","0.7097047605594011","0.6497357225731596"
"0.8366367105749108","0.7200239808153477","0.6463499099598283"
"0.8275466284074605","0.7064917127071824","0.6327190430003232"
"0.8190327613104524","0.6889074228523769","0.6146288209606987"
"0.8329113924050634","0.7061183550651956","0.6456468145841442"
"0.8299749482627164","0.7140070230198986","0.6493440968718466"
"0.8307486631016042","0.6738872905737011","0.6394501718213058"
"0.8151150627615062","0.7351620947630922","0.6010041346721795"
"0.8306937774598959","0.6918514698298092","0.6293910295368907"
"0.8254991680532446","0.7214233487691932","0.6165373294086166"
"0.8350222942845561","0.7191788721024104","0.6431501230516816"
"0.8324111643919833","0.6916286149162862","0.6217073507102469"
"0.8319572043260843","0.7086346235644406","0.6156223658330991"
"0.8278980542614415","0.7031009080006854","0.6495777152170692"
"0.8348356677298571","0.6865828092243187","0.6409563113704283"
"0.8358525590029171","0.7163358778625954","0.6148031496062992"
"0.8482722785138997","0.7137558458313175","0.6644618988562766"
"0.819326818675353","0.721120186697783","0.6260129103145172"
"0.8220926394542855","0.6747491638795987","0.606463625482112"
"0.8390555492186609","0.6979827902383976","0.6554832248372559"
"0.8300636942675159","0.716205777846439","0.6351645165966082"
"0.8337095560571859","0.7253521126760564","0.6499112950916617"
"0.8351407602147003","0.7238738153965987","0.6576195219123505"
"0.8406884948880549","0.6899423446508649","0.6488517745302714"
"0.8286358511837655","0.7108212075597927","0.622680412371134"
"0.8333142661022767","0.6949321912919343","0.6222647702407001"
"0.82076874070928","0.6842321943186496","0.6187999492578967"
"0.8207927842392594","0.7096594857539958","0.6282934738548845"
"0.8134505703422054","0.6922472086806102","0.6078520539639231"
"0.8162069807175983","0.6959673765292252","0.6275059582223468"
"0.8276584599266631","0.7184028336821768","0.6451217644355951"
"0.8244743680604772","0.7155196433546948","0.6354110693175711"
"0.8532971383327679","0.7351940095302927","0.6765593561368209"
"0.8246974024207806","0.710721510451787","0.6257928118393234"
"0.8366383380547686","0.7111483654652139","0.6489906598373003"
"0.8333756667513335","0.6764381402679275","0.6299762536667133"
"0.8353136578510284","0.6911764705882354","0.6394519781909689"
"0.8357407644126293","0.69568","0.6466803559206024"
"0.8322072072072072","0.7253454984569971","0.6515405440247518"
"0.8283359216342134","0.7214452214452216","0.6498185239951606"
"0.8209099709583737","0.679137124754865","0.6209405740466244"
"0.8392833086353226","0.6934097421203438","0.6433048433048433"
"0.8347119431142069","0.6899644926182021","0.6487209994051161"
"0.8352549321035101","0.7435787056966567","0.6641275215122019"
"0.8284436993573624","0.7345919800280856","0.6495936206103359"
"0.8316904879250863","0.7180428134556575","0.6487974500144885"
"0.838295243977764","0.7324510932105869","0.6509911141490089"
"0.8275944239246992","0.7285173317797845","0.6502771067216143"
"0.8404750815090825","0.6993812059289107","0.6426472467101061"
"0.8429352664377463","0.7014646307260829","0.6516822560379729"
"0.8270104358502149","0.7027429934406679","0.606384558277654"
"0.8392085512849671","0.7186317117622318","0.650649862150453"
"0.8392166060748211","0.7103051747014596","0.6584287200832467"
"0.83088954056696","0.7260656883298392","0.6490975882446893"
"0.847802495930548","0.7039572549674403","0.6569693546109306"
"0.8252326783867633","0.7109409512590193","0.6414573557825007"
"0.8193192519843939","0.7061519478230214","0.6235099337748344"
"0.8365843086259213","0.7190971609945336","0.6509316770186335"
"0.8246384297520661","0.7106615285806037","0.6348122866894198"
"0.8408920070157855","0.7140978816654493","0.6533788395904437"
"0.8268687387618803","0.7031690725070516","0.6383239027374217"
"0.8122951745959996","0.6957397812320092","0.6230906839135819"
"0.8125068809864583","0.6863734679163662","0.6225797654758658"
"0.8065862708719851","0.687781447012909","0.6193165772380683"
"0.8230368861733423","0.7127815150628839","0.6524093123984841"
"0.815975850458609","0.6952323476161737","0.6262825017568517"
"0.830390450136782","0.7190082644628099","0.6435897435897436"
"0.8197311315761617","0.6957933180035167","0.6116582379558158"
"0.8320413436692506","0.7013301088270858","0.6376618176965168"
"0.8252121212121212","0.7118745332337566","0.605710719300983"
"0.8322130943490167","0.7176397899289466","0.6224004753416519"
"0.8086158192090395","0.6940365597842374","0.6069464544138928"
"0.8212110354711574","0.6971842063866603","0.6326699834162521"
"0.8275391956373552","0.6958270487682253","0.6297297297297297"
"0.8233067459780993","0.6906574394463668","0.622754491017964"
"0.8282365620369123","0.6964586846543002","0.6333181749279977"
"0.7901634516271536","0.6901209360766453","0.594524959742351"
"0.8208890807078117","0.7032374100719424","0.6138884149462549"
"0.8119259573265509","0.6889545622460288","0.6166315448208787"
"0.8381328073635766","0.6864189073471485","0.6618131868131868"
"0.8305084745762712","0.7113894840942806","0.6316117959119987"
"0.8239183556130515","0.7087628865979382","0.6338237725243842"
"0.8337832626301582","0.7119021134593992","0.6242774566473988"
"0.8334120982986768","0.7209198148424667","0.6543123867911383"
"0.8263500931098697","0.6948952493360874","0.6303748621830209"
"0.8180617903353578","0.6740522762679592","0.6156046400762752"
